<?xml version="1.0" encoding="iso-8859-1"?>
<!-- Generator: Adobe Illustrator 24.0.1, SVG Export Plug-In . SVG Version: 6.00 Build 0)  -->
<svg version="1.1" xmlns="http://www.w3.org/2000/svg" xmlns:xlink="http://www.w3.org/1999/xlink" x="0px" y="0px"
	 viewBox="0 0 835.426 791.319" style="enable-background:new 0 0 835.426 791.319;" xml:space="preserve">
<g id="Cap_x5F_13_x5F_M">
	<path d="M827.736,688.942c-9.776-31.818-14.214-63.054-19.419-96.067c-5.332-33.821-12.428-68.599-20.41-102.589
		c-3.395-14.458-6.928-30.666-11.967-45.118c-4.274-12.26-9.527-24.629-18.081-34.619c-0.367-0.429-0.683-0.646-1.04-1.002
		c0.979-0.833,2.125-1.37,3.059-2.348c10.035-10.511,18.385-23.283,23.597-36.57c6.144-15.664,6.713-27.099,8.713-43.633
		c4.703-38.872,9.293-63.339,22.282-103.683c12.679-39.38,6.46-71.095-0.99-110.001c-5.293-27.639-6.973-51.624-14.342-75.041
		c-3.614-11.485-9.109-17.557-18.156-21.906c-10.901-5.241-17.523-3.119-29.167-1.37c-11.061,1.661-22.927,4.333-35.462,2.989
		c-7.682-0.824-17.125-3.299-25.665-0.399c-7.22,2.452-14.442,6.902-19.573,13.496c-18.134,23.309-22.954,48.071-19.875,75.671
		c-2.713-2.406-5.48-4.448-8.186-7.45c-7.516-8.339-11.549-20.188-21.423-25.959c-10.395-6.075-17.884-10.189-30.93-8.208
		c-10.828,1.644-20.105,6.291-29.369,16.169c-18.889,20.141-29.655,51.032-32.439,79.165c-3.919,39.602,1.937,86.794,3.098,122.94
		c1.189,37.031-4.417,62.763-8.428,95.759c-1.706,14.035-3.842,22.565-4.964,35.237c-0.764,8.626-1.93,12.292-0.071,20.372
		c-6.444-2.418-12.787-5.543-17.957-9.998c-4.787-4.125-9.713-9.054-15.555-10.592c-4.94-1.3-11.897,1.235-15.043,2.549
		c-13.541,5.655-32.666,20.139-44.075,28.5c-1.952,1.431-3.653,4.228-5.137,6.221c-0.757-7.102-1.876-15.283-3.05-22.151
		c-5.46-31.944-23.055-56.179-46.518-78.107c-19.386-18.119-43.186-34.708-64.413-50.199c-12.312-8.985-20.438-15.291-34.755-18.851
		c-2.584-0.436-5.443-0.797-8.131-1.119c0.599-1.629,1.322-2.758,1.71-4.535c2.205-10.101,1.253-19.789,0.071-30.249
		c-1.394-12.331-4.127-23.792-6.696-36.281c-6.04-29.362-12.24-56.577-22.846-85.601c-10.352-28.33-25.31-55.898-44.957-80.658
		c-13.957-17.59-33.822-34.842-56.167-41.516c-10.959-3.273-22.961-2.862-32.87,1.139c-11.94,4.821-18.675,13.681-24.562,23.556
		c-5.592,9.381-7.758,17.933-15.252,25.468c-4.593,4.618-9.615,6.862-12.57,13.256c-2.499,5.406-2.784,11.723-1.419,17.935
		c0.815,3.711,1.83,7.379,2.985,11.009c-0.908-0.851-1.853-1.656-2.881-2.373c-0.38-0.265-0.807-0.287-1.215-0.497
		c-1.595-0.818-3.197-1.805-4.905-2.337c-0.982-0.306-2.008-0.299-3.007-0.253c-0.445,0.021-0.786,0.426-1.235,0.556
		c-1.133,0.326-2.112,0.831-3.051,1.597c-0.162,0.132-0.216,0.302-0.399,0.474c-1.342,1.269-2.369,1.547-3.646,3.209
		c-7.15,9.312-10.515,19.733-13.561,31.339c-3.591,13.682-5.998,32.043-7.838,45.671c-4.326,32.039-8.462,70.364-7.99,99.883
		c0.461,28.814,3.673,47.965,7.29,73.647c2.569,18.244,7.059,32.62,16.753,47.639c4.754,7.366,11.564,11.663,19.859,13.969
		c9.995,2.779,19.889-0.998,29.846-2.457c0.917-0.134,1.775-0.419,2.646-0.567c-6.339,7.894-11.297,16.12-15.342,25.444
		c-5.623,12.964-8.934,25.51-12.125,39.197c-7.501,32.18-11.547,60.328-14.81,94.575c-3.185,33.429-5.15,70.996-11.135,106.68
		c-4.252,25.35-18.797,55.32-22.771,80.965c-1.949,12.577-4.936,21.422,7.29,30.053c14.731,10.4,36.141,10.725,57.846,10.207
		c20.618-0.492,55.391-3.957,77.421-4.432c13.502-0.291,28.52,0.744,38.729-3.477c8.632-3.569,16.293-9.336,17.743-16.454
		c6.24-30.632-9.989-67.521-18.75-98.379c-9.43-33.215-17.053-65.976-26.359-103.447c-7.688-30.961-20.211-72.711-28.485-105.421
		c-4.799-18.973-8.03-36.067-17.931-52.222c-1.43-2.194-3.087-4.328-4.939-6.173c5.057,0.049,9.971,2.009,14.986-0.165
		c4.602-1.995,8.155-4.444,10.817-9.55c11.458-21.973,11.541-42.329,4.225-67.276c-7.875-26.852-19.184-43.935-31.481-75.301
		C92.753,222.959,80.006,177.79,72.8,146.959c-1.096-4.688-2.214-9.269-3.439-13.75c4.915,8.255,10.21,16.236,15.51,23.913
		c16.483,23.874,33.309,40.996,54.426,62.854c17.447,18.06,40.146,39.58,61.009,56.235c12.102,9.66,22.699,16.11,38.758,15.82
		c0.555-0.01,1.137-0.057,1.631-0.102c-4.167,6.091-7.047,11.967-7.792,19.254c-0.937,9.169-0.449,14.85,0.679,24.155
		c2.653,21.877,6.086,38.447,11.061,61.997c4.857,22.987,12.084,50.015,20.703,75.354c6.123,18.001,15.745,43.332,30.12,58.108
		c7.05,7.247,15.86,12.265,25.45,12.612c11.555,0.417,20.845-5.248,30.123-10.332c8.813-4.829,15.24-10.81,25.372-6.234
		c4.488,2.027,5.009,10.528,11.57,9.196c-12.583,50.443-12.645,115.811-9.716,164.029c2.087,34.341,2.401,44.705,11.577,73.729
		c1.41,2.592,3.099,6.644,5.411,9.398c0.389,0.464,0.891,0.698,1.307,1.105c1.624,1.59,3.179,3.401,5.072,4.633
		c1.091,0.71,2.287,1.041,3.506,1.355c0.542,0.14,1.113-0.185,1.696-0.162c1.475,0.059,2.853-0.153,4.278-0.635
		c0.245-0.083,0.389-0.277,0.663-0.377c2.038-0.748,3.514-1.029,5.586-2.123c11.606-6.131,19.787-13.633,25.221-26.082
		c6.406-14.675,11.699-35.499,15.799-50.215c9.639-34.596,22.962-64.498,39.575-93.626c16.216-28.432,26.117-54.12,38.635-82.575
		c8.893-20.215,18.242-42.011,19.625-63.235c0.678-10.409-1.257-15.268-5.141-22.928c-2.532-4.995-6.279-5.1-10.26-7.79
		c1.319-0.723,1.895-1.726,3.283-2.65c15.133-10.081,26.764-22.767,38.872-36.728c20.874-24.07,44.896-55.295,57.678-82.806
		c15.47-33.295,20.117-67.325,23.618-100.517c1.758-16.663,1.826-31.707,1.169-46.714c4.245,17.898,7.721,36.204,8.952,60.386
		c1.846,36.274,11.115,79.263,25.012,115.412c8.061,20.967,11.764,37.524,25.2,54.323c2.389,3.032,5.271,5.926,8.363,8.443
		c0.626,0.228,1.206,0.464,1.79,0.789c0.584,0.325,1.182,0.681,1.763,1.021c-1.771,2.303-3.316,4.678-4.688,7.25
		c-9.062,16.649-12.792,34.749-17.18,53.566c-7.564,32.442-15.794,74.329-21.668,104.911c-7.11,37.013-15.162,68.714-23.568,100.853
		c-7.809,29.859-22.32,71.418-5.034,97.404c4.017,6.038,10.272,11.3,18.033,13.928c9.179,3.108,18.977,0.806,29.339-0.638
		c16.908-2.356,41.629-1.742,57.525-1.63c16.734,0.117,28.807,1.103,42.109-5.492c11.039-5.473,16.677-13.291,20.245-24.653
		C838.904,733.829,834.681,711.545,827.736,688.942z M119.948,532.364c-0.45-6.122-0.987-12.239-1.801-18.382
		c-1.604-12.098-3.464-24.255-5.2-36.373c-1.736-12.117-3.577-24.258-5.334-36.381c-0.176-1.212-0.411-2.431-0.627-3.64
		c1.336,3.469,2.607,6.898,3.744,10.453c1.137,3.555,1.974,7.236,3.617,10.623c0.48,2.045,0.983,4.098,1.511,6.122
		c6.007,23.028,11.134,45.92,14.46,69.528c1.685,11.956,3.07,23.989,4.522,36.093c0.741,6.177,1.361,12.629,2.342,18.896
		c0.927,5.918,1.799,11.898,4.038,17.5c0.244,0.61,1.019,0.848,1.137,0.094c1.02-6.525,0.448-13.04,0.037-19.614
		c-0.455-7.278-0.705-14.543-1.377-21.823c-0.672-7.28-1.271-14.543-2.169-21.884c4.732,18.019,8.263,34.203,13.177,52.551
		c8.417,31.426,15.44,64.477,24.841,95.97c4.452,14.913,7.398,30.681,10.043,46.047c0.869,5.052,0.356,10.63,1.374,15.704
		c-0.186,1.195-0.47,1.775-1.196,2.73c-1.614-18.066-6.963-33.804-11.757-51.175c-3.452-12.511-7.898-25.386-11.201-37.788
		c-3.302-12.402-4.947-25.193-8.156-37.105c-0.802-2.977-4.201-4.83-4.697-1.195c-2,14.639,0.765,29.35,4.492,43.754
		s7.707,29.528,11.472,43.781c3.218,12.182,6.361,23.53,1.643,35.711c-2.082,5.374-6.56,9.582-11.153,13.242
		c6.083-11.388,5.119-22.175,1.816-34.334c-3.719-13.692-7.717-27.47-11.063-40.974c-3.346-13.504-7.022-26.347-10.386-39.667
		c-0.908-3.596-1.924-7.223-2.799-10.653s-1.978-6.636-2.918-9.843c-1.77-6.039-3.166-12.409-5.9-17.88
		c-1.885-3.772-5.941-2.468-5.892,1.608c0.087,7.25,2.371,14.578,3.568,21.919c0.649,3.983,1.344,8.171,2.406,12.248
		c0.912,3.503,1.914,7.024,2.754,10.704c3.575,15.661,7.113,31.311,10.305,47.179c3.006,14.945,6.701,28.807,4.299,44.336
		c-1.073,6.941-3.875,12.152-9.274,17.223c-1.463,1.374-4.633,2.644-6.57,3.597c-8.543,0.58-16.954,1.236-25.439,2.022
		c-4.076,0.378-8.188,0.667-12.282,0.961c-0.109-1.179-0.236-2.382-0.254-3.559c-0.038-2.58,0.464-4.89,0.596-7.496
		c0.249-4.92,1.387-9.178,2.292-14.151c2.112-11.613,4.043-23.251,5.619-35.117c1.685-12.677,2.103-25.879,2.418-38.632
		c0.161-6.526,0.53-13.36,0.27-19.616c-0.26-6.256-0.654-12.99-1.115-18.599c-0.281-3.408-3.92-5.499-4.713-1.969
		c-1.486,6.615-2.141,12.963-2.618,19.954c-0.442,6.483-1.243,13.377-1.804,20.17c-1.15,13.91-2.413,28.193-5.56,41.936
		c-2.875,12.559-7.294,24.939-10.712,37.253c-1.952,7.034-2.306,13.742-0.626,20.726c-8.093,0.234-16.143,0.211-24.246-0.229
		c-9.204-22.865,0.021-41.641,8.746-63.374c1.095-2.728-1.586-3.874-2.911-1.432c-10.879,20.04-22.785,41.751-13.479,64.118
		c-1.267-0.154-2.576-0.34-3.84-0.522c-1.265-0.182-2.468-0.467-3.707-0.704c-6.922-15.535-0.819-31.913,4.419-47.724
		c3.205-9.674,6.866-21.879,10.255-32.053c1.721-5.167,3.442-10.865,5.223-15.925s3.951-11.444,4.597-16.119
		c0.569-4.116-2.13-8.182-5.134-4.943c-4.016,4.33-5.328,11.056-7.339,16.547c-2.011,5.491-3.695,11.725-5.588,17.202
		c-3.98,11.51-7.912,24.765-11.415,35.821c-4.887,15.425-9.641,28.747-4.391,44.107c-7.238-3.697-10.029-6.622-10.077-14.893
		c-0.063-10.88,2.894-19.966,6.388-31.117c8.644-27.59,15.764-57.796,18.581-86.384c1.958-19.878,3.534-34.739,4.857-53.818
		c0.091,5.237,0.293,9.531,0.194,14.755c-0.177,9.342-0.494,19.551,0.222,28.86c0.45,5.846,6.015,6.779,7.073,1.532
		c2.002-9.931,1.537-20.015,2.288-29.45c0.711-8.94,0.454-17.269,1.267-25.681c1.532-15.849,1.773-31.32,3.164-46.936
		c1.315-14.762,3.142-29.056,5.85-43.556c2.591-13.873,6.327-27.327,11.197-40.572c-1.242,6.492-2.351,12.831-3.122,19.305
		c-4.535,38.068-7.962,74.495-6.378,113.434c0.776,19.087,3.281,41.307,5.134,62.026c0.889,9.945,1.68,23.943,2.539,35.06
		c0.916,11.846,0.643,25.07,0.656,37.139c0.005,4.567,4.964,4.556,5.636-0.12c1.852-12.87,2.2-27.449,1.925-40.377
		c-0.263-12.387-1.608-26.669-2.76-37.891c-2.101-20.468-3.68-40.345-4.108-59.644s0.305-36.545,1.494-55.041
		c1.215-18.913,3.504-36.832,5.489-55.52c0.05-0.472,0.119-0.926,0.162-1.412c0.227,0.079,0.453,0.121,0.689,0.149
		c-0.505,7.466-1.009,15.011-1.224,22.474c-0.13,4.505-0.303,9.139-0.279,13.561c0.024,4.422,0.791,9.222,1.312,13.3
		c0.376,2.943,4.126,4.392,4.8,1.424c3.836-16.913,4.004-33.832,5.316-51.114c0.672-8.849,1.563-18.141,2.237-27.115
		c0.215-2.864,0.601-5.891,0.951-8.764c0.13,1.278,0.363,2.503,0.48,3.8c0.531,5.837,1.152,11.755,1.712,17.582
		c1.134,11.802,2.198,23.374,3.85,35.148c1.651,11.774,3.424,23.767,5.134,35.564c0.435,3.002,0.823,6.179,1.297,9.079
		c0.474,2.9,1.172,5.647,1.693,8.417c1.118,5.944,1.996,12.208,3.703,17.853c1.272,4.205,6.032,3.72,6.32-0.397
		C121.428,544.41,120.398,538.487,119.948,532.364z M79.197,226.01c2.23,11.828,4.126,21.593,7.078,32.325
		c1.506,5.478,2.826,9.874,4.318,14.816c1.492,4.942,2.853,8.659,5.656,12.737c0.305,0.444,0.972,0.501,0.973-0.099
		c0.012-5.191-1.325-9.783-2.409-15.004c-1.2-5.779-2.681-11.477-3.953-17.556s-2.594-13.14-3.87-19.29
		c4.925,13.578,10.746,29.373,16.959,41.983c10.641,21.598,20.308,41.618,24.798,64.832c2.126,10.993,1.083,20.067-1.112,30.742
		c-0.722,3.509-2.199,7.06-3.604,10.406c-0.276,0.657-1.082,1.154-1.437,1.762c4.297-11.158,5.394-22.294,3.567-34.119
		c-1.316-8.517-3.988-16.503-6.332-24.805c-2.344-8.301-4.896-16.911-8.46-24.675c-0.891-1.94-3.827-2.651-3.992-0.176
		c-0.663,9.966,3.079,19.508,5.647,28.932c2.568,9.425,4.812,18.631,5.364,28.184c0.471,8.165-1.138,15.419-4.379,22.693
		c-1.43,3.209-3.493,5.526-5.774,8.077c2.873-7.081,3.558-14.253,3.187-21.899c-0.418-8.61-2.07-17.263-4.408-25.614
		c-2.337-8.351-5.752-16.384-9.192-24.357c-0.929-2.153-1.964-4.392-3.009-6.486c-1.045-2.094-2.382-3.948-3.542-5.963
		c-2.185-3.794-4.182-7.94-7.086-11.174c-2.002-2.23-5.492-0.697-4.967,2.136c0.933,5.04,3.642,9.335,5.528,13.979
		c1.023,2.519,2.067,4.87,3.189,7.335c0.965,2.118,2.05,4.343,2.926,6.49c3.73,9.141,7.446,18.233,9.466,27.899
		c1.903,9.104,2.952,17.896,1.84,27.096c-0.497,4.112-1.624,7.344-3.935,10.711c-0.626,0.912-1.656,1.521-2.48,2.241
		c-3.343,0.226-6.617,0.668-9.901,1.283c-1.578,0.295-3.138,0.65-4.707,0.987c-0.247-0.699-0.497-1.511-0.699-2.202
		c-0.444-1.515-0.98-2.929-1.382-4.433c-0.758-2.842-1.387-5.662-1.87-8.568c-1.13-6.784-2.342-13.547-3.549-20.322
		c-1.289-7.238-2.471-14.519-3.982-21.698c-0.773-3.674-1.365-7.319-2.103-10.971s-2.191-7.395-3.401-10.792
		c-0.735-2.064-4.013-2.539-4.198-0.299c-0.348,4.198,0.047,8.049,0.495,12.163c0.415,3.814,0.933,7.581,1.538,11.411
		c1.239,7.842,2.653,15.608,4.072,23.479c1.297,7.193,1.952,14.348,3.875,21.559c1.099,4.119,2.633,8.462,5.033,12.133
		c-3.382,0.837-6.767,1.67-10.206,2.292c-9.941-9.637-15.335-21.48-17.5-34.973c-0.272-1.694-2.513-1.977-2.513-0.224
		c0.002,14.386,5.985,26,16.475,35.728c-0.639,0.125-1.287,0.237-1.943,0.339c-0.656,0.102-1.305,0.181-1.987,0.216
		c-7.659-7.526-13.401-15.653-17.743-25.45c-2.657-5.995-3.519-12.1-4.589-18.369c-0.543-3.184-0.514-6.157-0.508-9.249
		c0.006-3.092,0.71-6.444,0.171-9.35c-0.474-2.558-3.309-3.719-4.859-1.582c-2.072,2.857-2.229,6.621-2.383,10.048
		c-0.154,3.428,0.078,6.676,0.568,10.09c1.03,7.173,2.261,13.981,5.547,20.585c4.584,9.213,10.465,16.513,18.381,23.096
		c-4.843-1.108-9.752-2.047-13.581-5.552c-5.037-4.61-8.924-10.305-11.56-16.715c-6.525-15.861-8.352-32.865-11.121-49.724
		c-1.925-11.722-3.416-23.681-4.382-35.517c0.538,3.526,1.327,7.385,2.098,10.813c1.38,6.13,2.676,12.843,4.837,18.427
		c1.357,3.506,5.859,3.279,5.89-0.378c0.06-6.92-1.721-12.456-2.697-19.64c-0.925-6.807-1.935-12.65-2.066-20.489
		c-0.247-14.768-1.134-28.793-0.462-44.849c0.635-15.178,1.96-33.149,3.722-49.262c1.685-15.415,4.413-31.98,7.437-47.304
		c-0.525,6.606-0.988,14.994-1.376,21.544c-2.282,38.512-6.099,80.999-0.329,118.014c2.828,18.144,7.152,27.377,12.547,42.64
		c2.59,7.326,4.827,12.545,7.865,18.899c3.237,6.77,5.834,12.945,8.711,19.452c1.089,2.462,4.397,2.043,3.757-0.707
		c-1.761-7.571-4.14-14.425-6.61-22.025c-2.367-7.282-5.258-13.195-7.963-20.974c-4.933-14.187-8.952-25.331-11.243-41.782
		c-2.291-16.451-1.993-35.328-1.432-54.04c0.574-19.134,1.691-42.779,2.729-62.733c0.026-0.504,0.01-1.252,0.108-1.597
		c0.051-0.179,0.442,0.098,0.548-0.052c-0.154,8.403-0.304,16.861-0.187,25.236c0.071,5.056,0.052,10.38,0.235,15.309
		c0.183,4.929,0.884,10.064,1.571,14.623c0.496,3.29,3.657,3.718,4.098,0.366c2.517-19.103,2.161-38.772,2.5-57.995
		c0.174-9.844,0.241-19.35,0.326-29.057c0.027-3.098,0.047-5.847,0.041-8.907c0.254,1.311,0.499,2.4,0.735,3.725
		c1.059,5.964,1.678,11.486,2.498,17.639c1.66,12.461,3.05,25.169,4.869,37.797c1.819,12.628,3.79,25.748,5.732,38.353
		c0.494,3.207,0.934,6.409,1.479,9.365c0.545,2.956,1.219,5.697,1.836,8.392c1.325,5.785,2.155,11.747,4.171,17.164
		c1.502,4.035,5.482,1.9,5.354-1.933c-0.192-5.744-1.353-11.586-2.067-17.688c-0.715-6.101-1.532-12.318-2.503-18.782
		c-1.912-12.731-3.917-26.171-5.8-39.058c-1.883-12.887-4.003-25.745-6.259-38.526c-0.225-1.277-0.46-2.307-0.717-3.551
		c1.343,3.459,2.552,6.751,3.664,10.326s2.01,7.399,3.589,10.863c0.5,2.076,1.057,4.341,1.557,6.418
		C69.724,177.248,74.793,202.654,79.197,226.01z M242.236,233.291c-11.613-31.248-20.091-62.696-36.317-92.346
		c-7.953-14.533-19.396-28.081-30.698-40.867c-5.425-6.137-11.885-12.785-18.698-17.994c-7.258-5.55-14.743-11.82-22.28-17.198
		c-2.852-2.035-5.197,1.077-2.668,3.632c6.962,7.033,14.708,14.541,21.375,21.814c6.388,6.969,13.223,13.653,19.125,20.645
		c10.765,12.754,20.429,26.269,28.004,40.796c7.575,14.527,13.326,29.439,18.708,44.509c5.504,15.41,10.125,30.172,15.904,45.302
		c0.146,0.382,0.269,0.716,0.421,1.107c-0.222,0.125-0.429,0.277-0.622,0.438c-2.536-5.627-5.032-11.278-7.631-16.878
		c-1.569-3.381-3.019-6.935-4.73-10.214c-1.711-3.279-3.574-6.167-5.961-9.047c-1.722-2.079-4.834,0.384-4.354,2.922
		c2.736,14.462,8.69,27.753,14.624,41.112c3.039,6.841,6.094,13.075,9.566,19.579c1.108,2.076,2.16,4.043,3.299,6.092
		c-0.728-0.676-1.484-1.273-2.192-1.973c-3.188-3.153-6.242-6.441-9.14-9.863c-5.869-6.93-11.238-13.912-16.947-21.074
		c-5.709-7.162-11.4-14.785-16.936-22.19c-1.409-1.884-2.775-4.075-4.209-5.885c-1.434-1.81-2.853-3.372-4.333-5.07
		c-3.178-3.646-5.556-7.671-9.46-10.764c-2.908-2.304-5.925,2.316-4.683,5.307c1.862,4.482,4.777,8.783,7.292,12.979
		c2.515,4.196,5.166,8.403,7.985,12.329c5.552,7.732,11.345,15.402,17.305,22.694s12.156,13.931,18.747,20.56
		c0.659,0.662,1.392,1.229,2.088,1.857c-2.543-1.198-5.005-2.464-7.39-3.957s-4.538-3.269-7.194-4.265
		c-1.216-1.046-2.378-1.933-3.602-2.983c-13.927-11.94-25.949-24.839-36.736-39.856c-5.463-7.605-10.926-16.01-16.426-23.863
		c-2.807-4.008-5.81-8.312-8.776-12.307c-2.802-3.773-5.496-7.492-9.361-10.293c-0.421-0.305-1.037,0.147-0.87,0.762
		c1.446,5.319,4.267,10.141,6.973,14.858c2.996,5.222,5.963,10.186,9.121,15.22c3.158,5.034,6.286,9.908,9.558,14.932
		c-10.035-10.29-19.132-19.105-29.197-29.788c-17.239-18.297-34.02-37.728-47.239-59.674c-6.26-10.392-12.169-22.075-17.263-33.501
		c-1.675-3.756-3.619-9.087-4.917-13.219c-0.067-1.007-0.118-1.922-0.126-2.865c4.714,13.791,12.919,25.837,20.644,37.829
		c5.564,8.637,11.265,16.221,17.085,24.304c5.82,8.083,10.688,16.335,17.314,23.734c1.656,1.849,4.579,0.339,3.831-2.473
		c-3.015-11.325-9.898-21.18-16.455-30.821s-13.197-18.486-19.265-28.428c-5.186-8.497-10.13-17.17-13.084-26.768
		c-1.303-4.234-1.717-8.309-2.069-12.623c3.518,9.003,8.931,17.195,14.646,24.822c6.435,8.589,13.206,17.242,19.739,25.354
		c6.532,8.112,12.716,15.415,19.349,23.116c1.791,2.079,3.465,4.071,5.304,5.925c1.839,1.854,3.726,3.369,5.602,5.038
		c3.532,3.142,6.408,6.894,10.816,8.898c3.039,1.381,5.3-3.079,3.818-5.816c-2.637-4.869-6.849-8.986-10.383-13.376
		c-1.917-2.382-3.884-4.709-6.016-7c-1.832-1.969-3.626-3.837-5.488-5.922c-7.927-8.874-15.435-17.45-23.213-26.745
		c-7.325-8.755-14.885-18.403-21.031-28.24c-2.747-4.397-4.871-8.881-6.039-13.931c-0.317-1.368-0.208-2.773-0.233-4.16
		c2.115-2.89,3.95-5.85,5.693-8.987c0.838-1.507,1.628-3.139,2.419-4.687c0.837,0.524,1.731,1.158,2.516,1.722
		c1.723,1.237,3.425,2.318,5.101,3.599c3.165,2.419,6.163,5.112,9.054,7.857c6.753,6.412,13.369,13.263,19.53,20.154
		c6.582,7.362,12.514,15.145,18.175,23.082c2.896,4.061,5.627,8.108,8.259,12.168c2.632,4.06,5.435,7.609,8.405,11.323
		c1.804,2.257,4.892,0.038,4.031-2.652c-1.614-5.04-3.643-10.101-6.366-14.861c-2.525-4.413-5.271-8.705-8.202-13.088
		c-6.002-8.975-12.981-17.111-20.387-25.226c-6.768-7.415-13.969-14.768-21.884-21.234c-4.522-3.693-9.558-6.95-15.024-9.149
		c1.775-3.396,3.748-6.627,5.952-9.769c18.774,3.098,33.971,12.122,47.255,25.381c1.668,1.664,4.009,0.364,2.543-1.572
		c-12.033-15.888-27.775-24.085-47.435-26.923c0.431-0.538,0.869-1.057,1.336-1.588c0.467-0.531,0.957-1.063,1.503-1.557
		c14.576,1.871,27.578,6.296,40.152,13.96c7.694,4.69,14.199,11.118,20.023,17.826c2.958,3.406,4.948,7.229,7.143,10.997
		s3.858,8.376,6.433,11.658c2.267,2.889,5.641,2.091,5.848-1.589c0.277-4.919-2.168-9.913-4.539-14.161s-4.727-8.306-7.867-11.963
		c-6.599-7.686-13.865-14.544-22.695-19.619c-12.32-7.081-25.056-10.036-39.148-10.97c6.239-2.706,11.761-4.859,18.898-4.245
		c9.388,0.806,18.312,4.103,26.518,9.269c20.304,12.782,35.669,31.789,48.409,51.539c8.858,13.733,15.144,26.542,21.943,41.021
		c-2.377-3.843-4.391-7.608-6.85-11.38c-4.397-6.745-8.439-14.009-14.248-19.679c-3.648-3.561-7.67,0.9-5.906,4.976
		c3.337,7.716,8.233,15.042,12.112,22.416c3.676,6.986,7.526,14.187,10.187,21.393c5.013,13.578,10.717,26.797,15.208,40.305
		c4.246,12.769,7.575,25.396,10.637,38.327c2.929,12.371,4.815,24.65,6.847,37.17C245.774,243.511,244.211,238.605,242.236,233.291z
		 M381.879,505.191c2.893-9.835,5.513-22.015,5.696-31.821c0.206-11.042-1.188-19.634-3.911-29.563
		c-2.723-9.929-7.134-18.183-11.592-27.253c-1.203-2.449-2.623-4.819-4.161-6.987c-1.538-2.168-3.36-3.942-4.912-5.988
		c-2.922-3.852-6.061-7.636-9.898-10.265c-2.645-1.812-7.222,0.076-6.228,3.022c1.768,5.241,5.648,9.03,8.157,13.81
		c1.361,2.593,2.813,5.013,4.396,7.566c1.361,2.193,2.871,4.2,4.09,6.614c5.185,10.273,9.574,19.655,11.897,31.381
		c2.188,11.044,2.281,22.636,0.616,34.296c-0.744,5.212-2.221,11.357-4.483,16.308c-0.613,1.342-1.538,2.287-2.395,3.409
		c-3.507,0.325-6.619,1.815-9.822,3.196c-1.539,0.664-3.06,1.394-4.534,2.195c-0.347-0.906-0.652-1.989-0.953-2.881
		c-0.66-1.955-1.38-3.844-1.921-5.801c-1.022-3.695-1.71-7.778-2.44-11.453c-1.706-8.582-3.541-17.515-5.334-25.84
		c-1.915-8.894-4.037-17.383-6.501-25.835c-1.261-4.325-2.28-8.273-3.667-12.301c-1.387-4.028-3.168-7.591-5.054-11.228
		c-1.146-2.21-5.286-1.873-5.318,0.642c-0.06,4.714,0.487,8.786,1.483,13.448c0.924,4.323,2.103,8.291,3.197,12.9
		c2.24,9.438,5.026,18.632,7.476,28.411c2.239,8.937,3.782,18.791,6.388,27.958c1.489,5.236,3.582,10.873,6.584,15.534
		c-3.246,1.958-6.553,3.834-9.9,5.615c-13.317-11.458-19.384-26.385-24.25-42.86c-0.611-2.068-3.458-1.612-3.082,0.563
		c3.078,17.847,9.476,32.364,23.728,44.042c-0.622,0.283-1.247,0.548-1.89,0.809s-1.307,0.478-1.979,0.718
		c-10.177-8.213-17.963-17.781-23.861-29.59c-3.608-7.225-7.258-14.855-9.449-22.72c-1.113-3.995-1.61-8.124-2.149-12.043
		c-0.539-3.919-0.234-8.232-1.582-11.719c-1.187-3.07-4.869-3.443-6.3-0.495c-1.912,3.941-1.295,8.735-0.945,13.124
		c0.35,4.389,1.045,8.976,2.261,13.269c2.556,9.023,6.883,17.306,11.495,25.25c6.435,11.083,14.318,19.055,24.805,26.195
		c-5.962-0.079-10.477-0.29-15.877-3.766c-7.103-4.573-12.352-11.764-16.68-19.366c-10.708-18.809-17.493-40.468-23.516-60.539
		c-4.188-13.956-7.043-23.998-10.668-37.412c1.454,3.605,2.734,6.623,4.145,10.191c2.523,6.381,5.013,12.954,8.589,18.902
		c2.245,3.735,7.558,1.988,7.113-1.836c-0.842-7.239-3.764-14.02-5.742-20.484c-1.874-6.125-4.472-12.208-5.675-17.932
		c-2.267-10.783-5.935-21.43-8.825-31.364c-2.732-9.392-4.683-17.883-6.384-26.906c-1.628-8.633-1.86-16.286-1.624-24.904
		c1.031,4.09,1.853,6.991,3.16,11.018c7.687,23.676,14.942,45.459,25.232,68.991c5.044,11.535,13.954,26.222,21.129,38.379
		c3.444,5.835,7.697,13.667,12.072,19.928c4.662,6.671,9.117,14.981,13.639,22.09c1.711,2.69,5.305,1.029,4.122-2.024
		c-3.256-8.404-7.086-17.637-10.977-25.494c-3.728-7.528-8.549-15.223-12.287-21.972c-6.817-12.309-13.904-25.297-19.244-37.256
		c-5.34-11.96-9.346-23.092-13.404-34.399c-4.149-11.562-7.044-21.258-10.968-32.456c-0.099-0.283-0.147-0.472-0.261-0.772
		c0.252-0.043,0.494-0.109,0.732-0.19c1.815,4.146,3.564,8.185,5.593,12.266c1.225,2.464,2.417,5.013,3.784,7.489
		c1.367,2.476,3.468,4.708,5.23,6.92c1.272,1.596,5.438,0.886,5.252-1.014c-1.061-10.827-5.871-19.861-10.127-29.526
		c-2.179-4.949-4.357-9.645-6.292-14.651c-0.618-1.598-1.258-3.139-1.922-4.718c0.606,0.548,1.185,1.045,1.776,1.617
		c2.66,2.577,4.69,5.519,7.167,8.293c5.017,5.618,9.552,11.047,14.898,16.591c5.346,5.544,11.105,11.544,16.368,17.396
		c1.339,1.489,2.734,3.182,4.127,4.651c1.393,1.469,2.999,2.836,4.367,4.312c2.937,3.167,6.159,6.65,9.339,9.333
		c2.369,1.998,7.538,0.181,6.549-2.666c-1.481-4.266-4.485-7.106-6.791-10.663c-2.306-3.557-5.017-6.801-7.804-9.896
		c-5.489-6.096-11.166-12.209-16.716-18.096c-5.55-5.887-11.175-11.176-16.88-16.805c-0.57-0.563-1.168-1.085-1.743-1.654
		c2.359,1.288,4.74,2.451,7.06,3.827s4.465,2.997,7.031,3.912c1.163,0.868,2.238,1.591,3.41,2.463
		c13.338,9.919,26.286,20.232,37.121,33.095c5.487,6.514,10.966,13.571,16.172,20.662c2.657,3.619,5.516,7.478,8.416,11.239
		c2.738,3.552,5.323,7.651,8.96,10.557c0.396,0.316,1.293,0.234,1.23-0.34c-0.544-4.967-2.75-9.232-5.244-13.43
		c-2.761-4.646-5.601-8.967-8.522-13.482c-2.921-4.515-5.882-8.763-9.25-13.142c11.102,10.048,20.14,17.44,30.564,29.27
		c17.854,20.26,30.867,46.932,33.202,74.341c0.898,10.542,0.384,16.817-1.423,26.569c-1.914,2.93-3.902,6.028-5.544,9.228
		c3.434-9.379,4.424-16.962,3.321-27.19c-1.043-9.671-3.236-19.884-6.394-29.556c-3.158-9.672-5.948-20.888-11.44-29.545
		c-1.372-2.163-5.076-2.35-5.08,0.533c-0.017,11.61,5.162,22.384,8.033,33.356s5.599,20.357,5.297,31.912
		c-0.259,9.875-3.558,19.333-7.51,28.829C387.283,495.727,384.042,501.047,381.879,505.191z M545.112,468.003
		c0.823,7.749,0.074,14.767-2.486,23.621c-6.334,21.908-17.176,44.402-26.933,65.33c-6.784,14.552-11.799,28.758-19.051,42.943
		c1.547-4.082,2.615-6.843,4.167-11.203c2.776-7.797,6.006-16.783,7.963-25.042c1.228-5.187-3.292-6.403-5.566-2.36
		c-4.303,7.651-7.061,16.941-10.783,24.183c-3.527,6.861-4.868,10.094-9.039,16.602c-7.858,12.261-13.23,22.181-19.654,37.399
		c-6.073,14.386-12.499,33.286-17.521,50.575c-4.805,16.541-10.922,37.189-16.142,54.18c1.403-7.818,3.419-19.145,4.716-26.806
		c7.628-45.047,21.654-82.645,38.886-122.388c8.447-19.481,10.319-28.993,16.354-47.128c2.897-8.705,5.686-17.636,8.034-26.27
		c2.502-9.2,5.423-17.718,8.166-26.298c1.038-3.247-1.695-5.205-3.25-2.06c-4.282,8.656-8.025,17.812-11.682,26.895
		c-3.504,8.704-6.317,17.656-9.429,26.458c-5.676,16.053-10.415,26.823-17.947,43.419c-7.532,16.596-15.107,32.232-21.743,52.637
		c-6.785,20.865-13.41,50.567-17.427,73.897c-0.101,0.589-0.253,1.625-0.344,2.118c-0.219-0.155-0.442-0.326-0.695-0.458
		c1.432-10.747,3.056-21.762,4.569-32.439c0.913-6.446,1.989-13.59,3.26-19.599c1.271-6.009,1.561-13.462,2.255-18.407
		c0.501-3.568-2.875-9.023-4.56-5.034c-9.603,22.727-12.496,48.361-16.116,72.309c-1.854,12.264-3.585,22.432-6.225,33.934
		c-0.842,3.67-1.406,6.133-2.169,9.685c-0.011-1.756-0.104-2.931-0.089-4.659c0.071-7.775,0.352-12.61,0.794-21.082
		c0.896-17.159,0.498-34.821,1.198-53.15s2.063-39.336,4.249-57.996c0.556-4.748,1.503-9.695,2.082-14.095s0.771-9.286,1.421-13.193
		c1.396-8.386,3.23-19.371,4.441-26.463c0.902-5.283-2.946-12.473-5.598-6.813c-3.973,8.482-4.961,16.945-7.203,26.293
		s-4.143,19.522-5.325,29.594c-2.327,19.837-4.188,42.053-4.887,61.658s0.079,37.049-0.046,56.04
		c-0.012,1.898,0.077,2.659,0.105,4.468c-0.962-5.004-1.721-9.05-2.411-14.275s-1.296-11.541-2.42-16.901
		c-0.22-3.447-0.378-6.478-0.553-10.044c-1.988-40.578,0.259-83.305,7.133-122.429c3.481-19.814,8.463-36.05,13.891-52.895
		c2.77-8.597,5.378-13.862,8.181-19.745c2.803-5.883,4.63-5.465,6.369-10.658c0.189-0.565-0.211-1.542-0.749-1.369
		c-4.655,1.5-6.903,0.738-10.476,6.229c-3.955,6.078-6.966,16.535-10.068,25.061c-3.102,8.526-6.895,19.964-9.229,29.321
		c1.697-10.372,3.873-20.476,6.447-30.859c1.423-2.957,3.788-8.922,4.64-11.498c4.128-12.467,10.941-22.817,13.83-34.287
		c7.229-12.081,10.589-16.522,20.873-25.682c6.614-5.891,12.207-10.134,19.537-15.44c2.409-1.744,6.035-4.347,9.129-5.565
		c0.61-0.24,1.586-0.244,2.19-0.348c-8.518,4.363-17.331,12.122-22.959,19.283c-4.054,5.158-6.984,9.142-11.289,13.277
		c-4.305,4.135-8.465,8.044-11.108,13.487c-0.661,1.36,0.862,4.438,2.807,4.068c7.832-1.489,11.827-6.852,16.42-12.878
		c4.593-6.026,8.812-10.282,14.158-16.037c4.569-4.919,10.491-9.714,17.197-12.667c2.958-1.303,6.727-2.986,10.161-3.34
		c-6.146,3.567-11.622,9.309-16.071,14.705c-5.01,6.077-9.178,13.263-13.269,19.441c-4.091,6.178-7.122,11.262-10.281,17.652
		c-0.853,1.725-1.738,3.28-2.641,5.025c-0.903,1.746-1.335,3.585-2.11,5.482c-1.46,3.571-3.196,7.675-3.962,11.349
		c-0.528,2.533,2.73,8.133,4.885,6.536c3.834-2.84,4.735-7.267,7.147-10.968c1.309-2.008,2.344-4.15,3.378-6.314
		c0.888-1.86,1.641-3.598,2.595-5.463c4.061-7.938,7.495-14.943,12.332-22.805c4.556-7.405,9.968-15.141,16.528-21.529
		c2.932-2.855,6.662-5.432,10.727-6.756c1.102-0.359,2.43-0.355,3.58-0.44c2.985,1.778,6.061,3.34,9.168,4.874
		c1.493,0.737,3.003,1.505,4.572,2.059c-0.289,0.806-0.659,1.684-0.991,2.453c-0.726,1.686-1.313,3.321-2.099,4.972
		c-1.484,3.118-3.253,6.254-5.006,9.22c-4.093,6.926-7.982,14.321-11.97,21.185c-4.261,7.332-8.791,14.496-12.993,21.594
		c-2.15,3.632-4.461,6.779-6.529,10.124c-2.067,3.345-4.121,6.819-5.699,10.025c-0.958,1.947,0.675,6.79,2.71,5.576
		c3.813-2.275,5.87-5.464,8.632-9.025c2.56-3.301,4.835-6.711,7.304-10.589c5.056-7.942,9.843-16.747,14.503-25.24
		c4.258-7.761,9.122-15.396,13.071-23.476c2.255-4.616,4.103-9.712,5.1-14.817c3.238,0.95,6.553,1.684,9.763,2.735
		c-0.498,16.623-5.951,31.979-13.312,46.688c-0.924,1.847,0.574,3.393,1.711,1.635c9.326-14.433,14.499-29.974,14.671-47.168
		c0.524,0.221,1.049,0.457,1.577,0.701c0.529,0.245,1.034,0.555,1.571,0.806c-0.053,12.558-2.218,24.153-5.959,36.451
		c-2.289,7.525-6.178,16.405-9.846,23.757c-1.863,3.734-4.432,7.834-6.674,11.178c-2.242,3.345-5.501,6.999-7.132,10.046
		c-1.436,2.683-0.692,7.55,2.503,5.911c4.271-2.192,6.947-6.945,9.633-10.775c2.687-3.829,5.384-8.679,7.373-12.713
		c4.178-8.478,8.209-18.801,10.486-27.223c3.177-11.749,4.012-22.03,3.572-33.775C542.886,460.519,544.487,462.112,545.112,468.003z
		 M655.553,195.2c-1.4,29.992-5.798,62.466-14.266,91.753c-4.944,17.099-10.96,32.525-20.199,47.563
		c2.795-6.509,5.258-12.516,6.982-19.431s3.209-13.726,4.385-20.932c1.063-6.51,1.912-13.484,1.113-20.159
		c-0.092-0.771-0.765-0.736-0.97-0.127c-1.879,5.594-2.982,11.747-4.463,17.348c-1.568,5.931-2.961,12.125-4.51,17.806
		c-3.036,11.131-7.522,21.547-12.448,31.666c-9.727,19.981-21.967,36.894-35.375,54.364c-1.179,1.536-2.38,2.997-3.551,4.542
		c-2.636,2.342-4.861,5.094-7.274,7.656s-4.91,5.032-7.435,7.479c0.67-0.895,1.387-1.806,2.03-2.714
		c6.43-9.082,12.705-18.209,18.53-27.692c5.825-9.482,11.475-19.123,16.537-29.004c2.57-5.017,5.13-9.931,7.131-15.178
		s4.345-10.387,5.623-15.903c0.853-3.681-3.07-5.037-5.172-1.659c-2.822,4.534-5.195,9.994-7.851,14.843
		c-1.237,2.259-2.641,4.422-3.945,6.768c-1.304,2.346-2.608,4.992-3.892,7.447c-5.048,9.65-10.511,19.384-15.959,28.736
		c-5.448,9.351-10.745,18.323-16.59,27.355c-2.886,4.459-5.652,9.03-8.912,13.269c-0.724,0.942-1.563,1.933-2.39,2.808
		c1.367-2.126,2.461-4.486,3.462-6.794c3.137-7.232,6.481-14.2,9.287-21.595c5.479-14.441,10.883-28.627,12.616-44.155
		c0.304-2.725-3.421-2.338-4.573,0.114c-1.596,3.398-3.763,7.501-5.063,11.342s-2.75,7.85-4.203,11.66
		c-2.407,6.313-4.644,12.656-6.885,19.019c-0.202-0.022-0.399-0.029-0.603,0c0.137-0.454,0.24-0.765,0.369-1.189
		c5.093-16.77,8.99-31.618,13.389-49.012c4.302-17.01,9.321-32.466,10.796-51.802s1.803-43.481,3.041-64.638
		c0.679-11.6,2.418-25.323,3.994-37.524c1.644-12.734,4.156-27.437,7.052-39.719c1.052-4.462-2.006-7.081-3.637-2.834
		c-4.31,11.223-7.151,23.694-9.966,35.108c-2.642,10.713-4.243,24.138-5.088,34.257c-1.759,21.081-2.44,48.462-4.337,67.046
		c-3.869,37.913-12.228,71.244-22.596,106.549c-1.763,6.004-3.082,10.457-5.06,16.431c2.151-12.613,3.744-23.298,5.693-36.271
		c2.036-13.56,4.757-26.322,7.316-40.974c2.707-15.499,4.484-31.244,4.069-48.314c-0.22-9.061-0.385-20.261-1.041-30.339
		c-0.693-10.637-0.923-23.894-2.232-34.5c-0.691-5.604-5.697-8.877-6.607-2.012c-1.449,10.932-0.605,22.117-0.567,33.081
		c0.021,6.131,0.378,12.071,0.446,18.206c-1.847-21.467-3.901-41.802-4.037-63.655c-0.195-31.429,3.385-63.159,16.77-91.315
		c5.409-11.379,11.988-17.927,20.055-24.862c6.133-5.272,10.768-5.103,17.734-6.47c-13.167,9.148-23.067,18.849-30.798,33.561
		c-5.541,10.545-9.56,23.515-11.498,36.098c-0.922,5.987-1.412,12.901-1.172,19.316c0.239,6.415,0.265,14.142,3.01,20.035
		c2.054,4.408,5.043,2.18,5.135-2.396c0.105-5.197-0.417-12.394-0.497-18.132c-0.08-5.738,0.238-12.085,1.065-17.736
		c1.629-11.128,5.146-23.111,9.61-32.691c7.296-15.657,17.51-27.687,31.142-37.365c0.649,0.204,1.35,0.294,1.995,0.475
		c0.645,0.18,1.267,0.349,1.886,0.546c-19.421,14.085-29.212,33.276-32.968,56.675c-0.458,2.851,1.99,2.978,2.681,0.183
		c5.507-22.265,15.089-41.433,33.721-55.469c3.234,1.491,6.454,3.093,9.645,4.627c-4.815,5.709-8.742,10.753-11.856,17.833
		c-5.452,12.394-9.669,26.699-12.358,39.949c-2.943,14.499-4.674,28.5-5.011,42.964c-0.164,7.063-0.167,13.895,0.159,20.726
		c0.352,7.367,1.324,14.733,2.653,21.676c0.709,3.704,4.123,3.799,4.401,0.06c0.457-6.155,0.68-12.394,0.699-18.769
		c0.019-6.375-0.034-12.668,0.302-19.269c0.658-12.9,1.658-25.393,3.983-38.453c2.176-12.225,5.844-25.136,9.954-37.099
		c1.76-5.123,3.981-10.397,6.484-15.113c1.326-2.498,2.72-4.547,4.082-6.885c0.621-1.067,1.204-1.871,1.947-2.819
		c1.172,1.787,2.33,3.559,3.554,5.308c2.549,3.639,4.818,7.432,7.449,11.037c0.306,1.813,0.739,3.993,0.781,5.803
		c0.156,6.682-0.61,14.426-1.594,20.696c-2.201,14.027-4.23,28.05-6.04,41.617c-1.922,14.404-3.941,27.587-6.067,41.722
		c-0.5,3.321-1.05,6.625-1.532,9.976c-0.561,3.899-0.898,8.044-1.322,11.942c-0.781,7.185-2.057,15.388-2.011,22.205
		c0.026,3.833,3.48,7.162,5.349,3.371c2.71-5.5,3.112-11.751,4.488-17.64c0.73-3.128,1.518-6.225,2.133-9.429
		c0.615-3.204,1.048-6.789,1.557-10.003c1.882-11.907,3.441-23.842,5.035-35.698c1.594-11.856,2.452-22.181,3.994-34.425
		c1.369-10.872,3.606-23.793,4.217-35.1c0.715,5.171,1.416,11.782,1.669,16.797c0.573,11.365,0.896,21.989,0.75,33.059
		c-0.172,12.952-1.461,23.843-2.543,37.224s-2.318,28.904,0.203,42.629c0.626,3.408,3.478,2.588,3.999-0.282
		c2.086-11.489,2.717-24.383,3.799-35.703c1.082-11.319,2.569-21.854,3.3-32.702c1.014-15.062,0.25-29.627,0.053-44.556
		c0.181,1.024,0.525,2.539,0.667,3.492c0.742,5.008,0.099,11.547,0.713,16.033C655.14,172.192,656.216,180.998,655.553,195.2z
		 M736.048,359.397c-1.422-12.724-4.576-25.105-7.416-37.59c-2.912-12.802-5.096-25.706-6.468-38.758
		c-0.349-3.321-0.56-6.699-0.757-9.922c-0.197-3.223-0.611-6.155-0.76-9.284c-0.32-6.717,0.395-13.268-0.199-20.021
		c-0.443-5.03-6.276-3.113-7.372,1.08c-1.642,6.283-2.253,13.629-2.588,20.358c-0.335,6.729-0.527,13.624-0.101,20.41
		c0.84,13.365,3.301,26.899,6.02,39.981c2.719,13.082,6.179,25.833,8.699,38.93c0.252,1.309,0.574,2.554,0.875,3.854
		c-1.769-3.594-3.428-7.08-4.96-10.817c-1.532-3.736-2.923-7.633-5.231-11.019c-0.738-2.181-1.588-4.281-2.35-6.444
		c-8.67-24.603-15.646-49.972-14.733-76.374c0.462-13.371,1.732-27.046,3.757-40.36c1.034-6.795,2.013-13.834,2.763-20.563
		c0.708-6.354,0.403-12.341-1.298-18.43c-0.185-0.663-1.162-0.758-1.496,0.022c-2.894,6.745-3.23,13.765-4.68,20.93
		c-1.605,7.931-3.156,15.872-4.295,23.956c-1.139,8.083-2.45,16.305-3.031,24.498c-1.642-19.024-1.33-37.97-3.483-56.985
		c-3.688-32.568-17.734-61.847-20.771-93.839c-1.438-15.149,0.187-28.736,5.233-43.346c1.659-4.803,4.629-10.386,7.61-14.758
		c0.973-0.86,1.927-1.647,2.863-2.417c-9.471,14.856-12.138,31.153-10.552,48.4c1.142,12.422,4.671,23.667,7.718,35.463
		c3.046,11.796,5.16,23.735,8.672,35.295c0.878,2.888,5.419,4.273,6.462,0.742c4.202-14.223-0.353-27.148-3.811-40.865
		s-6.488-26.445-6.415-40.265c0.062-11.812,3.399-22.775,9.866-32.508c2.853-4.294,7.024-7.977,10.87-11.395
		c-5.974,9.924-8.915,20.201-9.331,31.639c-0.468,12.881,1.115,25.03,4.703,37.217c3.588,12.187,8.582,23.537,13.373,35.223
		c1.294,3.155,2.976,6.264,4.627,9.22c1.65,2.957,3.284,5.822,4.743,8.819c2.748,5.642,1.959,11.873,4.785,17.402
		c1.948,3.812,6.82,1.994,8.396-2.435c2.803-7.879,2.029-13.294-1.596-20.834c-1.966-4.09-3.097-7.052-5.221-10.628
		c-1.825-3.073-3.292-6.115-4.877-9.204c-6.744-13.145-11.577-26.135-14.7-40.516c-2.941-13.545-2.751-26.664,1.252-39.915
		c1.79-5.923,4.448-10.986,8.652-15.639c1.139-1.261,2.821-2.177,4.209-3.164c4.305-0.095,8.707-0.371,12.921-0.915
		c2.024-0.262,3.738-0.565,5.695-0.907c-0.01,1.133-0.167,2.39-0.243,3.49c-0.166,2.413-0.158,4.775-0.411,7.15
		c-0.478,4.486-1.182,9.12-1.586,13.563c-0.944,10.375-1.142,20.718-0.011,30.975c1.209,10.958,3.653,21.454,6.249,32.028
		c1.328,5.411,2.771,10.954,4.144,16.175c1.373,5.222,3.092,11.222,4.046,15.926c0.58,2.858,3.508,4.984,3.635,1.802
		c0.238-5.964-0.078-11.538-1.136-17.479c-0.981-5.509-2.354-11.114-3.534-16.785c-2.416-11.613-5.598-23.012-6.184-35.09
		c-0.536-11.036,0.323-22.193,1.312-33.388c0.565-6.395,1.143-13.236,0.374-19.734c3.363-0.692,6.693-1.307,10.07-1.799
		c5.667,18.077,4.144,37.589,4.351,56.187c0.026,2.335,1.896,3,2.11,0.64c1.752-19.375,3.141-38.471-3.121-57.152
		c0.579-0.029,1.157-0.042,1.742-0.046s1.183,0.069,1.762,0.075c5.023,13.446,6.433,26.411,6.608,41.018
		c0.107,8.938,0.668,19.179,2.902,28.237c1.135,4.6,1.762,9.714,2.626,14.194s1.584,10.474,2.502,14.209
		c0.808,3.288,4.252,6.806,5.875,3.26c2.168-4.74,1.105-10.467,0.518-15.605s-2.198-10.711-3.944-15.54
		c-3.669-10.149-1.752-21.783-2.713-31.805c-1.34-13.982-3.692-24.53-9.292-37.045c5.405,3.154,8.2,3.771,11.635,10.044
		c4.519,8.252,4.989,15.216,6.466,25.926c3.655,26.498,12.459,51.44,17.162,78.321c3.27,18.691,2.359,37.891-0.71,56.704
		c0.304-5.51,0.998-11.48,0.997-17.021c-0.002-9.91-0.826-20.861-3.593-29.876c-1.737-5.661-7.643-5.714-7.771-0.204
		c-0.243,10.429,0.522,20.565-0.355,31.041c-0.831,9.926-2.505,20.47-5.499,30.085c-5.64,18.116-12.014,34.137-13.513,52.379
		c-1.417,17.245-2.083,30.271-3.298,46.338c-1.162,15.371-3.13,29.496-6.614,44.477c0.31-7.521,0.664-13.535,0.491-21.197
		c-1.02-45.059,0.943-78.004,10.433-122.417c4.652-21.77,4.107-43.189-0.961-64.792c-2.433-10.369-6.376-20.18-10.268-29.661
		c-4.147-10.102-8.097-20.186-10.858-30.274c-1.045-3.817-3.911-3.534-3.199,0.526c1.961,11.175,5.666,22.259,9.21,33.451
		c3.395,10.723,7.417,21.146,9.422,32.64c3.658,20.963,0.794,42.527-3.957,62.961s-9.242,39.987-10.539,60.25
		c-1.326,20.72-0.562,39.534-0.712,59.908c-0.004,0.515,0.038,0.962,0.03,1.51c-0.282-0.054-0.562-0.06-0.852-0.056
		c-0.387-8.065-0.969-16.191-1.643-24.215c-0.407-4.844-0.652-9.8-1.129-14.549c-0.477-4.749-1.578-9.734-2.23-14.198
		c-0.47-3.222-4.529-4.412-5.201-1.129c-3.83,18.709-2.252,36.803-1.947,55.85c0.156,9.754-0.926,19.85-1.804,29.691
		c-0.28,3.14-0.489,6.397-0.666,9.552c-0.295-1.361-0.613-2.676-0.88-4.056C737.417,371.974,736.75,365.679,736.048,359.397z
		 M819.378,756.995c-3.566,6.086-9.473,8.982-15.617,11.769c10.113-11.457,14.841-22.577,15.059-37.438
		c0.156-10.651-3.437-18.955-6.441-28.55c-1.429-4.565-3.523-8.851-5.385-13.361s-4.24-9.708-7.862-13.026
		c-2.709-2.482-5.419-0.48-4.695,3.172c0.823,4.148,3.673,8.389,5.257,12.58c1.584,4.19,3.733,7.869,5.141,12.295
		c2.773,8.716,5.775,15.33,6.914,25.214c1.861,16.152-4.536,28.145-14.928,40.91c-0.832,0.205-1.636,0.277-2.438,0.355
		c-0.803,0.079-1.543,0.15-2.351,0.143c17.983-22.604,18.839-29.208,6.792-54.16c-1.468-3.04-4.127-2.296-3.121,0.872
		c8.014,25.239,9.553,31.154-8.623,53.537c-6.058,0.371-12.186,0.435-18.252,0.403c3.179-5.68,5.125-12.896,5.238-19.138
		c0.197-10.927-3.039-20.405-5.717-30.55c-2.931-11.102-4.664-22.2-6.649-33.451c-0.97-5.494-2.274-11.038-2.892-16.571
		c-0.666-5.967-2.715-11.484-4.441-17.218c-0.921-3.059-4.543-2.046-4.756,1.102c-0.35,5.182-0.063,10.63,0.102,15.995
		c0.165,5.365,0.389,10.981,1.166,16.335c1.52,10.462,1.935,21.243,3.697,31.569c1.649,9.666,3.196,19.257,3.679,29.071
		c0.207,4.203,0.779,8.348,0.057,12.641c-0.383,2.273-0.908,4.498-1.451,6.785c-0.248,1.044-0.492,2.288-0.838,3.338
		c-3.319-0.015-6.493-0.007-9.84,0.026c-6.967,0.069-13.967,0.276-20.983,0.61c-1.629-0.753-4.095-1.608-5.419-2.69
		c-4.885-3.989-8.415-8.346-9.986-14.379c-3.516-13.497-1.645-26.507,0.915-39.98c2.718-14.304,6.447-28.369,9.553-42.527
		c0.73-3.327,1.555-6.524,2.325-9.728c0.896-3.728,1.288-7.451,1.897-11.145c1.122-6.81,2.985-13.908,2.896-20.62
		c-0.05-3.773-4.049-6.037-5.899-2.462c-2.684,5.186-3.557,11.094-5.257,16.711c-0.902,2.983-1.821,5.914-2.733,9.065
		c-0.912,3.151-1.837,6.446-2.683,9.787c-3.133,12.372-6.799,24.218-9.626,36.864c-2.828,12.645-7.291,25.323-8.645,38.516
		c-1.202,11.716,0.13,21.118,7.048,31.017c-4.741-3.216-8.491-6.235-11.913-11.008c-7.758-10.818-5.702-20.909-3.657-33.195
		c2.392-14.375,6.287-28.071,9.746-42.007c3.459-13.936,6.691-28.1,4.298-42.259c-0.594-3.515-3.493-2.347-4.208,0.577
		c-2.863,11.704-4.328,23.699-7.674,35.728c-3.347,12.029-7.453,24.151-10.41,36.751c-4.105,17.495-11.031,33.362-1.69,49.928
		c-0.949-0.727-1.685-1.521-2.588-2.481c-2.521-4.635-4.829-9.972-4.301-15.046c1.605-15.434,3.317-30.732,7.048-45.387
		c7.88-30.946,16.074-62.369,22.804-93.197c3.93-17.999,6.89-33.783,10.257-51.531c-0.341,7.41-0.598,14.743-0.863,22.064
		c-0.265,7.321-0.578,14.465-0.808,21.783c-0.207,6.611-0.684,13.23,0.473,19.767c0.134,0.756,0.843,0.643,1.057,0.039
		c1.965-5.552,2.741-11.348,3.434-17.185c0.734-6.181,1.164-12.436,1.653-18.614c0.958-12.105,1.51-24.289,2.316-36.365
		c1.59-23.845,5.267-47.089,10.453-70.392c0.456-2.048,0.925-4.177,1.375-6.241c1.597-3.468,2.355-7.194,3.412-10.829
		s2.266-7.164,3.486-10.734c-0.189,1.252-0.414,2.544-0.58,3.795c-1.657,12.519-3.385,25.265-4.781,37.752
		s-2.336,24.877-3.175,37.289c-0.426,6.302-0.561,12.461-0.583,18.65c-0.021,6.189-0.404,12.582,0.207,18.546
		c0.408,3.98,4.918,5.785,6.016,1.409c1.473-5.875,1.59-11.984,2.317-18.019c0.339-2.812,0.739-5.498,1.043-8.451
		c0.304-2.953,0.467-6.132,0.683-9.236c0.846-12.203,1.775-24.367,3.077-36.595c1.302-12.228,2.208-24.506,3.239-36.839
		c0.509-6.089,0.889-12.464,1.621-18.586c0.162-1.36,0.356-2.757,0.543-4.108c0.205,3.099,0.474,6.347,0.703,9.426
		c0.718,9.65,1.479,19.588,2.242,29.131c1.492,18.635,2.515,36.826,7.233,54.846c0.828,3.162,4.316,2.493,4.572-0.71
		c0.355-4.438,0.615-9.225,0.376-13.937c-0.238-4.711-0.648-9.719-0.921-14.574c-0.452-8.042-1.163-16.246-1.827-24.305
		c0.223-0.006,0.44-0.029,0.658-0.085c0.06,0.498,0.125,1.04,0.187,1.543c2.435,19.916,5.367,40.137,8.117,59.912
		c2.689,19.339,4.76,38.57,5.845,57.866s0.551,38.419,0.557,57.526c0.003,10.476-0.679,20.755-0.415,30.992
		c0.276,10.684,1.157,21.488,3.171,31.698c0.732,3.709,5.781,3.63,5.84-0.022c0.158-9.651-0.137-18.848,0.186-28.616
		c0.303-9.168-0.114-18.372,0.174-27.756c0.601-19.552,0.872-38.62-0.204-58.456c-2.195-40.467-8.715-80.703-13.975-121.045
		c-0.895-6.86-1.897-14.479-2.943-21.377c4.334,14.894,8.41,30.223,11.569,45.373c3.303,15.836,6.291,31.685,8.753,47.514
		c2.604,16.745,4.123,33.435,7.037,49.998c1.546,8.791,2.245,17.688,3.513,26.369c1.339,9.162,2.131,18.535,4.677,27.173
		c1.345,4.564,6.63,5.052,6.669-0.261c0.061-8.46-1.296-17.467-2.077-26.065c-0.437-4.808-1.021-9.847-1.262-14.678
		c2.341,16.126,5.493,32.905,9.013,48.693c5.063,22.706,14.793,45.192,15.319,68.41
		C825.915,740.423,824.069,748.989,819.378,756.995z"/>
</g>
<g id="Layer_1">
</g>
</svg>
