<?xml version="1.0" encoding="iso-8859-1"?>
<!-- Generator: Adobe Illustrator 24.0.1, SVG Export Plug-In . SVG Version: 6.00 Build 0)  -->
<svg version="1.1" xmlns="http://www.w3.org/2000/svg" xmlns:xlink="http://www.w3.org/1999/xlink" x="0px" y="0px"
	 viewBox="0 0 627.687 809.351" style="enable-background:new 0 0 627.687 809.351;" xml:space="preserve">
<g id="Cap_x5F_18_x5F_R">
	<path d="M626.208,691.539c-7.81-24.378-20.876-43.195-39.078-61.591c-19.592-19.801-33.679-33.451-60.156-51.082
		c-21.877-14.567-57.469-35.484-82.701-50.272c-9.229-5.409-18.115-10.696-27.607-14.241c15.196-4.011,29.729-9.96,42.287-18.295
		c10.056-6.675,15.081-14.718,18.082-24.529c3.456-11.3,0.608-21.061-1.857-31.398c0.4-0.024,0.843-0.087,1.38-0.226
		c11.303-2.919,18.86-7.13,29.246-14.49c12.244-8.677,25.658-20.241,36.408-32.233c25.274-28.192,42.275-60.516,50.044-97.848
		c7.583-36.439,5.512-75.37-3.113-111.41c-6.127-25.603-16.404-51.465-33.381-69.824c-8.326-9.004-15.633-11.929-25.007-12.701
		c-11.294-0.93-18.115,4.752-26.591,9.736c-7.806,4.59-14.26,10.513-22.641,13.618c3.375-3.333,6.753-6.802,9.352-11.866
		c5.319-10.36,11.43-19.48,9.565-33.303c-1.548-11.471-6.672-20.316-15.984-30.426c-18.987-20.614-53.666-38.305-81.288-42.668
		c-38.882-6.142-72.235-8.095-109.441-5.128c-38.117,3.039-70.379,12.52-105.038,24.838c-14.742,5.239-28.766,11.092-42.554,17.411
		c-9.939,4.554-18.026,9.6-26.072,15.838c-1.488-11.046-3.894-21.673-8.483-32.35c-1.563-3.267-3.279-6.461-5.501-9.35
		c-0.48-0.291-0.882-0.596-1.314-0.972c-1.688-1.47-3.284-3.296-5.183-4.464c-1.069-0.657-2.247-0.924-3.43-1.104
		c-0.542-0.083-0.983,0.393-1.559,0.463c-1.412,0.171-2.644,0.642-3.881,1.449c-0.213,0.139-0.303,0.371-0.569,0.562
		c-1.791,1.286-3.155,1.743-4.893,3.45c-9.733,9.562-16.385,20.238-22.673,32.772C55.163,64.68,49.207,79.863,43.062,95.74
		c-14.447,37.329-27.047,75.41-34.094,115.422c-6.878,39.056-10.897,79.6-8.035,119.575c2.033,28.398,7.194,58.282,21.407,82.302
		c6.971,11.781,15.08,18.528,26.192,22.341c13.39,4.594,23.112-0.167,35.15-4.236c1.075-0.363,1.737-0.984,2.766-1.353
		c-0.111,0.162-0.183,0.297-0.281,0.471c-9.275,16.575-10.136,34.624-11.693,53.915c-2.686,33.26-8.259,76.096-13.483,106.77
		c-6.323,37.124-18.224,62.222-27.539,95.666c-8.654,31.07-13.491,63.491,3.136,92.774c3.863,6.804,9.044,12.384,16.508,15.234
		c8.828,3.37,17.052,1.236,26.376,0.434c15.214-1.309,28.318,3.862,42.754,8.118c15.196,4.48,30.043,8.029,45.804,5.121
		c13.08-2.413,24.048-8.878,32.646-19.222c17.531-21.092,24.455-48.656,26.922-75.452c3.473-37.72,1.933-75.639-8.494-112.067
		c-10.683-37.32-25.454-71.993-43.699-106.555c-6.134-11.62-12.638-23.532-20.277-35.038c7.168,4.627,14.512,9.023,21.372,12.779
		c33.186,18.168,68.791,34.852,105.35,42.805c32.954,7.169,64.602,8.042,97.341,5.024c-0.195,0.631-0.349,1.279-0.455,1.951
		c-0.04,0.256,0.041,0.509,0.007,0.779c-0.263,2.055-0.767,3.86-0.754,6.015c0.072,12.071,3.822,23.752,8.497,34.77
		c5.511,12.99,11.68,23.539,18.333,36.187c15.641,29.735,27.995,59.424,41.432,91.11c13.115,30.928,31.815,66.913,58.884,86.93
		c19.23,14.22,34.266,19.618,55.929,20.273c10.624,0.321,18.497-4.126,25.845-10.788c8.853-8.028,12.407-18.968,16.172-30.119
		c3.576-10.593,6.304-21.808,12.926-31.135c4.058-5.716,8.78-10.48,10.617-17.289C628.175,703.491,628.023,697.204,626.208,691.539z
		 M485.568,168.227c3.248,10.358,7.368,21.153,11.138,31.456c3.77,10.304,7.283,20.556,10.729,30.92
		c0.93,2.798,1.774,5.8,2.668,8.533c0.894,2.732,1.866,5.235,2.777,7.874c1.716,4.968,2.616,10.343,4.998,15.002
		c1.642,3.212,5.107,1.244,4.945-2.159c-0.288-6.054-1.843-12.749-3.353-18.833c-0.82-3.301-1.535-6.719-2.546-10.021
		c-0.868-2.838-1.911-5.69-2.862-8.555c-4.047-12.196-8.789-24.524-13.4-36.453c-4.343-11.235-8.259-22.79-10.913-34.304
		c-1.187-5.147-1.448-9.086-0.59-14.066c0.233-1.35,0.886-2.229,1.356-3.451c2.784-1.577,5.366-3.343,7.913-5.295
		c1.223-0.938,2.435-2,3.725-2.869c0.467,0.754,0.798,1.393,1.247,2.179c0.984,1.722,1.764,2.945,2.833,4.81
		c2.018,3.522,3.859,7.234,5.659,11.116c4.204,9.067,8.373,18.1,11.74,27.663c3.597,10.216,6.884,20.804,9.377,31.361
		c1.276,5.402,2.331,10.935,3.174,16.263c0.844,5.328,2.061,10.786,3.047,15.764c0.599,3.025,3.703,3.826,3.97,0.594
		c0.501-6.058,0.405-11.885-0.328-18.008c-0.68-5.678-1.497-11.48-2.726-17.203c-2.516-11.719-6.216-23.414-10.241-34.658
		c-3.678-10.275-7.987-20.301-13.119-29.602c-2.932-5.313-5.466-9.522-9.368-13.901c2.823-1.843,5.708-3.581,8.727-5.117
		c15.721,10.957,24.648,27.011,31.448,44.4c0.854,2.183,3.173,2.417,2.517,0.094c-5.388-19.069-14.324-34.673-30.873-45.959
		c0.548-0.24,1.108-0.464,1.677-0.695c0.569-0.23,1.182-0.396,1.755-0.642c12.1,8.229,20.36,17.756,27.96,30.659
		c4.65,7.895,8.874,18.021,11.492,27.285c1.329,4.705,2.249,10.082,2.801,14.832s0.978,11.031,1.775,15.028
		c0.702,3.519,3.591,6.362,5.007,2.612c1.893-5.013,0.753-11.257,0.233-16.585c-0.52-5.327-1.531-11.309-2.956-16.394
		c-2.995-10.687-7.722-21.856-13.319-30.767c-7.81-12.433-16.008-19.995-27.918-27.865c6.306,0.724,10.2,0.772,15.994,4.919
		c7.621,5.454,12.87,11.54,18.312,20.963c13.464,23.314,20.424,51.51,23.69,78.639c2.271,18.864,2.63,37.061,0.791,55.867
		c0.138-5.388,0.273-10.72,0.056-16.114c-0.389-9.645-0.641-20.071-3.019-29.266c-1.493-5.774-5.664-4.537-5.665,0.693
		c-0.003,9.899,0.932,20.317,0.69,30.125c-0.229,9.293-0.311,18.628-2.2,27.545c-3.558,16.801-5.903,32.922-13.037,48.661
		c-6.744,14.879-14.487,28.402-25.012,41.285c-10.069,12.326-22.847,22.769-35.375,32.693c5.027-4.978,10.559-10.32,15.323-15.492
		c28.015-30.408,45.586-65.218,49.034-106.577c1.69-20.273-1.287-39.971-5.725-59.992c-2.13-9.61-5.26-20.15-9.077-29.43
		c-4.067-9.888-8.34-20.057-13.371-29.197c-1.904-3.459-4.859-2.081-3.345,1.694c4.167,10.39,8.47,21.901,11.682,32.854
		c3.077,10.495,6.31,21.656,8.43,32.118c3.866,19.081,4.908,38.336,3.097,57.274s-6.676,34.362-14.762,51.549
		c-8.268,17.576-20.862,33.326-34.243,47.58c-0.338,0.36-0.744,0.846-1.061,1.079c-0.151,0.111-0.264-0.35-0.428-0.3
		c5.253-5.965,10.463-12.258,15.139-18.563c2.822-3.806,5.299-7.854,7.581-11.715c2.282-3.861,3.744-8.093,5.137-12.04
		c1.005-2.848-1.579-4.052-3.4-1.637c-10.376,13.761-20.249,28.089-32.113,40.924c-6.075,6.573-12.823,13.174-18.854,19.764
		c-1.924,2.103-3.461,3.874-5.29,5.952c0.607-1.044,1.136-1.985,1.76-3.027c2.811-4.687,6.054-9.235,9.241-13.681
		c6.455-9.006,13.44-18.288,18.905-27.723c5.465-9.435,8.914-18.861,12.625-28.786c0.944-2.525,1.333-4.991,1.817-7.401
		s0.757-4.616,1.105-6.864c0.746-4.824,0.989-9.614,0.413-14.449c-0.429-3.602-4.423-2.592-5.203,0.487
		c-1.169,4.615-1.259,9.404-2.62,14.143c-1.361,4.74-2.303,9.231-4.061,14.152c-3.463,9.693-7.433,18.813-12.824,28.015
		s-12.108,18.662-18.18,27.64c-0.607,0.897-1.084,1.933-1.644,2.857c1.058-3.002,2.281-5.755,3.66-8.665s3.071-5.826,4.096-8.941
		c0.814-1.518,1.896-3.269,2.651-4.763c8.599-16.989,15.28-33.598,18.438-52.302c1.6-9.473,1.816-18.665,1.837-28.195
		c0.011-4.864-0.189-9.863-0.688-14.829s-1.299-10.14-2.926-14.919c-0.177-0.52-0.796-0.661-0.925-0.034
		c-1.114,5.426-0.558,11.505-0.54,16.84c0.02,5.906-0.286,11.206-0.291,16.906c-0.005,5.7-0.931,11.082-1.419,16.802
		c-1.066-14.452-2.758-26.392-5.988-40.958c-5.532-24.948-13.359-50.489-20.22-75.476c-3.249-11.832-6.131-23.243-6.989-35.62
		c-0.282-4.069-0.494-8.719-0.212-12.906c0.054-0.802,0.526-1.65,0.655-2.442c-0.02,13.929,2.696,27.071,7.168,40.288
		c3.221,9.519,6.666,19.254,9.671,28.87c3.005,9.616,4.96,19.882,7.436,29.406c0.619,2.38,3.362,3.551,3.797,0.565
		c1.752-12.027-1.552-23.921-4.978-35.378c-3.426-11.457-7.568-22.578-10.492-33.821c-2.499-9.61-4.175-18.809-3.677-28.415
		c0.22-4.239,1.051-7.319,2.342-11.183C480.245,150.926,482.684,159.029,485.568,168.227z M149.426,74.492
		c9.155-1.939,19.053-3.955,28.022-5.985c17.514-3.966,34.813-7.371,51.78-12.55c2.977-0.909,1.996-4.01-0.987-4.159
		c-4.134-0.205-8.611-0.103-13.076,0.45c-4.465,0.553-9.158,1.357-13.823,2.231c-7.728,1.449-15.775,3.41-23.539,5.074
		c-0.052-0.201-0.076-0.4-0.147-0.599c0.477-0.104,1.016-0.26,1.493-0.38c18.887-4.759,38.03-10.487,57.131-13.481
		c18.68-2.928,35.468-5.171,54.507-4.745c19.039,0.426,36.721,2.862,56.943,3.03c11.087,0.092,27.155-0.403,39.182,0.508
		c12.552,0.951,24.366,5.101,35.003,11.066c3.864,2.167,5.303,0.852,1.642-1.685c-9.675-6.703-20.936-11.548-32.441-13.857
		c-10.797-2.167-24.427-2.742-34.391-3.059c-20.758-0.661-40.496-3.438-60.196-4.642c-40.19-2.456-78.008,7.875-116.383,17.83
		c-6.526,1.693-13.928,3.698-20.504,5.661c14.016-6.12,28.944-12.551,43.376-17.266c15.085-4.928,30.659-8.244,45.692-11.331
		c15.902-3.266,30.735-4.448,46.687-5.293c8.467-0.449,17.012-0.983,25.744-0.493c9.216,0.516,20.51,0.58,29.57-0.35
		c4.786-0.491,6.469-4.329,0.788-5.699c-9.046-2.183-20.119-1.752-29.706-2.719c-5.361-0.541-10.189-0.822-15.663-0.725
		c20.437-2.179,37.265-1.015,58.438-0.058c30.45,1.377,64.505,9.591,89.896,27.877c10.262,7.391,18.917,16.279,26.305,25.325
		c5.617,6.877,3.899,11.865,6.341,19.424c-10.802-13.907-20.394-26.265-34.498-37.577c-10.109-8.108-23.577-15.331-36.305-19.538
		c-6.056-2.002-12.568-3.231-18.661-3.716c-6.093-0.485-12.907-1.295-18.146,1.304c-3.919,1.944,0.849,3.834,4.369,3.95
		c3.999,0.131,10.925,0.102,16.127,0.987c5.202,0.885,11.182,1.908,16.726,3.845c10.916,3.813,22.91,10.411,31.712,17.674
		c14.386,11.869,25.814,25.078,37.15,39.437c-0.394,0.696-0.559,1.501-0.845,2.221c-0.286,0.72-0.532,1.417-0.819,2.111
		c-14.022-19.836-32.788-36.661-54.04-48.257c-2.589-1.413-1.811,0.808,0.645,2.407c19.56,12.742,38.043,30.384,51.84,49.785
		c-1.546,4.069-3.225,8.041-4.817,12.079c-6.031-5.367-11.409-11.592-17.242-17.249c-10.212-9.902-21.643-22.222-32.586-30.411
		c-11.975-8.961-21.373-12.818-35.577-14.004c-6.936-0.579-12.967,0.983-19.746,1.94c-7.311,1.033-15.197,2.213-22.252,4.287
		c-3.764,1.107,0.129,3.051,3.421,2.91c5.418-0.233,13.72-0.824,19.902-1.269c6.182-0.445,12.356-2.013,18.625-1.926
		c12.25,0.17,20.353,2.149,30.333,10.718c9.341,8.022,18.772,19.611,28.408,28.439c4.127,3.78,8.617,8.846,12.78,12.727
		c2.204,2.056,4.039,4.143,6.311,5.991c1.036,0.843,1.946,1.615,2.939,2.476c-1.272,0.703-2.623,1.414-3.841,2.175
		c-2.536,1.584-4.791,3.328-6.98,5.344c-1.519-0.105-2.75-0.002-4.286-0.399c-5.67-1.466-10.445-4.244-15.391-7.412
		c-11.066-7.088-19.937-18.833-30.458-26.091c-11.17-7.706-22.004-7.921-34.85-10.231c-3.018-0.543-6.98-0.704-10.409-1.111
		c-3.99-0.474-8.552-0.57-12.699-0.974c-7.644-0.744-16.15-1.834-23.427-0.565c-4.09,0.713-6.488,3.852-2.027,4.917
		c6.472,1.545,13.505,1.291,19.937,2.674c3.416,0.734,6.786,1.637,10.095,2.214c3.31,0.578,7.215,1.074,10.228,1.601
		c11.157,1.953,22.129,2.43,32.261,7.363c10.132,4.933,17.333,11.615,26.45,18.589c8.096,6.193,16.546,12.593,26.427,16.395
		c-4.018-0.584-7.985-0.108-11.947-1.545c-8.98-3.257-16.329-9.12-24.975-13.393c-10.116-4.999-18.113-9.672-29.925-12.719
		c-11.812-3.046-27.428-4.06-40.129-1.317c-3.153,0.681-1.783,3.308,0.941,3.657c10.902,1.396,24.048,2.848,34.257,5.691
		s18.036,6.458,26.72,11.179c12.056,6.555,22.65,13.863,35.617,18.29c-0.845-0.098-1.646,0.163-2.439-0.013
		c-4.181-0.925-7.48-3.026-11.463-4.425c-12.116-4.257-17.976-8.974-31.297-13.423c-28.132-9.394-58.492-14.576-88.863-16.114
		c-17.732-0.898-35.028-4.324-52.51-6.511c7.228-0.173,14.227,0.427,21.5,0.315c7.273-0.112,14.138,0.128,21.635-0.536
		c6.773-0.6,14.605-1.595,21.361-3.199c0.781-0.185,0.71-0.844,0.039-0.918c-6.163-0.687-12.97-0.895-19.009-0.802
		c-6.395,0.098-13.082,0.101-19.059-0.13c-11.712-0.452-23.287-0.689-34.6-1.541c-22.339-1.681-44.066-4.046-66.351-5.126
		c-1.959-0.095-4.065-0.279-6.058-0.36c-3.604-0.852-7.239-1.185-10.901-1.667s-7.312-1.067-10.948-1.687
		c1.213,0.001,2.542,0.053,3.753,0.01c12.112-0.431,24.901-0.5,36.83-0.743c11.928-0.244,23.218,0.158,34.889,0.215
		c5.925,0.029,11.547,0.351,17.344,0.255s11.85,0.41,17.417-0.56c3.715-0.647,4.34-4.179,0.458-5.188
		c-5.212-1.355-11.041-1.794-16.547-2.508c-2.566-0.333-5.098-0.712-7.863-0.912c-2.765-0.2-5.787-0.156-8.735-0.253
		c-11.587-0.382-22.841-0.597-34.583-0.276c-11.742,0.321-23.785,1.07-35.688,1.947c-5.877,0.433-12.247,0.708-18.209,0.802
		c-1.324,0.021-2.598-0.057-3.904-0.06C143.562,75.578,146.505,75.111,149.426,74.492z M125.132,87.825
		c17.375,5.646,35.87,8.039,54.205,9.399c31.61,2.346,68.27,9.194,98.043,14.187c36.033,6.043,70.917,3.993,102.002,15.061
		c28.879,10.282,43.592,22.613,71.462,26.011c3.362,0.41,5.842,0.212,8.066-0.524c-1.457,23.79,6.349,45.86,12.776,69.474
		c7.552,27.748,14.836,49.256,19.117,81.169c3.538,26.368,2.798,50.138-12.993,75.512c-5.362,8.616-9.312,16.381-12.265,24.582
		c-0.281-3.531-0.749-6.871-3.135-10.367c-3.233-4.737-6.797-8.275-13.156-10.65c-27.371-10.219-56.022-5.975-84.58,0.091
		c-30.739,6.529-55.219,14.423-89.201,20.112c-28.078,4.7-67.699,1.634-97.96-3.593c-14.003-2.419-27.927-4.865-41.831-4.056
		c9.914-31.907,18.22-57.497,16.12-92.068c-2.336-38.454-9.716-65.508-16.438-105.183c-5.46-32.225-10.479-75.974-12.922-110.991
		C123.323,86.606,124.216,87.216,125.132,87.825z M84.974,399.563c-1.128-4.701-2.154-9.587-3.164-14.362
		c-2.358-11.149-4.104-22.725-5.278-33.966c-1.255-12.01-1.996-23.82-2.428-35.735c-0.221-6.097-0.234-12.165-0.381-18.104
		c-0.148-5.939-0.493-11.89-1.018-17.578c-0.319-3.455-4.104-4.232-4.87-0.774c-1.436,6.481-2.367,12.833-2.603,19.576
		c-0.219,6.252-0.45,12.488-0.328,18.916c0.249,13.163,1.331,26.202,3.083,39.48c1.601,12.133,3.834,24.712,6.679,36.741
		c1.625,6.872,3.687,13.561,6.732,19.881c-3.607,1.865-7.353,3.249-11.242,4.456c-14.506-17.26-20.928-37.044-23.792-59.015
		c-0.359-2.758-2.956-3.183-2.938-0.392c0.152,22.909,7.271,43.315,22.667,60.457c-0.731,0.153-1.47,0.28-2.229,0.401
		c-0.759,0.121-1.542,0.177-2.324,0.271c-11.107-12.796-18.509-26.244-23.848-42.505c-3.267-9.95-5.04-21.221-5.924-31.779
		c-0.449-5.362-0.427-10.901-0.097-16.115c0.33-5.214,1.433-11.533,1.219-16.213c-0.189-4.12-3.337-6.879-5.609-3.091
		c-3.037,5.064-3.395,11.735-3.981,17.545c-0.586,5.81-0.486,11.844-0.013,17.583c0.993,12.062,3.258,24.659,7.293,35.709
		c5.629,15.416,13.173,27.001,24.314,38.714c-6.962-2.224-11.71-3.282-17.115-9.294c-7.11-7.908-11.675-16.868-15.325-28.046
		c-9.03-27.656-11.16-57.962-10.798-87.185c0.251-20.32,2.111-39.774,4.585-59.781c-0.303,5.819-0.688,11.746-0.82,17.552
		c-0.236,10.383-0.665,21.577,0.815,31.609c0.929,6.3,6.511,5.283,7.306-0.305c1.504-10.577,1.162-21.898,2.169-32.697
		c0.954-10.232,1.554-20.779,3.462-30.858c3.596-18.988,6.357-38.21,10.941-56.88c4.333-17.649,9.431-35.104,15.367-52.075
		c5.68-16.237,12.372-31.316,19.301-46.924c-2.183,7.44-4.363,14.691-6.466,22.148c-12.366,43.849-24.732,87.477-27.761,133.201
		c-1.485,22.413,0.313,44.661,2.947,66.97c1.265,10.708,2.855,21.664,5.587,32.107c2.91,11.127,5.643,22.403,8.957,33.31
		c1.254,4.127,4.981,2.887,4.292-1.479c-1.897-12.017-4.205-24.814-5.798-37.102c-1.526-11.774-3.709-23.503-4.815-35.321
		c-2.017-21.556-2.698-43.065-0.824-64.69c1.875-21.625,5.634-43.038,10.467-64.184c4.942-21.623,11.247-42.732,17.021-64.094
		c0.146-0.54,0.32-1.086,0.458-1.627c0.222,0.085,0.443,0.132,0.675,0.157c-2.003,8.495-4.013,17.036-5.774,25.579
		c-1.063,5.157-2.274,10.531-3.101,15.64s-1.148,10.413-1.319,15.348c-0.124,3.561,3.486,4.505,4.722,1.208
		c7.04-18.786,10.981-38.608,15.529-58.135c2.329-9.999,4.625-19.936,6.776-29.952c0.686-3.196,1.267-6.366,1.866-9.575
		c0.026,1.419,0.079,2.795,0.079,4.222c0,6.427-0.517,12.887-0.94,19.293c-0.857,12.973-1.845,25.977-2.505,38.931
		c-0.677,13.283-1.135,26.565-1.362,39.81c-0.058,3.37-0.212,6.836-0.173,10.055s0.259,6.185,0.393,9.249
		c0.287,6.577,0.151,13.297,1.449,19.702c0.966,4.771,5.951,3.016,6.59-1.229c0.958-6.363,0.813-13.306,1.281-19.955
		c0.468-6.649,0.835-13.488,0.931-20.254c0.189-13.325,0.811-26.806,1.39-40.148c0.579-13.342,0.803-26.699,1.01-40.048
		c0.021-1.334-0.015-2.648-0.035-3.981c0.755,3.835,1.453,7.606,1.978,11.497s0.751,7.861,1.861,11.664
		c0.143,2.231,0.292,4.461,0.437,6.687c1.652,25.327,2.633,50.678,2.617,76.071c-0.008,12.86,0.371,25.923,0.674,38.788
		c0.154,6.566,0.7,13.129,1.187,19.646c0.459,6.154,0.914,12.143,2.873,17.992c0.213,0.637,0.975,0.752,1.143-0.03
		c1.448-6.766,1.43-13.679,1.483-20.598c0.059-7.66-0.128-15.07-0.083-22.781s0.046-15.694,0.029-23.474
		c2.728,18.319,5.888,36.181,9.173,54.473c5.627,31.33,12.226,62.528,10.741,94.627c-0.704,15.2-3.522,29.404-7.964,44.157
		c-1.461,4.85-4.254,10.487-6.651,15.142c-0.663,0.895-0.998,1.926-1.41,2.883c5.731-16.362,10.081-32.157,10.79-49.449
		c0.51-12.454-0.369-24.026-0.997-36.2s-1.148-24.362-3.179-36.247c-0.508-2.97-3.762-4.141-4.578-0.691
		c-3.288,13.897-2.044,28.593-1.42,42.685s0.951,27.62-0.418,41.433c-1.17,11.805-4.453,23.003-8.326,33.983
		c-1.709,4.844-2.829,9.221-4.513,13.967c1.152-11.351,2.751-22.793,3.552-34.13c0.903-12.767,0.936-25.677-0.016-38.308
		c-0.952-12.632-2.521-24.708-4.44-37.104c-0.518-3.347-0.967-6.683-1.632-9.914c-0.665-3.231-1.564-6.302-2.348-9.415
		c-1.475-5.861-2.12-11.936-4.829-17.385c-1.868-3.756-6.191-1.333-6.336,2.576c-0.259,6.954,1.368,14.449,2.209,21.544
		c0.456,3.849,0.894,7.776,1.565,11.644c0.577,3.324,1.194,6.651,1.715,10.028c2.216,14.372,4.051,28.504,4.829,43.15
		c0.733,13.795,0.209,28.029-0.714,41.852c-0.413,6.178-0.922,12.13-2.372,18.06c-0.393,1.607-1.144,2.808-1.754,4.288
		c-3.148,1.25-5.979,2.726-8.912,4.487c-1.409,0.846-3.079,1.755-4.522,2.626c-0.36-1.123-0.658-2.356-0.949-3.475
		C86.18,404.237,85.571,402.052,84.974,399.563z M159.326,509.874c7.668,15.94,14.405,31.946,20.15,48.401
		c6.078,17.407,10.057,34.723,14.952,52.395c2.598,9.38,3.358,19.138,4.429,28.794c1.131,10.191,0.342,20.501,2.027,30.6
		c0.89,5.336,7.534,6.132,8.786,0.207c1.992-9.436,2.03-19.871,1.577-29.658c-0.253-5.472-0.715-11.005-1.018-16.467
		c2.94,18.726,4.915,37.028,4.856,56.033c-0.086,27.333-2.794,55.991-14.531,80.873c-4.744,10.056-10.759,18.608-19.445,25.121
		c-6.603,4.951-13.808,6.388-21.628,7.734c12.978-9.528,23.303-19.885,30.781-34.293c5.36-10.326,7.9-21.204,9.447-32.66
		c0.736-5.451,0.855-10.774,0.318-16.272c-0.537-5.499-1.118-11.817-4.546-16.346c-2.565-3.388-6.587-1.165-7.054,2.924
		c-0.531,4.646,0.825,10.179,1.01,15.118c0.185,4.94,0.375,9.813-0.279,14.866c-1.288,9.951-3.687,19.688-8.017,28.931
		c-7.078,15.107-17.154,27.265-30.225,37.631c-1.011-0.094-2.02-0.193-2.991-0.333c-0.971-0.141-1.9-0.287-2.836-0.462
		c17.691-14.135,27.766-31.044,28.997-53.751c0.15-2.767-3.241-2.298-3.825,0.361c-4.649,21.187-13.607,38.088-30.456,52.316
		c-5.231-1.221-10.396-2.699-15.509-4.295c4.178-5.189,6.77-11.407,8.859-17.516c3.657-10.694,5.822-21.106,8.104-32.001
		c2.497-11.922,4.899-23.842,6.164-35.943c0.618-5.909,1.174-11.867,1.268-17.736c0.101-6.33-0.324-12.214-1.729-18.432
		c-0.75-3.318-5.638-2.323-6.328,0.942c-1.136,5.375-2.148,11.095-2.841,16.687c-0.693,5.591-1.342,11.374-2.266,16.958
		c-1.806,10.912-3.712,22.02-6.099,32.74c-2.234,10.034-4.726,19.764-7.308,29.595c-1.106,4.21-2.295,8.053-3.714,12.132
		c-0.751,2.16-1.793,4.203-2.636,6.373c-0.385,0.99-0.822,2.125-1.297,3.102c-2.46-0.76-5.029-1.54-7.49-2.212
		c-5.123-1.399-10.31-2.068-15.602-2.38c-1.199-0.957-2.826-1.75-3.723-3.005c-3.309-4.632-5.048-8.816-5.451-14.701
		c-0.902-13.166,1.598-25.849,5.245-38.715c3.871-13.66,9.086-27.297,14.015-40.68c1.158-3.144,2.391-6.326,3.558-9.418
		c1.358-3.599,2.338-7.248,3.282-10.922c1.741-6.773,4.871-13.173,4.283-20.272c-0.33-3.991-5.954-5.62-8.221-2.167
		c-3.289,5.008-5.086,10.643-7.289,16.244c-1.17,2.974-2.811,5.812-4.096,8.822c-1.286,3.009-2.407,6.137-3.509,9.284
		c-4.084,11.659-8.44,22.997-12.239,34.861c-3.798,11.864-7.204,24.261-8.943,36.655c-1.544,11.006-1.125,20.63,3.296,30.874
		c-3.436-3.6-6.86-6.75-9.106-11.385c-5.091-10.507-5.698-21.417-4.242-32.97c1.704-13.516,5.578-26.311,9.133-39.503
		c3.555-13.192,7.12-26.084,4.184-39.719c-0.729-3.385-4.96-2.234-5.965,0.463c-4.023,10.792-5.965,22.098-9.125,33.386
		c-3.16,11.288-7.023,22.331-9.652,34.067c-3.651,16.295-5.02,33.314,1.593,49.147c-0.801-0.84-1.586-1.662-2.334-2.638
		c-2.172-4.635-3.626-10.948-4.333-15.786c-2.151-14.716-1.273-28.968,1.452-43.152c5.756-29.954,17.892-57.86,25.621-87.074
		c4.512-17.057,6.925-33.706,9.916-50.984c0.188,7.3,0.525,14.73,0.927,21.965c0.402,7.235,0.648,14.174,0.749,21.384
		c0.091,6.513,0.234,12.819,1.958,19.137c0.199,0.73,1.23,0.607,1.502,0.021c2.501-5.382,3.105-10.974,3.728-16.814
		c0.66-6.184,0.852-12.223,0.761-18.435c-0.179-12.173-0.597-24.262-0.657-36.464c-0.119-24.093-0.008-48.02,1.61-72.099
		c0.142-2.117,0.315-4.247,0.429-6.369c1.273-3.578,1.458-7.366,2.077-11.068s1.365-7.301,2.17-10.951
		c0.013,1.271,0.018,2.536,0.08,3.803c0.62,12.672,1.194,25.316,2.051,37.984c0.857,12.668,1.767,25.479,2.586,38.121
		c0.416,6.418,1.104,12.757,1.872,19.054c0.768,6.296,0.857,12.723,2.391,18.784c1.024,4.044,7.301,5.479,8.306,0.908
		c1.35-6.136,0.747-12.283,0.947-18.522c0.093-2.907,0.305-5.697,0.278-8.736s-0.36-6.291-0.564-9.46
		c-0.802-12.456-1.554-25.09-2.554-37.545c-1-12.455-2.562-24.72-4.049-37.117c-0.734-6.121-1.552-12.316-2.039-18.466
		c-0.108-1.366-0.091-2.666-0.152-4.022c0.89,3.08,1.973,6.102,2.953,9.148c3.073,9.545,6.259,19.065,9.448,28.569
		c6.227,18.559,11.614,37.447,20.602,54.811c1.577,3.047,6.153,2.47,6.022-1.051c-0.181-4.879-0.783-9.582-1.931-14.428
		s-2.671-9.823-4.087-14.725c-2.346-8.121-5.146-16.261-7.87-24.294c0.284-0.025,0.567-0.069,0.848-0.148
		c0.184,0.503,0.421,1.042,0.615,1.545c7.711,19.896,16.049,39.977,22.565,60.211c6.371,19.787,12.41,38.993,15.426,59.539
		c3.016,20.546,1.972,39.818-0.91,60.36c-1.58,11.263-5.443,22.255-8.239,33.256c-2.917,11.482-6.694,22.859-9.539,34.322
		c-1.034,4.164,4.096,4.643,5.803,0.958c4.511-9.737,8.823-20.376,12.897-30.613c3.824-9.609,6.594-20.183,8.709-30.19
		c4.407-20.848,6.274-41.509,3.965-62.643c-4.712-43.117-21.758-84.034-37.935-124.013c-2.751-6.799-5.807-14.369-8.934-21.086
		C142.901,479.486,151.99,494.624,159.326,509.874z M303.083,509.474c5.131,0.301,10.178,0.725,15.308,0.681
		c9.175-0.079,19.008,0.185,27.832-1.619c5.541-1.133,4.783-5.957-0.247-6.397c-9.521-0.833-19.353,0.087-28.881-0.963
		c-9.028-0.995-17.855-0.871-26.8-2.899c-16.852-3.821-32.402-7.513-49.199-13.499c-15.879-5.659-32.564-12.833-48.141-20.864
		c-14.903-7.684-29.846-17.41-43.503-27.306c6.412,3.435,13.969,7.637,20.414,10.737c37.901,18.232,78.019,36.792,120.051,40.938
		c20.603,2.032,38.578-0.489,58.713-4.194c9.664-1.778,20.022-4.272,29.575-7.575c10.178-3.519,21.131-7.265,31.015-11.194
		c3.74-1.487,3.087-5.084-0.996-4.08c-11.241,2.764-23.368,6.391-34.672,8.849c-10.831,2.355-21.924,5.889-32.534,7.258
		c-19.352,2.497-36.817,4.532-56.107,1.674c-19.29-2.858-36.491-8.635-55.5-15.149c-19.439-6.661-40.233-16.729-59.081-25.971
		c-0.476-0.233-1.121-0.545-1.433-0.784c-0.166-0.127,0.296-0.405,0.189-0.572c7.84,3.692,15.856,7.137,23.879,10.293
		c4.843,1.905,9.888,3.907,14.686,5.443s9.771,2.672,14.412,3.538c3.35,0.625,4.549-2.504,1.543-4.096
		c-17.129-9.075-35.662-16.232-53.275-24.485c-9.019-4.226-17.952-8.541-26.849-12.819c-2.839-1.365-5.329-2.592-8.144-3.892
		c1.319,0.288,2.464,0.548,3.784,0.887c5.94,1.529,11.693,3.431,17.618,5.23c12,3.644,24.335,7.633,36.483,10.625
		c12.148,2.992,24.272,5.385,36.435,7.61c3.095,0.566,6.162,1.211,9.038,1.483c2.876,0.272,5.345,0.269,8.012,0.416
		c5.724,0.314,11.348,1.228,17.026,0.79c4.229-0.326,3.055-4.868-0.541-5.892c-5.39-1.534-11.316-2.213-17.099-3.245
		c-5.783-1.032-11.089-2.149-17.194-3.255c-12.024-2.179-24.311-4.597-36.46-7.773c-12.149-3.177-24.943-6.433-37.207-9.662
		c-1.226-0.323-2.478-0.617-3.71-0.902c3.743,0.223,7.356,0.482,11.114,0.909c3.757,0.428,7.548,1.124,11.391,0.97
		c2.022,0.324,4.421,0.745,6.392,1.077c22.413,3.783,45.676,7.067,67.922,9.717c11.267,1.342,21.086,1.856,31.996,2.402
		c5.568,0.278,10.67,0.099,16.034-0.353s10.069-0.987,15.067-2.761c0.544-0.193,0.683-0.904,0.043-1.05
		c-5.536-1.266-11.067-1.366-16.738-1.437c-6.278-0.078-12.34-0.147-18.619-0.666s-12.578-0.895-18.934-1.582
		c15.919-1.034,29.14-3.352,45.156-6.397c27.432-5.216,54.989-14.833,83.048-19.196c13.287-2.066,26.42-2.753,39.989-1.589
		c4.461,0.383,9.484,1.244,13.867,2.545c0.862,0.256,1.558,0.981,2.378,1.31c-14.901-3.551-29.627-2.652-44.692,0.134
		c-10.85,2.006-22.24,4.891-33.019,7.437s-22.045,4.384-32.495,7.069c-2.611,0.671-4.002,3.755-0.86,4.344
		c12.652,2.372,25.893-0.933,38.426-3.694c12.532-2.761,25.632-5.887,38.202-7.355c10.744-1.255,20.619-1.021,30.797,1.561
		c4.49,1.139,7.419,2.94,11.319,5.125c-9.936-2.471-19.167-1.61-29.435-0.227c-11.563,1.557-23.796,4.395-35.35,7.331
		c-11.554,2.936-23.272,6.364-34.663,9.75c-3.075,0.914-6.099,1.662-9.02,2.602c-2.921,0.94-5.842,2.174-8.584,3.113
		c-5.165,1.768-10.634,2.969-15.322,5.413c-3.232,1.685-1.787,5.654,1.742,5.829c6.279,0.311,12.839-2.051,19.158-3.478
		c3.428-0.775,7.117-1.594,10.641-2.64c3.029-0.899,6.242-1.859,9.383-2.777c13.367-3.907,27.21-8.077,40.669-11.34
		c12.677-3.073,25.184-5.194,37.931-5.635c5.698-0.197,10.224,0.262,15.384,1.984c1.398,0.467,2.102,1.503,3.307,2.213
		c1.033,3.411,2.653,6.368,3.782,9.787c0.542,1.642,0.777,3.764,1.316,5.473c-0.926,0.401-1.699,0.629-2.662,0.974
		c-2.111,0.755-4.089,1.81-6.241,2.616c-4.064,1.522-8.056,2.806-12.337,3.881c-9.996,2.511-19.844,4.925-30.064,7.089
		c-10.918,2.311-22.443,4.419-33.505,6.222c-5.66,0.923-11.516,1.644-17.035,2.317c-5.519,0.673-11.178,1.745-16.299,2.659
		c-3.111,0.556-3.994,4.007-0.79,4.454c6.005,0.837,11.834,0.947,18.043,0.647c5.757-0.278,11.843-0.907,17.762-1.696
		c12.121-1.616,24.688-4.008,36.606-6.56c10.89-2.331,21.672-4.513,32.049-7.934c5.928-1.955,11.085-4.204,16.276-7.435
		c0.876,3.763,1.826,7.538,2.642,11.329c-13.908,13.783-31.565,20.954-50.332,24.998c-2.356,0.508-3.01,3.063-0.555,2.828
		c20.151-1.926,37.383-9.51,51.596-24.001c0.104,0.676,0.193,1.356,0.279,2.054c0.086,0.698,0.11,1.422,0.192,2.138
		c-10.514,10.683-21.909,18.036-35.917,23.985c-8.572,3.64-18.908,6.042-28.317,7.497c-4.778,0.739-9.879,0.922-14.573,0.952
		c-4.694,0.03-10.593-0.405-14.694,0.083c-3.61,0.43-6.451,3.381-2.981,5.289c4.638,2.55,10.573,2.432,15.791,2.521
		c5.218,0.089,10.758-0.339,15.893-1.078c10.793-1.553,22.196-4.579,31.809-8.871c13.412-5.988,23.091-13.59,32.719-24.264
		c-1.957,6.344-2.734,10.913-7.845,16.094c-6.722,6.815-14.155,11.74-24.015,15.63c-24.396,9.623-51.651,13.443-77.902,14.805
		C337.586,512.926,320.931,511.826,303.083,509.474z M553.503,626.352c3.479,10.222,10.457,19.056,17.784,26.858
		c7.327,7.802,14.295,14.594,20.699,23.049c5.474,7.227,10.315,14.494,13.232,23.272c1.287,3.873,2.088,8.13,2.623,12.191
		c-3.751-7.682-9.049-14.79-15.023-20.859c-6.728-6.834-13.29-13.862-20.358-20.07s-13.64-12.246-20.205-18.801
		c-1.772-1.77-3.518-3.644-5.357-5.254c-1.839-1.61-3.718-2.937-5.586-4.414c-3.517-2.78-6.267-6.269-10.692-7.837
		c-3.051-1.081-4.875,3.871-3.35,6.456c2.712,4.599,6.924,8.765,10.391,12.986c1.881,2.29,3.856,4.544,5.938,6.66
		c1.789,1.818,3.658,3.434,5.554,5.149c8.067,7.3,16.29,13.953,24.118,21.662c7.373,7.261,14.939,14.57,21.613,22.676
		c2.983,3.623,5.14,7.635,6.425,12.2c0.348,1.237,0.289,2.852,0.418,4.154c-1.828,3.758-3.424,7.542-4.86,11.453
		c-0.69,1.879-1.325,3.797-1.971,5.696c-0.819-0.223-1.709-0.51-2.49-0.794c-1.711-0.623-3.368-1.001-5.037-1.719
		c-3.151-1.355-6.009-2.678-8.969-4.57c-6.912-4.418-13.201-9.081-19.782-14.309c-7.03-5.585-13.254-11.82-19.441-18.615
		c-3.166-3.477-6.067-7.722-8.81-11.694s-5.362-7.858-8.711-11.636c-2.035-2.295-4.536,1.738-3.614,4.486
		c1.727,5.15,4.208,11.441,7.112,16.287c2.693,4.494,5.925,9.102,9.041,12.937c6.381,7.852,14.152,13.54,21.988,19.483
		c7.161,5.431,13.587,10.271,21.766,13.99c4.672,2.125,9.437,3.44,14.587,3.706c-1.19,3.921-2.474,7.832-3.95,11.668
		c-16.169,3.367-29.882,0.25-43.786-8.304c-1.745-1.074-3.306,1.079-1.718,2.432c13.04,11.108,27.205,13.514,43.895,9.685
		c-0.292,0.664-0.601,1.308-0.927,1.97c-0.326,0.662-0.687,1.312-1.054,1.982c-11.947,2.774-23.214,3.069-35.133-0.113
		c-7.293-1.947-13.714-5.339-19.902-9.628c-3.143-2.178-5.791-4.371-8.544-7.363s-5.046-7.954-8.192-10.823
		c-2.77-2.526-5.406-0.732-4.626,2.812c1.042,4.737,4.52,10.123,7.298,13.767c2.778,3.644,5.986,5.89,9.373,8.24
		c7.118,4.938,14.413,8.542,22.789,10.421c11.686,2.621,22.075,1.199,33.413-2.109c-4.281,3.907-7.718,8.046-13.82,9.468
		c-8.028,1.871-14.521,2.404-23.28-0.343c-21.672-6.795-37.072-17.454-52.708-35.643c-10.872-12.648-20.592-31.68-28.609-47.104
		c2.698,4.349,5.453,9.483,8.358,13.854c5.195,7.818,10.141,16.364,17.287,22.395c4.488,3.787,6.092-2.878,3.619-6.983
		c-4.681-7.769-10.586-17.607-15.22-26.154c-4.391-8.098-9.204-17.915-12.625-26.089c-6.446-15.399-14.124-30.205-21.39-44.389
		c-6.869-13.408-13.73-24.816-20.76-37.62c-6.725-12.25-13.219-24.274-19.255-36.849c3.6,5.184,7.316,10.277,10.968,15.355
		c21.47,29.862,39.676,60.347,58.185,92.391c9.072,15.707,20.885,32.906,33.375,46.407c5.995,6.48,12.561,12.601,19.848,16.411
		c7.765,4.06,14.567,7.369,22.593,9.99c3.037,0.992,4.561-3.165,1.799-4.983c-7.601-5.004-15.542-9.458-22.691-15.874
		c-6.85-6.147-14.042-12.383-20.242-19.964c-11.307-13.828-21.036-30.637-30.148-45.857c-9.112-15.221-17.717-29.777-27.388-44.257
		c-9.888-14.807-19.876-29.17-30.481-43.413c-0.268-0.36-0.645-0.767-0.786-1.111c-0.078-0.19,0.444-0.3,0.436-0.502
		c4.516,5.508,9.069,11.207,13.655,16.579c2.768,3.243,5.435,6.593,8.186,9.653c2.751,3.06,5.67,5.766,8.792,8.219
		c2.253,1.77,5.074-0.643,3.754-3.215c-7.524-14.659-18.212-27.073-28.748-39.872c-5.396-6.554-11.019-13.371-16.589-19.868
		c-1.777-2.073-3.569-4.171-5.377-6.22c0.979,0.656,1.923,1.252,2.895,1.941c4.379,3.102,8.525,6.535,12.684,9.93
		c8.423,6.875,16.775,13.886,25.268,20.665c8.492,6.779,16.969,13.663,25.279,20.59c2.115,1.763,4.219,3.64,6.274,5.234
		c2.055,1.594,4.036,2.906,6.01,4.355c4.235,3.108,8.017,6.655,12.672,9.083c3.468,1.809,5.852-2.656,3.717-5.453
		c-3.199-4.191-7.212-7.576-11.08-11.385c-3.868-3.81-7.9-7.45-12.217-11.088c-8.502-7.164-17.309-14.387-26.118-21.382
		c-8.809-6.995-18.019-13.718-27.17-20.313c-0.915-0.659-1.858-1.27-2.797-1.894c3.109,1.187,6.135,2.397,9.168,3.805
		c3.032,1.407,5.932,3.132,9.201,4.033c1.622,0.979,3.376,2.006,4.988,2.981c18.347,11.087,36.343,23.425,52.675,36.934
		c8.271,6.842,15.805,13.33,23.329,20.424c3.84,3.62,7.342,7.162,10.998,10.492c3.656,3.331,6.485,6.265,10.54,8.872
		c0.442,0.284,0.968-0.259,0.747-0.849c-1.915-5.11-5.122-9.238-8.732-13.333c-3.997-4.534-7.858-8.802-12.176-13.109
		c-4.318-4.307-9.134-8.633-13.663-12.739c11.914,7.46,25.254,15.559,35.95,24.273c18.32,14.924,35.079,30.72,49.995,48.843
		c7.063,8.582,13.26,17.878,18.509,28.087c1.726,3.356,3.73,8.137,5.012,11.963c0.259,0.772,0.139,1.973,0.31,2.754
		c-4.841-11.982-12.293-22.73-21.006-32.087c-6.275-6.739-12.226-12.647-18.472-19.077c-6.246-6.43-11.197-13.519-18.107-19.384
		C555.163,621.881,552.639,623.814,553.503,626.352z"/>
</g>
<g id="Layer_1">
</g>
</svg>
