<?xml version="1.0" encoding="iso-8859-1"?>
<!-- Generator: Adobe Illustrator 24.0.1, SVG Export Plug-In . SVG Version: 6.00 Build 0)  -->
<svg version="1.1" xmlns="http://www.w3.org/2000/svg" xmlns:xlink="http://www.w3.org/1999/xlink" x="0px" y="0px"
	 viewBox="0 0 903.055 985.046" style="enable-background:new 0 0 903.055 985.046;" xml:space="preserve">
<g id="Cap_x5F_17_x5F_Q">
	<path d="M660.874,761.007c56.803-13.584,101.91-33.402,147.49-76.411c44.491-41.981,73.355-95.779,88.574-159.806
		c10.812-45.485,7.817-104.502-13.215-146.546c-10.315-20.62-24.122-33.28-40.646-40.729c-15.259-6.878-27.505-5.996-40.152-2.739
		c4.507-9.138,7.373-18.504,8.708-30.828c2.384-22.015,4.048-44.414,0.899-67.972c-7.404-55.383-22.869-105.776-63.312-148.916
		c-39.476-42.109-93.47-68.667-153.541-81.466c-42.675-9.093-99.26-7.692-141.365,8.579c-20.65,7.98-40.805,20.597-53.152,34.116
		c-11.82,12.943-18.376,23.464-21.06,37.269c-0.668-0.845-1.398-1.644-2.26-2.389c-0.322-0.279-0.635-0.318-0.998-0.597
		c-2.792-2.152-3.88-4.119-7.323-6.07c-19.284-10.922-40.428-17.219-63.053-18.035c-26.672-0.961-53.511,1.54-78.63,10.206
		c-59.054,20.374-105.113,55.913-146.447,104.633C41.046,220.863,10.491,278.284,2.093,342.926
		c-5.966,45.922,0.661,96.052,21.923,135.962c10.428,19.574,21.871,32.989,40.211,39.042c9.057,2.989,17.045,3.504,24.818,2.679
		c-0.166,0.606-0.289,1.264-0.316,2.051c-0.504,15.143,1.489,26.187,6.979,41.56c6.472,18.123,10.702,33.139,20.66,51.791
		c23.411,43.85,36.914,73.503,78.402,112.506c40.495,38.07,99.214,74.832,162.496,92.667c44.956,12.67,99.417,16.001,143.708-6.518
		c14.598-7.422,24.711-15.738,32.461-25.544c0.915,8.241,3.207,16.273,6.067,24.594c5.247,15.266,13.39,31.098,21.841,44.714
		c19.869,32.011,46.647,62.045,76.914,83.272c29.543,20.72,60.352,32.897,94.908,39.897c24.549,4.972,49.13,5.427,72.058-4.447
		c11.245-4.843,18.915-13.096,24.154-23.414c6.313-12.432,6.429-26.232,6.448-39.407c0.017-12.515-2.111-24.216-0.563-36.185
		c0.949-7.335,3.233-12.9,1.652-20.145c-1.337-6.126-4.844-11.126-9.391-15.488c-19.568-18.773-44.787-24.49-70.9-27.257
		c-28.108-2.979-50.616-0.766-80.569-5.766c-24.749-4.132-54.095-17.152-75.94-33.094c-5.371-3.919-10.787-7.793-16.447-11.092
		c2.382,0.257,4.879,0.468,7.553,0.632C613.728,767.312,636.713,766.785,660.874,761.007z M397.046,106.235
		c1.417-0.379,2.602-0.655,4.004-0.939c3.073-0.622,3.602-0.684,7.279-1.365c6.944-1.285,14.166-2.573,22.114-3.975
		c18.56-3.272,39.462-6.655,58.439-8.071c20.274-1.513,40.693-2.014,60.41-0.235c10.09,0.91,19.846,2.397,28.942,4.013
		c9.096,1.616,19.049,3.785,26.597,5.467c4.586,1.022,10.742-1.283,6.113-3.869c-8.676-4.847-17.256-7.959-27.322-10.596
		c-9.333-2.445-19.086-4.027-29.54-5.398c-21.409-2.808-44.575-2.393-66.433-0.86c-19.974,1.4-41.05,4.074-60.278,7.588
		c-10.984,2.007-19.262,4.372-29.248,8.271c0.487-5.742,1.063-10.666,3.221-16.106c32.23-18.455,69.004-27.705,105.247-28.529
		c4.55-0.103,8.895-3.212,4.247-3.623c-38.151-3.368-73.988,7.452-107.044,26.301c0.475-1.035,0.996-2.061,1.548-3.132
		c0.552-1.071,1.217-2.19,1.812-3.28c25.546-14.227,52.214-24.764,81.239-29.691c17.76-3.015,36.725-3.139,54.361-1.892
		c8.956,0.633,17.302,2.456,25.054,4.351c7.752,1.895,17.685,5.009,23.543,6.625c5.157,1.423,14.196,0.539,10.335-4.471
		c-5.161-6.696-14.417-8.445-22.845-10.922c-8.428-2.476-17.336-4.658-26.893-5.546c-20.085-1.865-41.1-1.49-61.225,2.133
		c-28.078,5.054-52.632,16.237-77.339,30.15c9.533-9.035,16.08-16.69,28.526-23.12c16.372-8.457,36.38-14.785,55.28-17.831
		c46.765-7.538,97.999-0.364,141.173,15.35c30.02,10.927,51.28,23.82,76.499,41.363c-7.327-4.491-14.203-8.912-21.411-13.062
		c-12.892-7.422-29.354-14.206-42.654-17.892c-8.351-2.314-14.179,2.54-7.066,6.794c13.464,8.051,29.138,13.408,42.039,21.245
		c12.224,7.425,24.227,15.067,33.544,24.899c17.554,18.523,33.428,36.197,44.439,59.11c10.409,21.66,16.987,44.626,20.633,68.495
		c3.488,22.836,1.353,45.541-0.34,68.444c-1.015-10.48-0.663-20.428-2.143-30.997c-8.705-62.147-22.03-112.83-72.677-154.763
		c-24.826-20.554-56.138-29.625-88.453-37.397c-15.511-3.731-36.84-5.703-54.462-5.691c-18.777,0.013-42.244,1.192-60.464,3.782
		c-6.894,0.98-10.761,5.954-3.149,5.615c20.953-0.933,44.619-1.404,64.673-0.038c19.215,1.309,41.145,4.262,57.746,8.329
		c30.279,7.418,58.101,18.631,80.39,37.675s33.962,39.19,44.892,65.119c11.177,26.514,14.156,55.045,17.771,83.463
		c0.091,0.718,0.03,1.557,0.178,2.25c-0.354-0.01-0.68,0.012-1.018,0.045c-1.739-11.341-3.244-23.029-5.87-34.14
		c-1.585-6.707-3.689-13.36-5.674-19.73c-1.985-6.37-4.927-12.614-8.389-17.746c-2.498-3.704-6.852-2.894-6.122,1.437
		c4.164,24.68,9.41,49.215,12.253,74.137c1.456,12.762,2.148,25.899,4.026,38.544c0.599,4.035,1.091,7.478,1.726,11.412
		c-0.683-1.662-1.422-3.259-2.062-4.918c-2.88-7.468-5.242-14.962-7.349-22.719c-4.267-15.71-8.555-32.508-14.107-47.559
		c-5.694-15.434-12.361-28.972-19.916-43.039c-1.922-3.579-3.595-6.537-5.701-9.503s-4.625-5.372-6.848-7.79
		c-4.77-5.19-9.163-10.79-14.835-14.527c-4.225-2.784-7.943,1.125-5.664,5.184c3.416,6.084,8.379,10.474,12.155,16.537
		c3.776,6.063,7.261,11.454,10.946,18.203c7.258,13.291,13.351,27.187,18.261,42.198c4.91,15.011,10.092,31.548,15.097,46.856
		c0.5,1.53,1.107,3.148,1.687,4.644c-2.551-4.241-4.977-8.441-7.23-12.881c-2.253-4.44-4.292-9.027-7.032-13.268
		c-0.926-2.363-2.35-5.539-3.301-7.765c-10.816-25.326-22.404-51.293-39.62-72.558c-8.719-10.77-16.707-17.957-27.546-26.3
		c-5.532-4.258-11.747-7.372-18.537-10.423c-6.412-2.881-14.084-5.655-21.115-7.154c-0.766-0.163-1.649,0.387-0.962,0.928
		c5.939,4.677,13.315,8.327,19.78,11.852c7.156,3.903,13.284,8.494,19.415,13.337c6.131,4.843,10.888,9.8,16.203,15.331
		c-16.335-11.378-32.718-19.675-51.951-25.433c-32.942-9.862-69.698-12.736-103.107-11.96c-15.821,0.368-22.567,0.799-37.852-0.63
		c-5.025-0.47-15.018-0.95-20.85-2.049c-1.654-0.538-2.975-1.069-4.471-1.677c17.1,1.886,34.971,1.481,51.912-0.457
		c12.202-1.395,21.701-2.032,34.474-1.834c12.773,0.198,28.731,3.468,41.749,4.864c3.253,0.349,7.528-1.681,3.78-3.75
		c-15.097-8.332-33.799-10.132-49.915-10.78c-16.116-0.648-27.477,0.79-43.071,1.158c-13.328,0.315-26.575,0.202-40.72-1.408
		c-6.241-0.71-15.719-3.252-22.235-5.149c14.171,1.271,28.809,1.022,42.789-0.558c15.743-1.779,28.479-3.544,44.566-4.703
		c15.714-1.132,33.973-1.241,50.356,0.224c4.423,0.396,10.034,0.777,14.643,1.164c4.608,0.387,9.685,0.595,14.172,1.284
		c8.447,1.296,17.672,3.007,25.801,3.645c5.604,0.439,7.922-3.617,2.499-5.993c-9.648-4.227-20.155-6.122-30.584-8.065
		c-5.658-1.054-11.528-2.016-17.344-2.51c-4.997-0.424-10.373-0.807-15.391-0.949c-21.356-0.605-43.609,0.394-64.467,2.727
		c-19.646,2.197-37.967,5.099-57.237,5.611c-8.614,0.229-15.788-1.121-23.952-3.142c-2.212-0.547-4.135-1.815-6.23-2.695
		c-4.034-3.757-7.966-7.092-10.8-11.962C396.199,111.039,396.765,108.872,397.046,106.235z M375.718,123.889
		c2.658-3.591,4.734-6.896,6.454-10.717c4.366,7.821,12.28,13.007,20.31,20.594c7.631,7.209,9.159,15.188,15.605,23.17
		c5.451,6.749,13.27,11.742,21.716,14.394c36.348,11.413,56.804,3.038,92.857,2.974c38.806-0.07,74.075,2.642,111.866,22.103
		c31.225,16.08,54.502,52.42,66.982,87.963c7.239,20.616,20.092,44.61,37.092,60.109c3.031,2.764,6.33,5.139,9.819,7.155
		c-3.797,1.312-7.734,2.385-11.97,3.047c-10.035,1.568-19.081,1.421-27.696,6.916c-7.284,4.646-11.6,11.847-14.479,19.872
		c-12.392,34.54-5.409,69.658-11.381,105.208c-6.428,38.264-19.944,65.844-33.291,106.57c-11.028,33.65-22.782,57.236-61.169,74.011
		c-20.756,9.071-38.245,17.557-52.059,35.462c-7.139-7.77-18.078-13.413-24.55-20.893c-6.3-7.281-6.47-14.085-11.976-21.298
		c-4.655-6.099-7.619-10.521-15.22-13.738c-32.714-13.846-54.742-21.867-93.503-29.172c-41.722-7.863-101.379-20.917-143.392-35.98
		c-34.714-12.446-57.099-29.275-82.75-52.435c-10.148-9.162-20.18-17.305-32.08-22.201c15.84-4.092,32.711-7.755,48.508-7.461
		c13.705,0.255,28.421,0.575,40.31-3.624c10.052-3.55,17.025-10.719,20.025-19.023c12.909-35.735,4.522-73.256,4.295-109.357
		c-0.244-38.858-1.79-66.824,7.072-108.132c7.323-34.131,27.175-73.309,58.558-95.902
		C339.873,150.399,361.348,141.546,375.718,123.889z M102.473,495.876c-23.996-25.24-34.374-62.209-37.174-95.91
		c-0.352-4.231-4.426-5.647-4.562-1.309c-1.119,35.604,10.349,72.77,35.04,98.956c-1.162,0.251-2.375,0.418-3.586,0.594
		c-1.211,0.176-2.447,0.255-3.688,0.411c-18.284-20.363-29.37-44.553-36.982-71.004c-4.657-16.185-7.012-34.96-6.389-51.881
		c0.316-8.593,1.708-16.491,3.818-24.118c2.11-7.628,5.016-15.923,6.271-22.708c1.105-5.973-1.761-10.784-6.728-6.408
		c-6.639,5.849-9.135,15.303-11.586,23.894s-3.997,17.313-4.355,26.608c-0.751,19.533,1.663,40.136,7.488,58.712
		c8.127,25.917,20.381,47.126,38.408,67.223c-11.551-3.917-18.806-6.855-27.303-17.622c-11.178-14.163-19.02-30.515-24.382-49.97
		c-13.267-48.138-8.37-90.026,5.091-136.647c9.36-32.417,24.616-55.903,41.879-83.258c-4.443,8.199-9.387,16.305-13.075,24.511
		c-6.595,14.674-13.94,29.753-17.081,45.01c-1.973,9.58,6.655,10.47,10.681,3.157c7.621-13.841,13.757-29.714,21.95-43.75
		c7.763-13.299,16.331-27.633,26.443-39.277c19.051-21.937,39.377-44.516,60.919-62.91c20.364-17.389,39.416-28.749,63.292-39.4
		c22.843-10.19,48.202-12.429,73.031-12.456c-10.944,1.55-21.86,3.675-32.461,6.697c-62.339,17.767-113.161,63.587-149.081,116.86
		c-17.607,26.113-30.313,57.643-36.478,88.779c-2.959,14.945-5.854,28.164-5.148,43.651c0.753,16.501,3.163,33.759,6.951,50.193
		c1.433,6.218,7.351,5.538,6.674-0.953c-1.864-17.869-3.486-35.866-0.942-53.214c2.438-16.621,3.899-30.476,8.3-46.462
		c8.027-29.156,21.798-56.451,39.277-81.33c17.478-24.879,40.831-48.646,64.711-66.689c24.419-18.451,48.806-30.642,78-38.272
		c0.737-0.193,1.423-0.278,2.187-0.519c0.116,0.389,0.295,0.728,0.482,1.078c-11.221,3.333-21.551,7.373-32.016,12.481
		c-6.317,3.083-11.943,6.679-17.536,10.65s-10.266,8.751-14.46,13.762c-3.026,3.616,0.163,9.022,4.24,6.974
		c23.229-11.67,45.081-23.472,70.326-30.376c12.927-3.536,26.422-5.438,39.921-6.881c4.307-0.461,9.187-1.136,13.582-1.536
		c-1.672,0.698-3.541,1.292-5.239,1.968c-7.643,3.043-16.265,4.944-23.777,7.933c-15.214,6.052-29.277,12.783-42.489,21.968
		c-13.548,9.418-23.721,20.883-34.54,32.927c-2.753,3.064-5.336,6.306-7.626,9.603s-4.224,6.667-6.305,9.93
		c-4.467,7.005-8.857,13.735-11.741,21.591c-2.148,5.852,5.16,8.554,8.997,4.7c5.749-5.775,9.707-12.684,14.89-18.737
		c5.183-6.053,10.048-12.127,15.318-18.02c10.379-11.606,21.069-21.917,33.812-30.906c12.743-8.99,26.646-16.161,41.182-21.833
		c1.453-0.567,3.065-1.164,4.511-1.837c-3.603,2.686-7.088,5.106-10.768,7.802c-3.68,2.697-7.751,5.337-10.872,8.788
		c-2.113,1.355-4.077,2.897-6.052,4.432c-22.469,17.459-39.439,39.161-55.415,62.549c-8.091,11.845-15.101,24.934-21.797,37.674
		c-3.417,6.502-5.811,13.394-8.496,20.214c-2.536,6.441-4.008,12.984-3.852,19.965c0.017,0.76,1.142,1.331,1.718,0.644
		c4.987-5.944,7.848-12.75,11.43-19.485c3.966-7.456,7.367-14.885,11.622-22.163c4.255-7.278,8.499-14.615,13.102-21.753
		c-7.185,18.718-11.979,37.635-14.73,57.583c-4.711,34.165-3.617,68.379-1.573,103.134c0.968,16.458,2.305,35.202,0.488,52.431
		c-0.597,5.664-1.311,13.503-2.669,19.39c-0.657,1.246-1.331,2.331-2.056,3.435c4.163-20.231,0.262-41.361-2.56-61.324
		c-2.033-14.378-4.162-28.311-4.802-42.247c-0.64-13.936,2.065-26.458,2.006-40.043c-0.015-3.395-4.821-5.962-7.254-2.71
		c-9.799,13.099-11.578,29.822-10.903,46.284c0.675,16.461,2.606,33.452,4.269,50.287c1.422,14.389,2.329,29.144-2.125,43.289
		c-1.965,6.24-6.094,11.168-10.35,16.005c4.163-14.76,1.309-28.737-1.416-43.465c-3.068-16.586-6.874-34.099-8.788-50.384
		c-1.87-15.907-1.511-30.221-2.493-45.717c-0.265-4.184,0.243-7.728,0.346-11.712c0.104-3.984-0.336-7.651-0.463-11.556
		c-0.24-7.354,1.285-14.629-0.083-21.994c-0.943-5.077-8.573-5.732-10.953-1.293c-4.233,7.897-4.811,16.541-6.001,25.238
		c-0.646,4.718-1.163,9.127-1.371,13.986c-0.179,4.176-0.59,7.853-0.646,12.334c-0.238,19.071,1.641,36.525,4.225,55.952
		c2.433,18.298,7.242,38.26,8.121,57.078c0.393,8.411-0.913,15.272-5.456,22.328c-1.231,1.912-3.716,3.176-5.542,4.524
		c-7.955,0.738-15.959,1.734-23.717,3.366c-3.727,0.784-7.149,1.701-10.801,2.615c-0.67-1.59-1.211-3.122-1.787-4.772
		c-1.263-3.617-3.056-6.996-4.348-10.654c-2.439-6.909-4.344-14.182-5.951-21.414c-3.753-16.887-8.557-35.947-10.548-52.597
		c-2.127-17.787-3.237-34.92,0.102-51.294c1.709-8.379,5.363-13.112,7.665-20.292s5.062-13.112,6.804-20.242
		c1.058-4.332-4.361-7.084-7.276-3.583c-5.463,6.562-9.415,13.626-13.166,21.638c-3.477,7.428-5.857,13.247-8.316,22.057
		c-5.035,18.041-3.282,37.569-0.689,57.327c2.369,18.055,6.146,39.428,11.254,57.735c2.918,10.458,6.869,20.986,12.708,30.115
		C116.353,492.129,109.359,493.858,102.473,495.876z M534.807,743.906c-26.764,27.945-66.513,37.041-103.912,33.335
		c-4.695-0.465-7.343,2.826-2.651,3.725c38.504,7.373,78.38-2.526,105.668-31.04c-0.214,1.072-0.431,2.137-0.669,3.249
		c-0.238,1.113-0.592,2.283-0.821,3.419c-21.246,21.312-45.977,31.177-75.912,36.032c-18.317,2.971-39.204,2.156-57.899-1.555
		c-9.494-1.884-19.482-5.18-28.359-8.173c-8.878-2.993-20.063-9.165-27.487-11.785c-6.536-2.306-13.974-0.669-8.408,4.881
		c7.44,7.419,18.63,11.921,28.208,16.189c9.578,4.268,20.869,6.788,30.847,9.14c20.968,4.943,44.585,5.033,64.719,1.145
		c28.092-5.424,51.45-15.256,70.92-35.922c-6.275,11.772-9.149,18.229-21.245,26.393c-15.91,10.74-31.822,17.15-52.634,20.573
		c-51.495,8.468-106.597-7.849-152.478-29.007c-31.902-14.712-53.824-29.923-80.891-50.141c7.746,5.044,13.134,9.021,21.276,13.729
		c14.561,8.419,27.5,16.909,44.595,22.977c10.735,3.81,9.831-4.431,2.351-9.158c-14.157-8.946-30.537-18.309-43.241-27.101
		c-12.037-8.33-25.477-16.848-34.014-25.598c-16.084-16.484-30.696-30.019-43.425-47.083c-12.033-16.13-20.425-31.205-29.161-48.654
		c-8.358-16.694-13.826-34.467-19.605-52.199c4.078,7.747,7.454,14.422,11.369,21.935c23.022,44.184,44.943,79.617,86.227,112.423
		c20.236,16.081,56.573,34.046,86.239,43.621c14.24,4.596,38.695,13.026,56.709,15.785c19.194,2.94,44.078,6.174,64.159,4.908
		c7.599-0.479,7.368-5.777-0.576-6.255c-21.868-1.314-48.588-6.113-69.245-11.364c-19.793-5.031-45.41-13.853-61.211-19.842
		c-28.819-10.923-57.214-26.937-77.625-43.367c-20.411-16.429-29.413-29.16-42.924-47.82
		c-13.816-19.081-22.754-38.545-33.384-59.205c-0.268-0.522-0.462-0.989-0.77-1.547c0.274-0.161,0.502-0.374,0.732-0.578
		c4.427,7.785,8.822,15.921,13.476,23.495c2.809,4.572,5.583,9.19,8.7,13.28s6.221,7.8,10.12,10.911
		c2.814,2.245,5.299-1.228,3.979-4.446c-7.52-18.334-18.323-35.64-27.783-53.383c-4.844-9.086-10.171-18.5-16.048-27.116
		c-1.875-2.749-3.82-5.683-5.741-8.418c1.091,0.911,2.334,1.887,3.402,2.834c4.808,4.26,9.858,9.406,13.944,14.09
		c8.277,9.486,16.12,19.845,24.019,29.016c8.1,9.403,15.765,17.591,24.465,25.893c2.214,2.112,4.417,3.859,6.535,5.685
		c2.118,1.825,4.08,3.135,6.161,4.709c4.466,3.378,8.681,6.752,14.061,8.726c4.007,1.47,5.658-4.486,3.187-7.339
		c-3.702-4.275-8.747-7.489-12.645-11.754c-3.898-4.264-8.011-7.832-12.171-12.058c-8.194-8.323-15.612-16.663-23.368-25.881
		c-7.757-9.218-16.404-19.233-25.078-27.992c-0.867-0.875-1.975-1.819-2.883-2.654c3.322,1.893,6.804,3.901,9.9,6.087
		s5.619,4.642,9.033,6.27c1.474,1.34,3.122,2.832,4.529,4.108c16.008,14.519,30.114,28.674,47.396,42.4
		c8.752,6.951,19.212,13.706,30.097,20.141c5.555,3.284,14.29,6.876,21.422,10.229c6.735,3.167,15.874,6.772,23.7,8.107
		c0.852,0.145,2.065-0.478,1.27-1.087c-6.872-5.27-15.685-9.656-22.965-13.687c-8.059-4.462-16.846-8.493-23.879-13.228
		c-7.033-4.735-11.866-8.005-18.641-12.924c21.195,9.751,35.615,15.327,59.655,22.14c41.174,11.668,92.407,21.839,133.436,32.035
		c19.429,4.828,23.368,8.704,40.071,13.877c5.491,1.701,11.693,2.906,17.141,5.716c0.872,0.696,1.544,1.436,2.604,2.063
		c-16.933-5.831-31.881-8.962-50.313-12.597c-13.275-2.618-27.454-4.532-42.811-8.056c-15.357-3.524-36.729-9.724-52.705-13.81
		c-3.992-1.021-9.612,1.145-5.571,4.179c16.277,12.219,40.219,18.417,58.273,22.668c18.055,4.251,30.94,6.487,47.202,11.087
		c13.899,3.931,26.563,5.949,40.538,9.565c6.166,1.596,13.203,4.146,19.374,6.347c-15.003-1.62-30.256-1.568-45.209-2.366
		c-16.838-0.899-29.75-3.26-47.135-6.29c-16.981-2.959-37.425-7.118-55.267-11.38c-4.817-1.151-11.032-2.833-16.141-4.021
		s-11.162-2.461-16.162-3.703c-9.414-2.339-20.444-5.907-29.286-7.182c-6.096-0.879-9.041,4.211-3.417,7.439
		c10.005,5.742,23.069,9.513,34.332,13.551c6.11,2.19,12.66,4.389,18.898,6.003c5.36,1.387,11.499,2.987,16.622,4.156
		c21.805,4.975,44.184,9.391,65.875,12.33c20.431,2.768,39.246,2.855,59.575,3.161c9.087,0.137,18.219,0.161,27.3,2.028
		c2.461,0.506,5.239,1.503,7.687,2.331c5.244,4.487,10.813,9.112,16.017,13.448c2.5,2.083,6.527,3.626,6.517,7.01
		c-1.725,1.131-3.587,1.814-5.511,2.635c-4.218,1.799-8.247,3.887-12.596,5.581c-8.212,3.199-16.635,5.388-25.397,6.857
		c-20.459,3.429-41.226,4.792-61.799,3.184c-21.979-1.718-42.781-6.941-63.665-13.051c-10.687-3.127-21.089-7.797-31.174-11.715
		c-10.085-3.918-20.48-8.222-29.933-11.949c-5.743-2.264-9.631,1.273-4.367,5.104c9.866,7.18,20.285,13.14,31.678,18.284
		c10.563,4.769,21.284,9.505,32.747,13.063c23.476,7.286,47.288,12.664,72.046,13.98c22.624,1.202,45.11-0.357,66.788-5.755
		c12.384-3.084,21.187-7.655,30.698-15.56C534.69,732.211,534.974,738.047,534.807,743.906z M592.063,786.548
		c1.409,1.019,2.868,2.073,4.292,3.056c16.202,11.183,32.792,21.803,49.866,31.464c8.647,4.893,17.35,8.812,26.459,12.539
		c4.649,1.902,9.471,3.247,14.268,4.562c4.797,1.315,9.142,2.434,14.112,1.781c0.541-0.071,0.912-0.889,0.406-1.236
		c-4.381-2.999-9.304-5.032-14.176-6.998c-5.392-2.176-10.626-4.126-15.897-6.536c-5.27-2.41-10.325-5.316-15.588-7.82
		c13.891,3.138,26.352,6.003,40.755,7.162c24.67,1.986,49.666,1.199,74.434,5.304c11.729,1.944,22.798,5.587,33.774,10.918
		c3.608,1.752,7.782,4.673,10.992,7.327c0.592,0.789,1.151,1.529,1.699,2.28c-11.247-8.264-24.059-12.278-37.715-14.046
		c-9.836-1.274-19.388-1.601-29.06-2.325c-9.671-0.724-18.968-2.48-28.571-2.718c-2.4-0.059-4.338,2.989-1.997,4.678
		c9.429,6.8,20.919,7.498,32.233,8.593c11.314,1.095,22.418,1.619,33.544,3.95c9.509,1.992,17.996,5.331,25.689,11.288
		c3.394,2.628,5.955,5.82,8.561,9.14c-8.002-5.165-16.256-7.614-25.541-9.211c-10.456-1.799-21.059-2.289-31.542-2.695
		s-20.714-0.131-31.112-0.232c-2.807-0.027-5.602-0.081-8.327,0.058s-5.337,0.413-7.992,0.528c-5,0.215-10.01-0.025-14.877,1.163
		c-3.356,0.819-3.526,6.066-0.472,7.381c5.432,2.34,11.52,1.745,17.337,2.444c3.156,0.379,6.411,0.531,9.664,0.514
		c2.796-0.015,5.624,0.018,8.491-0.028c12.203-0.196,24.478-0.478,36.708-0.016c11.519,0.436,23.148,1.518,34.066,5.115
		c4.88,1.608,8.577,3.984,12.359,7.308c1.025,0.901,1.677,2.329,2.457,3.448c-0.061,4.054,0.333,8.023,0.867,12.032
		c0.257,1.926,0.652,3.877,0.856,5.818c-0.996,0.199-2.112,0.441-3.089,0.617c-2.143,0.385-4.217,0.926-6.341,1.211
		c-4.011,0.537-7.912,0.781-11.97,0.778c-9.475-0.007-19.076,0.043-28.546-0.488c-10.118-0.568-20.257-1.795-30.218-3.222
		c-5.097-0.73-10.098-1.814-15.007-2.816c-4.909-1.002-9.724-1.747-14.549-2.361c-2.931-0.373-4.748,3.317-2.223,4.917
		c4.731,2.999,9.652,4.937,15.065,6.617c5.019,1.558,10.185,2.816,15.529,3.848c10.944,2.113,22.145,3.107,33.371,3.735
		c10.258,0.574,20.5,1.143,30.81,0.165c5.89-0.559,11.747-1.621,17.244-3.945c0.016,4.787-0.054,9.561-0.366,14.346
		c-16.235,11.435-33.404,14.936-52.875,13.993c-2.444-0.118-3.7,2.584-1.254,3.093c20.073,4.177,37.132-0.211,53.682-12.224
		c-0.087,0.839-0.185,1.677-0.301,2.536c-0.115,0.859-0.273,1.728-0.427,2.608c-12.155,8.803-24.842,14.454-39.68,17.028
		c-9.079,1.575-18.505,1.118-27.526-0.269c-4.581-0.704-8.924-2.116-13.241-3.447s-8.816-3.83-13.011-4.645
		c-3.693-0.717-6.503,2.122-4.164,5.168c3.126,4.072,8.489,6.145,13.176,7.933c4.687,1.789,9.561,3.036,14.472,3.875
		c10.32,1.765,20.772,2.078,31.016-0.125c14.293-3.073,25.527-9.223,36.847-18.286c-3.176,6.294-5.849,12.199-11.779,16.632
		c-7.8,5.832-16.45,9.115-26.478,10.7c-24.811,3.923-50.078-1.058-73.974-8.258c-16.616-5.006-31.847-11.77-46.926-20.1
		c4.568,1.89,9.114,4.158,13.775,5.759c8.335,2.862,17.065,6.388,25.717,7.198c5.433,0.508,6.192-5.209,1.861-7.42
		c-8.199-4.184-17.196-6.577-25.578-10.609c-7.942-3.82-16.064-7.035-23.353-12.478c-13.733-10.254-27.307-19.703-40.106-31.856
		c-12.1-11.489-23.236-24.944-32.97-39.07c-9.313-13.515-16.255-29.162-22.624-44.335c3.705,6.019,7.667,12.675,11.566,18.586
		c22.922,34.755,51.48,64.62,87.552,84.887c17.681,9.934,34.632,12.117,53.872,15.056c9.235,1.41,18.756,1.576,28.11,0.907
		c9.967-0.713,20.416-1.73,30.139-3.176c3.679-0.547,4.256-4.958,0.36-5.04c-10.725-0.225-21.868,0.058-32.526-0.675
		c-10.212-0.702-20.369-0.509-30.346-2.227c-18.198-3.134-34.609-7.447-50.693-17.269s-30.422-21.091-44.071-34.991
		c-13.957-14.213-26.374-31.392-37.421-48.272c-0.279-0.426-0.576-0.945-0.853-1.349c0.195-0.171,0.367-0.359,0.521-0.556
		c4.629,6.568,9.401,13.176,14.553,19.3c3.11,3.697,6.366,7.458,9.654,10.78c3.288,3.322,6.851,5.868,10.689,8.315
		c2.769,1.766,4.945-1.521,3.175-4.135c-10.084-14.893-21.803-29.152-32.02-44.054c-5.232-7.631-9.873-15.583-14.913-23.249
		c-1.608-2.446-3.038-4.65-4.699-7.011c0.944,0.759,1.782,1.491,2.682,2.312c4.053,3.693,7.832,7.749,11.606,11.731
		c7.643,8.066,15.388,16.212,23.751,23.471c8.363,7.259,17.144,13.72,26.147,19.994c2.291,1.596,4.609,3.082,6.926,4.266
		s4.421,2.027,6.644,3.032c4.772,2.156,9.16,5.022,14.261,6.287c3.8,0.942,4.651-4.681,2.048-6.889
		c-3.902-3.309-8.525-5.971-12.95-8.895s-8.874-5.957-13.376-9.014c-8.868-6.02-17.269-12.666-25.35-19.886
		c-8.081-7.22-16.267-14.773-24.405-22.042c-0.813-0.726-1.707-1.503-2.558-2.202c2.85,1.469,5.648,2.944,8.435,4.563
		C586.372,783.516,588.992,785.444,592.063,786.548z M577.121,714.108c-4.035,0.637-7.83,0.887-11.625,2.121
		c1.465-0.985,3.02-1.635,4.652-2.303c7.346-3.005,15.505-5.661,22.901-8.219c14.981-5.18,31.009-10.6,44.893-16.976
		c14.237-6.539,25.13-14.401,36.913-23.688c2.998-2.363,5.499-4.447,7.762-7.059s3.854-4.956,5.847-7.455
		c4.278-5.364,8.533-10.548,11.007-16.849c1.843-4.694-4.332-7.411-7.631-4.588c-4.944,4.23-8.417,9.602-13.332,14.138
		c-4.914,4.536-9.059,8.573-14.688,12.913c-11.086,8.549-22.084,16.035-35.556,22.008c-13.472,5.973-29.036,11.8-43.193,17.202
		c-1.415,0.54-3.082,1.179-4.461,1.839c3.803-2.693,7.697-5.126,11.721-7.547c4.024-2.42,8.28-4.466,11.943-7.537
		c2.113-1.015,4.851-2.629,6.798-3.725c22.152-12.471,42.333-25.276,57.796-45.579c7.831-10.282,13.231-18.982,19.451-30.197
		c3.174-5.724,6.02-11.457,8.921-17.87c2.739-6.056,5.744-13.419,6.999-20.289c0.137-0.748-0.612-1.468-1.245-0.844
		c-5.477,5.398-9.397,12.997-13.186,19.172c-4.194,6.836-7.861,13.084-11.781,19.444c-3.92,6.36-6.98,11.617-11.287,17.802
		c7.359-17.947,11.031-32.531,17.298-51.773c10.733-32.955,24.778-68.012,26.727-103.872c0.923-16.981,1.255-33.386,3.22-50.546
		c0.646-5.641,2.264-13.515,3.63-19.378c0.633-1.25,1.226-2.341,1.905-3.489c-3.915,20.053-2.593,39.327-1.908,59.45
		c0.493,14.494,0.157,27.955-2.411,42.093c-2.569,14.138-8.188,27.51-12.629,41.018c-1.11,3.375,1.939,6.382,4.954,3.16
		c12.147-12.979,18.093-30.205,21.039-47.519c2.945-17.314,2.748-34.169,2.761-51.315c0.012-14.654-0.239-28.229,3.692-42.312
		c1.734-6.214,3.916-11.409,6.932-17.036c-2.167,14.412-0.997,27.629,0.573,42.287c1.768,16.507,3.48,33.766,2.642,50.697
		c-0.819,16.537-2.726,32.413-7.082,48.513c-1.176,4.347-2.563,9.342-3.531,13.667c-0.968,4.324-1.83,8.222-2.947,12.365
		c-2.104,7.8-5.116,15.234-5.936,23.32c-0.565,5.575,5.398,7.133,8.286,2.422c5.138-8.379,8.131-18.011,11.956-27.11
		c2.075-4.936,3.5-9.86,4.826-15.201c1.14-4.589,3.03-9.62,3.919-14.433c3.785-20.485,5.152-41.315,5.04-61.826
		c-0.106-19.319-2.941-38.015-3.96-56.643c-0.456-8.326-0.353-14.824,2.685-22.173c0.823-1.991,2.201-3.061,3.379-4.756
		c5.369-1.848,10.467-4.191,15.553-6.733c2.444-1.221,4.877-2.52,7.437-3.524c0.759,1.315,1.213,2.155,1.881,3.621
		c1.464,3.213,2.928,5.964,4.34,9.487c2.665,6.651,4.968,12.896,6.572,20.313c3.746,17.321,5.987,34.946,6.957,52.808
		c1.035,19.083-1.667,39.479-6.967,57.705c-2.712,9.327-4.961,19.493-8.598,28.176s-7.103,18.057-10.298,26.087
		c-1.941,4.878,1.588,9.39,5.031,5.012c6.453-8.205,11.84-17.319,16.556-27.13c4.372-9.097,7.585-19.103,10.264-29.395
		c5.485-21.076,7.893-43.448,7.235-65.281c-0.601-19.951-4-38.858-9.01-57.588c-2.862-10.7-7.391-18.184-13.487-26.855
		c5.698-1.106,11.419-2.265,17.196-3.071c26.032,22.922,37.123,62.777,35.676,96.316c-0.182,4.21,3.239,7.102,3.857,2.689
		c5.074-36.213-6.966-74.594-33.502-99.711c1.052-0.054,2.136-0.205,3.245-0.171c1.108,0.033,2.269,0.271,3.401,0.308
		c19.711,20.963,30.974,43.596,36.677,72.395c3.49,17.622,4.171,37.796,2.398,56.043c-0.9,9.267-4.103,18.49-6.623,26.754
		s-6.565,18.757-8.773,25.45c-1.943,5.892-0.359,13.434,5.101,8.652c7.299-6.393,10.431-16.56,13.371-25.93
		s6.114-19.269,7.509-29.187c2.933-20.843,1.542-43.772-3.04-63.547c-6.393-27.59-17.127-48.782-36.824-68.507
		c11.646,5.411,17.835,7.786,26.291,19.116c11.123,14.903,17.637,32.093,22.132,51.703c11.121,48.521,0.132,105.483-18.871,149.698
		c-13.214,30.744-27.655,51.814-47.159,77.303c4.84-7.414,9.261-13.224,13.546-20.894c7.662-13.718,16.183-28.223,20.94-43.188
		c2.988-9.397-4.437-11.769-8.954-4.621c-8.55,13.531-16.472,29.143-24.989,41.827c-8.07,12.018-16.095,22.836-25.709,32.237
		c-18.113,17.712-34.186,33.417-55.701,46.895c-20.339,12.742-42.263,22.044-65.918,28.135c-22.631,5.827-46.153,7.289-69.528,6.04
		c10.105-1.193,20.41-2.789,30.33-4.555c58.33-10.384,111.765-37.371,148.253-85.712c17.885-23.695,31.15-52.589,40.297-82.902
		c4.391-14.55,10.426-35.021,11.645-52.547c1.299-18.675,1.661-41.015-0.58-59.886c-0.848-7.14-6.547-7.792-6.292-0.336
		c0.701,20.525-1.377,44.51-5.147,63.937c-3.612,18.615-9.623,40.57-15.347,55.757c-10.44,27.7-23.072,51.728-39.938,73.396
		c-16.866,21.668-35.568,36.385-59.611,49.273c-24.585,13.178-52.538,20.646-80.302,26.365c-0.701,0.144-1.596,0.312-2.245,0.455
		c-0.03-0.342-0.088-0.668-0.181-0.998c11.011-2.709,22.754-4.742,33.232-8.97c6.325-2.553,12.915-5.095,18.957-7.695
		c6.043-2.599,11.211-5.971,15.785-9.98c3.301-2.893,1.576-7.214-2.56-5.997c-23.571,6.938-46.776,15.569-71.337,19.232
		C603.398,709.785,589.767,712.113,577.121,714.108z"/>
</g>
<g id="Layer_1">
</g>
</svg>
