<?xml version="1.0" encoding="iso-8859-1"?>
<!-- Generator: Adobe Illustrator 24.0.1, SVG Export Plug-In . SVG Version: 6.00 Build 0)  -->
<svg version="1.1" xmlns="http://www.w3.org/2000/svg" xmlns:xlink="http://www.w3.org/1999/xlink" x="0px" y="0px"
	 viewBox="0 0 372.937 807.475" style="enable-background:new 0 0 372.937 807.475;" xml:space="preserve">
<g id="Cap_x5F_10_x5F_J">
	<path d="M371.604,535.178c-1.026-25.699,0.687-48.314-6.992-74.907c-3.766-13.043-13.587-34.203-22.572-47.575
		c-5.489-8.169-12.554-18.573-20.56-25.083c2.328-12.857,4.628-32.736,6.992-43.964c3.047-14.466,3.956-22.388,4.559-34.936
		c1.419-29.501,1.076-50.097-1.679-81.756c-2.69-30.902,12.673-65.687,25.482-97.023c9.1-22.261,17.763-53.337,10.601-78.072
		c-3.512-12.131-9.936-22.154-19.402-28.839c-11.405-8.055-23.012-9.213-36.135-10.597c-12.466-1.315-23.723-1.33-35.889-5.803
		c-7.456-2.741-14.141-7.708-23.054-6.41c-7.537,1.097-13.505,2.946-19.826,9.617c-27.205,28.707-27.275,71.673-20.056,109.909
		c7.771,41.156,27.804,69.315,21.458,113.33c-5.244,36.368-0.307,64.431,13.129,97.472c7.475,18.38,12.13,41.08,25.443,53.413
		c-2.153,0.184-3.066,0.384-5.426,0.432c-9.581,0.193-13.872,1.536-21.318,9.056c-6.295,6.358-11.041,16.476-13.979,25.543
		c-12.646,39.022-1.129,67.457,8.81,103.437c10.698,38.729,18.315,72.382,26.526,110.009c6.784,31.089,11.26,63.394,7.427,94.225
		c-1.12,9.012-3.113,16.242-4.729,23.41c-0.674-0.57-1.378-1.125-2.162-1.68c-9.609-6.802-21.453-8.947-32.792-10.829
		c-19.55-3.245-42.278-8.136-58.595-15.991c-19.749-9.506-20.922-2.738-42.175-17.778c-16.712-11.826-55.478-45.924-83.181-49.259
		c1.113-0.975,4.469-0.794,5.875-1.479c6.979-3.4,8.133-12.604,12.251-21.181c7.1-14.787,15.563-30.943,25.841-45.331
		c12.439-17.413,30.343-31.936,40.847-51.613c9.758-18.28,12.098-36.736,6.43-57.044c-1.317-4.719-4.024-8.883-7.634-11.906
		c-4.27-3.575-9.263-4.192-14.399-5.911c-8.38-2.805-15.258-8.073-22.741-12.742c-7.877-4.914-15.893-9.624-25.377-10.393
		c-7.872-0.638-15.184,1.153-21.802,5.836c-13.496,9.547-22.098,23.604-29.555,38.234c-10.497,20.595-20.627,45.482-21.191,68.266
		c-0.578,23.342,3.642,43.426,9.213,64.795c2.37,9.089,3.983,15.109,7.699,22.684c3.152,6.426,6.416,11.181,13.276,13.168
		c1.225,0.355,2.979,0.958,4.139,1.769c0.15,0.105,0.289,0.216,0.473,0.293c1.071,0.448,2.205,0.749,3.337,1.021
		c0.191,0.046,0.395,0.142,0.574,0.142c-4.485,0.201-9.583-1.571-13.717,0.963c-5.229,3.205-5.586,6.589-7.076,13.081
		c-2.431,10.593-3.039,25.174-4.27,36.286c-1.296,11.697-3.053,23.69-1.338,34.74c1.423,9.17,3.882,16.682,9.869,23.221
		c12.206,13.333,25.735,18.765,43.237,24.614c24.637,8.234,49.219,16.237,76.474,19.902c27.922,3.755,57.75,0.579,84.148-9.361
		c11.228-4.228,18.45-6.832,27.864-11.773c5.556-2.916,10.013-5.864,14.09-9.648c0.171,2.262,0.546,4.64,1.137,6.852
		c0.121,0.453,0.449,0.823,0.664,1.299c0.838,1.861,1.628,3.954,2.726,5.68c0.599,0.942,1.413,1.656,2.243,2.315
		c0.347,0.275,0.828,0.119,1.235,0.294c1.036,0.445,2.008,0.629,3.171,0.513c0.2-0.02,0.292-0.151,0.564-0.198
		c1.738-0.304,2.797,0.027,4.673-0.652c10.502-3.803,18.007-9.201,26.374-17.409c9.863-9.676,18.426-19.628,25.759-32.539
		c17.241-30.354,28.184-59.967,33.033-95.899C374.356,610.347,373.048,571.353,371.604,535.178z M267.676,337.236
		c-1.738-2.883-3.116-5.985-5.431-8.488c-0.739-1.802-1.609-3.352-2.318-5.173c-8.07-20.717-12.052-40.021-11.333-62.527
		c0.364-11.398,2.964-23.714,4.371-35.403c0.718-5.966,1.884-12.558,2.017-18.756c0.125-5.854,0.044-11.976-0.932-17.782
		c-0.106-0.632-0.553-0.651-0.687,0.124c-1.159,6.702-0.961,13.935-2.007,20.645c-1.158,7.428-2.788,14.545-4.296,21.832
		c-1.509,7.287-2.884,14.118-3.946,21.739c-0.314-19.251,3.966-30.527,2.588-51.229c-2.36-35.458-21.829-71.329-23.141-109.943
		c-0.621-18.285,1.845-34.645,8.831-51.303c2.296-5.476,5.604-10.544,8.918-15.477c0.938-0.793,1.872-1.546,2.802-2.32
		c-10.768,17.182-15.201,34.174-15.394,54.593c-0.139,14.706,2.032,30.051,4.5,44.598c2.468,14.547,5.556,29.743,9.772,43.345
		c1.054,3.399,4.079,4.841,4.097,0.765c0.071-16.417-3.719-33.594-5.499-49.975s-2.558-33.128-0.389-49.12
		c1.854-13.668,6.852-24.638,14.367-35.338c3.315-4.721,6.463-6.177,10.784-9.273c-7.065,10.095-10.364,20.26-12.775,32.561
		c-2.715,13.853-3.503,29.094-2.755,43.477c0.748,14.383,2.639,28.479,5.378,42.471c0.74,3.778,1.472,7.396,2.175,10.925
		s1.754,7.011,2.397,10.261c1.209,6.118,1.929,12.355,3.729,18.102c1.241,3.962,3.562,0.683,3.563-2.921
		c0.002-6.412-0.963-14.863-1.714-21.971c-0.407-3.856-0.904-8.175-1.395-12.242c-0.422-3.495-0.793-7.084-1.316-10.754
		c-2.223-15.62-3.129-32.277-2.197-48.049c0.878-14.856,4.034-29.749,9.085-43.378c2.258-6.092,4.582-9.877,8.997-14.108
		c1.196-1.146,2.571-1.35,3.95-2.111c4.257,1.127,8.564,1.83,12.921,2.303c2.093,0.227,4.116,0.352,6.203,0.514
		c0.047,1.154,0.032,2.447,0.005,3.576c-0.059,2.473,0.051,4.83-0.1,7.277c-0.285,4.621-0.821,9.105-1.641,13.694
		c-1.914,10.717-4.245,21.455-6.569,32.118c-2.483,11.391-5.14,22.948-7.172,34.377c-1.04,5.849-1.925,11.865-2.689,17.538
		c-0.763,5.673-1.157,11.94-1.37,17.078c-0.129,3.122,2.201,5.388,3.156,2.164c1.79-6.041,3.118-11.851,4.552-18.087
		c1.33-5.783,2.888-11.68,4.305-17.665c2.903-12.255,6.174-24.572,9.193-36.927c2.759-11.291,5.67-22.5,7.14-34.18
		c0.84-6.672,0.433-13.779-0.866-20.436c4.159,0.2,8.307,0.59,12.436,1.254c8.916,19.979,7.949,39.829,2.121,60.405
		c-0.732,2.583,1.544,3.965,2.609,1.449c8.739-20.65,9.312-40.607-0.57-61.021c0.753,0.17,1.458,0.371,2.24,0.546
		c0.782,0.175,1.614,0.418,2.418,0.634c7.12,14.882,9.598,29.336,8.415,45.866c-0.724,10.115-3.528,20.189-6.992,29.732
		c-1.759,4.846-3.975,9.624-6.233,14.056s-5.7,9.713-7.021,13.868c-1.163,3.658,0.317,7.357,3.722,4.835
		c4.552-3.371,7.721-9.13,10.362-14.13c2.641-5,5.391-10.344,7.4-15.486c4.221-10.805,6.879-22.115,7.146-33.499
		c0.372-15.883-3.478-28.477-10.297-42.595c5.776,4.467,10.044,7.429,13.638,14.492c4.729,9.291,5.973,18.493,5.334,29.791
		c-1.582,27.955-13.629,53.914-24.12,80.015c-7.294,18.149-10.94,29.961-12.257,49.581c-0.17-4.861-0.187-8.908-0.429-14
		c-0.433-9.106,3.576-18.668,4.78-27.609c0.756-5.615-4.27-6.52-6.446-2.007c-4.119,8.544-5.998,18.403-6.698,27.427
		c-0.664,8.55-0.164,16.848-0.185,24.638c-0.041,14.676,1.725,28.931,2.653,42.986c0.877,13.287,0.788,25.977,0.184,38.871
		c-0.578,12.336-2.635,23.513-4.833,35.561c-0.067-5.907-0.597-10.398-0.624-16.34c-0.157-34.942-3.1-67.812-6.341-103.483
		c-1.589-17.485-2.234-40.229,1.279-59.272c1.686-9.14,3.578-21.077,4.265-31.036c0.732-10.611,2.623-22.255,3.39-32.947
		c0.29-4.046-3.657-4.697-4.535-0.543c-2.416,11.434-4.623,24.083-6.509,35.611c-1.807,11.045-3.204,23.337-4.074,33.955
		c-1.587,19.366-1.241,39.445-0.693,57.818c0.548,18.373,2.187,35.365,2.182,52.529c-0.005,17.552-0.177,32.816,0.272,49.941
		c0.011,0.433-0.048,0.745-0.012,1.213c-0.275-0.033-0.526-0.029-0.802-0.004c-0.333-6.538-0.912-12.851-1.655-19.386
		c-0.449-3.945-0.545-8.175-1.027-12.154c-0.482-3.979-1.663-8.074-2.412-11.907c-0.541-2.766-4.114-3.446-4.675-0.734
		c-3.195,15.456-2.262,30.677-1.303,46.216c0.491,7.957,1.224,15.711,1.665,23.638c0.141,2.529,0.34,4.841,0.941,7.324
		c-0.495-0.961-1.317-1.473-1.729-2.534c-1.856-4.776-3.393-10.038-4.86-14.953c-2.971-9.955-6.285-19.178-8.475-29.481
		c-2.19-10.304-3.878-21.298-5.146-31.966c-0.323-2.714-0.841-5.616-1.225-8.316c-0.384-2.7-0.649-5.301-0.897-7.993
		c-0.533-5.778-0.165-11.551-1.173-17.341c-0.751-4.313-4.378-1.923-5.141,1.679c-1.143,5.398-1.429,12.099-1.952,17.853
		c-0.523,5.755-0.348,11.661,0.296,17.306c1.269,11.118,2.103,21.961,4.45,32.732c2.348,10.77,6.471,20.551,9.738,30.955
		c0.327,1.04,0.732,2.076,1.112,3.115C271.286,342.816,269.414,340.119,267.676,337.236z M35.761,598.468
		c-0.626,2.292-0.885,4.409-0.916,6.746c-0.03,2.337,0.194,4.726,0.287,7.084c0.154,3.907,0.42,7.801,0.74,11.711
		c-0.103-0.11-0.479,0.066-0.534-0.066c-0.095-0.225-0.112-0.421-0.145-0.692c-1.31-10.71-3.444-19.175-4.451-30.453
		c-1.008-11.278-2.952-21.931-0.766-34.503s10.694-26.259,18.481-37.105c4.269-5.947,9.777-11.746,14.091-17.618
		c4.314-5.872,8.054-11.875,11.637-18.131c1.302-2.273-1.774-3.635-3.469-1.787c-4.479,4.882-8.698,10.294-13.497,15.188
		c-4.504,4.593-9.043,10.681-13.014,15.695c-8.273,10.446-17.178,25.322-20.069,37.177c-5.897,24.187,0.326,46.324,3.349,69.537
		c0.514,3.948,1.006,6.268,1.603,10.099c-3.147-7.859-5.711-14.455-7.76-22.867c-2.142-8.793-3.908-16.916-5.303-26.662
		c-1.476-10.31-1.169-21.87,0.117-33.017c0.682-5.917,2.467-12.506,4.44-18.647c1.974-6.141,5.168-12.514,6.885-18.948
		c0.907-3.399-3.198-5.034-5.429-1.799c-3.554,5.151-6.256,11.584-8.58,17.621c-1.299,3.375-2.722,6.905-3.761,10.348
		c2.948-11.774,6.733-23.841,11.613-34.81c7.019-15.775,14.387-30.502,25.335-43.524c4.425-5.263,9.062-8.786,15.183-11.184
		c4.654-1.823,8.999-1.329,13.749-0.847c-8.94,3.469-16.451,7.491-22.958,14.678c-4.663,5.151-8.49,10.756-11.576,16.987
		c-1.468,2.964-2.459,5.949-3.299,9.203c-0.84,3.254-1.995,6.83-0.788,10.177c0.903,2.504,4.069,2.061,5.273-0.206
		c1.368-2.576,1.881-5.921,2.657-8.822c0.775-2.901,1.443-5.652,2.743-8.454c2.56-5.518,5.997-10.494,9.888-15.201
		c6.359-7.693,13.988-12.69,22.931-16.911c0.568,0.228,1.132,0.449,1.676,0.693c0.544,0.244,1.072,0.489,1.593,0.745
		c-12.366,5.983-19.862,13.713-24.33,26.716c-0.544,1.584,1.759,1.964,2.523,0.536c6.082-11.373,13.025-19.751,24.75-25.732
		c2.863,1.585,5.638,3.305,8.38,5.085c-3.002,2.548-5.339,5.862-7.317,9.193c-3.463,5.831-5.29,11.985-7.909,18.171
		c-2.867,6.769-5.992,13.285-8.901,20.136c-1.421,3.346-3.214,6.538-4.725,10.053c-1.511,3.515-2.946,7.216-3.798,11.214
		c-0.454,2.133,3.224,2.489,4.56,0.814c2.2-2.757,4.741-5.913,6.539-9.028c1.797-3.115,3.567-6.297,5.178-9.387
		c3.149-6.038,5.445-12.205,7.899-18.424c2.297-5.821,4.455-11.431,6.866-17.13c1.033-2.441,2.16-4.744,3.385-7.072
		c0.648-1.233,1.426-2.313,2.144-3.517c0.328-0.549,0.71-1.17,1.089-1.704c1.278,0.828,2.553,1.671,3.85,2.466
		c2.701,1.655,5.439,3.164,8.307,4.529c0.548,0.865,1.338,1.809,1.674,2.763c1.241,3.521,1.761,6.897,1.528,10.607
		c-0.522,8.302-2.173,15.599-4.889,23.626c-2.884,8.523-6.393,15.364-13.024,21.874c-1.558,1.53-3.491,3.103-5.119,4.677
		c-1.895,1.831-3.77,3.596-5.582,5.591c-3.34,3.678-7.323,6.719-9.62,11.34c-1.291,2.598,2.149,4.372,4.542,2.856
		c3.47-2.199,6.837-5.406,9.962-8.239c1.659-1.505,3.745-2.768,5.333-4.284c1.588-1.516,3.559-3.231,4.872-4.762
		c4.86-5.67,10.804-11.534,13.621-18.425c2.817-6.891,4.849-13.989,6.426-21.383c1.401-6.566,1.75-13.21,0.623-19.9
		c1.464,2.852,2.939,5.731,3.734,8.875c1.801,7.126,1.915,13.772,0.683,21.072c-1.443,8.541-4.449,15.267-8.906,22.66
		s-9.808,14.553-11.762,23.051c-0.485,2.11,2.524,2.161,3.799,0.792c5.104-5.479,9.265-12.075,13.246-18.416
		c3.981-6.341,7.689-12.013,9.722-19.295c2.822-10.111,3.438-19.962,1.441-30.337c0.223,0.613,0.825,1.315,0.98,1.955
		c0.77,3.167,1.498,6.983,1.669,10.083c0.519,9.431,0.248,17.658-3.18,26.564c-7.239,18.807-22.737,33.255-35.584,47.93
		c-7.5,8.568-12.557,15.979-18.346,25.353c1.262-3.873,1.839-7.207,3.373-11.081c1.534-3.875,3.292-8.055,5.186-12.061
		c1.711-3.619,3.914-7.579,4.727-11.639c0.094-0.469-0.613-0.546-0.955-0.278c-3.144,2.461-5.531,5.919-7.621,9.121
		c-2.089,3.202-4.041,7.073-5.4,10.155c-2.663,6.039-4.431,12.783-6.371,18.402c-3.83,11.094-7.229,20.791-11.734,31.269
		c-0.396,0.921-0.697,1.651-1.081,2.57c-1.213,1.216-1.905,2.824-2.8,4.259c-0.895,1.436-1.714,2.829-2.657,4.222
		c0.138-0.546,0.276-1.035,0.381-1.587c1.057-5.524,2.561-10.716,3.838-16.271s2.566-11.232,3.836-16.933
		c0.645-2.894,1.288-5.986,1.789-9.058c0.501-3.072,1.46-6.194,1.331-9.472c-0.086-2.188-3.998-3.848-5.309-1.806
		c-1.76,2.741-2.201,5.808-3.222,8.784c-0.476,1.387-1.017,2.73-1.425,4.135c-0.408,1.406-0.649,2.937-0.965,4.351
		c-1.243,5.559-2.515,11.326-3.82,16.792c-1.305,5.466-2.168,10.733-2.902,16.2c-0.362,2.699-1.151,5.138-1.881,7.716
		c-0.162,0.573-0.439,1.071-0.626,1.636c-0.119-1.418-0.254-2.72-0.404-4.141c-0.47-4.455-0.984-8.487-1.446-13.066
		c-0.903-8.943-1.572-18.144-4.366-26.83C39.034,597.314,36.213,596.814,35.761,598.468z M252.374,758.531
		c-6.121,0.995-11.828,2.096-18.057,3.3c-12.166,2.352-24.788,4.526-36.805,8.161c-2.109,0.638-1.743,3.286,0.574,3.613
		c3.211,0.452,6.639,0.451,9.966,0.196c3.327-0.255,6.905-0.972,10.174-1.564c5.415-0.981,10.625-2.032,16.004-3.062
		c-0.108,0.115,0.192,0.409,0.05,0.481c-0.24,0.122-0.576,0.171-0.925,0.255c-13.853,3.337-27.206,7.423-41.556,8.629
		c-14.349,1.206-28.603-0.006-42.579-4.109c-13.976-4.103-26.751-10.316-40.147-16.743c-7.345-3.524-15.026-7.767-22.85-11.578
		c-7.825-3.811-16.451-8.797-24.633-12.466c-2.973-1.333-3.283,2.34-0.771,3.986c6.639,4.35,14.083,9.034,20.993,13.426
		c6.485,4.122,13.269,7.61,20.122,10.994c14.278,7.051,25.579,13.676,41.528,18.502c32.539,9.845,56.985,5.22,89.051-3.169
		c5.453-1.427,8.1-2.022,13.195-3.309c-10.12,4.261-18.005,8.354-28.833,11.812c-11.318,3.615-24.183,6.445-36.729,6.826
		c-13.272,0.403-26.764-2.023-39.938-3.874c-6.993-0.982-13.461-3.279-20.259-5.174c-6.799-1.895-13.835-4.65-20.808-5.808
		c-3.684-0.612-5.658,3.292-1.975,5.323c5.866,3.236,12.813,5.419,19.27,7.757c3.611,1.308,7.513,2.587,11.164,3.751
		c-12.545-2.933-25.869-6.523-37.991-10.325c-17.434-5.467-34.425-10.278-49.73-19.833c-6.186-3.862-9.67-8.247-13.467-14.322
		c-2.886-4.618-3.705-10.531-4.767-15.847c5.498,9.243,12.078,18.396,20.836,24.552c6.277,4.413,12.181,6.612,19.294,8.874
		c3.385,1.076,6.945,1.761,10.612,2.279s7.929,1.173,11.561-0.177c2.717-1.01,1.909-3.914-0.763-4.832
		c-3.035-1.043-6.965-1.184-10.277-1.715s-6.441-0.971-9.693-1.99c-6.404-2.006-11.621-3.81-17.617-7.673
		c-9.8-6.313-17.98-15.741-24.353-25.751c-0.022-0.821-0.05-1.606-0.053-2.388s0.006-1.54,0.035-2.297
		c8.778,13.477,19.253,24.352,35.409,27.152c1.969,0.341,1.695-2.043-0.185-2.712c-14.975-5.329-26.141-15.274-35.028-28.698
		c0.228-4.34,0.673-8.66,1.037-12.965c3.402,3.817,7.521,7.115,11.91,9.62c7.684,4.385,15.295,7.737,23.373,11.371
		c8.84,3.977,18.023,8.261,27.155,11.695c4.459,1.677,8.884,3.296,13.387,4.694c4.503,1.397,9.337,2.436,13.941,3.013
		c2.457,0.308,2.705-2.248,0.41-3.304c-3.778-1.738-7.781-3.53-11.978-5.246c-4.197-1.716-8.653-3.563-13.031-5.624
		c-8.555-4.027-17.76-8.457-26.125-12.927c-7.83-4.183-15.687-8.343-23.275-12.493c-3.25-1.778-5.92-3.041-8.855-4.932
		c-1.554-1.002-2.727-1.989-4.205-2.998c-0.674-0.46-1.296-0.891-1.931-1.398c0.224-2.23,0.435-4.426,0.609-6.669
		c0.362-4.669,0.529-9.438,1.059-14.085c0.886-1.106,0.959-2.076,2.131-3.097c4.325-3.77,6.348-3.42,12.049-0.453
		c12.755,6.637,27.201,17.287,38.243,26.049c11.724,9.302,21.628,17.501,33.211,25.338c2.722,1.841,4.178,2.989,6.331,4.269
		c2.506,1.489,4.652,2.407,6.779,3.575c3.919,2.154,8.306,4.107,12.059,5.452c2.11,0.756,4.997-0.837,3.461-2.45
		c-2.227-2.34-5.15-3.149-7.93-4.808c-1.476-0.881-2.486-1.49-4.329-2.585c-1.843-1.095-2.68-1.464-5.236-3.021
		c-9.467-5.769-16.264-11.718-25.878-19.774c-9.613-8.055-25.556-21.035-35.776-28.337c-9.076-6.484-19.735-15.852-30.272-14.192
		c4.779-0.95,7.035-1.503,12.307,0.453c11.949,4.434,25.339,12.243,35.894,19.843c12.349,8.891,27.814,22.333,38.066,30.402
		c10.251,8.069,15.33,10.462,25.491,10.188c2.523-0.068,3.973-1.347,2.172-2.034c-7.211-2.748-8.303,0.136-16.694-6.66
		c-8.391-6.796-21.378-18.636-31.802-26.973c-14.472-11.575-32.938-24.828-51.703-29.122c0.945,0.102,1.759,0.2,2.844,0.385
		c5.369,0.913,11.018,3.708,16.052,5.938c15.314,6.785,36.907,21.503,47.963,30.767c23.349,19.565,26.604,18.584,47.935,27.173
		c12.454,5.015,14.662,6.218,25.492,10.509c-4.377-0.884-8.311-1.577-12.326-2.33c-4.015-0.753-7.755-1.601-11.701-2.207
		c-3.564-0.547-7.14-0.966-10.676-0.925c-0.409,0.005-0.732,0.37-0.443,0.558c2.655,1.73,4.966,2.471,8.166,3.335
		c3.2,0.864,6.541,1.994,10.056,2.807c6.887,1.594,13.376,3.302,20.609,4.639c14.282,2.64,29.306,4.552,43.859,6.521
		c1.279,0.173,2.695,0.393,3.98,0.577c2.209,0.971,4.506,1.28,6.834,1.888s4.684,1.349,6.977,2.115
		c-0.8-0.087-1.631-0.181-2.433-0.239c-8.023-0.577-16.087-0.888-24.112-0.981c-8.025-0.094-16.208-0.322-24.108-1.362
		c-4.011-0.528-7.985-0.847-11.897-1.204c-3.913-0.356-7.738-1.396-11.526-1.587c-2.528-0.127-4.359,2.995-1.774,4.302
		c3.471,1.753,7.541,2.457,11.301,3.644c1.752,0.553,3.466,1.019,5.374,1.4c1.908,0.381,4.049,0.665,6.084,0.883
		c7.995,0.858,16.294,1.428,24.307,1.489s15.911-0.105,23.828-0.015c3.909,0.044,7.553,0.108,11.39,0.476
		c0.852,0.082,1.598,0.198,2.446,0.298C256.045,757.94,254.328,758.214,252.374,758.531z M362.477,621.852
		c-0.014-5.448-0.115-11.003-0.317-16.52c-0.362-9.868-0.971-21.684-2.231-30.877c-0.792-5.773-5.336-7.473-5.833-1.944
		c-0.94,10.466,0.009,21.707-0.048,31.846c-0.055,9.607-0.219,19.696-1.048,28.603c-1.561,16.78-3.521,33.327-7.524,49.039
		c-3.783,14.854-8.555,28.619-15.718,41.685c-6.853,12.5-14.348,23.162-23.82,33.735c3.659-5.499,6.788-10.436,10.014-16.15
		c18.97-33.596,28.492-70.533,28.037-110.197c-0.223-19.442-3.229-46.014-6.34-66.995c-1.493-10.071-3.241-22.782-5.309-32.872
		c-2.203-10.751-4.048-22.039-5.841-32.285c-0.678-3.877-4.231-4.927-4.111-0.655c0.332,11.762,2.078,23.533,3.651,35.559
		c1.507,11.522,3.881,24.829,5.305,36.388c2.598,21.082,5.189,45.369,4.836,65.364c-0.354,19.995-3.428,35.914-7.828,53.823
		c-4.5,18.313-11.701,33.366-20.181,49.748c-0.214,0.414-0.494,0.717-0.696,1.16c-0.144-0.145-0.293-0.245-0.461-0.346
		c3.357-6.288,6.118-12.811,8.661-19.443c1.535-4.003,3.095-7.989,4.136-12.089c1.041-4.1,1.464-8.783,2.046-12.71
		c0.42-2.834-2.336-4.75-3.532-2.215c-6.811,14.444-11.668,29.373-18.812,43.606c-3.658,7.288-8.016,14.314-12.402,21.178
		c-1.4,2.19-2.801,4.259-4.167,6.453c0.378-1.086,0.768-2.103,1.171-3.187c1.813-4.88,4.244-9.54,6.025-14.437
		c3.609-9.919,6.779-19.564,9.131-29.916c2.352-10.353,2.844-20.978,3.754-31.596c0.231-2.702,0.457-5.771,0.431-8.468
		c-0.026-2.697-0.421-5.237-0.546-7.871c-0.269-5.653-0.339-11.443-1.391-16.944c-0.784-4.098-4.872-4.426-5.284-0.496
		c-0.617,5.89-0.436,11.32-0.726,16.901c-0.29,5.581-0.382,10.929-0.769,16.335c-0.761,10.647-1.367,21.124-3.76,31.484
		c-2.392,10.359-5.121,20.364-8.344,30.474c-0.322,1.011-0.798,1.951-1.116,2.966c0.562-3.091,0.952-6.145,1.445-9.257
		c0.494-3.112,1.252-6.193,1.161-9.373c0.256-1.845,0.519-3.635,0.766-5.438c2.808-20.512,2.823-39.5,2.385-60.553
		c-0.222-10.662-1.071-23.174-1.913-34.688c-0.43-5.876-1.115-13.056-2.029-19.464c-0.864-6.052-1.835-13.179-3.84-19.108
		c-0.218-0.645-0.89-1.067-0.962-0.27c-0.625,6.897-0.031,14.179,0.429,20.966c0.508,7.513,0.961,14.922,1.269,22.203
		c0.308,7.281,0.594,13.814,1.033,21.087c-3.638-18.813-6.436-34.598-10.616-53.895c-7.16-33.051-16.821-68.025-25.019-101.041
		c-3.882-15.635-7.364-27.884-8.554-44.084c-0.391-5.326,0.813-13.399,2.363-19.219c0.281-1.055,1.273-3.177,1.743-4.184
		c-4.737,22.095-0.661,34.623,5.324,54.565c4.31,14.363,7.446,24.888,10.864,38.034c3.418,13.146,5.637,26.232,8.601,38.666
		c0.741,3.107,3.646,5.654,4.005,1.903c1.446-15.11-1.996-30.143-5.452-44.942c-3.456-14.799-7.281-28.566-10.883-43.578
		c-3.078-12.83-4.16-25.235-1.089-38.805c1.355-5.987,4.284-13.847,7.133-19.531c-3.11,14.285-2.951,31.012,0.001,44.521
		c3.324,15.212,7.086,27.446,10.661,41.389c3.575,13.943,6.728,26.535,10.209,40.201c0.94,3.69,1.784,7.362,2.718,10.96
		c0.933,3.598,2.108,7.084,3.052,10.563c1.776,6.551,3.188,13.71,5.687,19.788c1.723,4.19,5.268,3.173,5.06-1.191
		c-0.37-7.764-2.509-15.857-3.922-23.662c-0.767-4.234-1.519-8.517-2.472-12.789c-0.818-3.671-1.813-7.225-2.685-10.955
		c-3.712-15.874-7.35-29.98-11.045-46.377c-3.481-15.444-7.103-31.542-7.324-48.44c-0.099-7.553,1.038-17.69,3.796-25.335
		c0.747-2.072,2.07-3.966,3.245-5.772c4.696-0.116,9.257-0.038,13.911-0.614c2.236-0.277,4.384-0.14,6.612-0.15
		c0.44,2.02,0.956,4.984,1.345,6.864c0.852,4.119,1.974,9.543,2.685,13.15c1.343,6.811,2.657,16.136,3.387,21.789
		c1.704,13.201,2.984,25.915,3.872,37.797c0.948,12.694,1.303,22.695,2.189,34.713c0.453,6.15,0.892,12.24,1.236,18.243
		c0.345,6.003,1.343,12.974,1.957,18.331c0.373,3.254,3.617,5.974,4.137,2.451c0.974-6.603,1.085-12.755,1.082-19.442
		c-0.002-6.2-0.215-12.152-0.379-18.547c-0.335-13.096-0.53-23.003-1.224-37.13c-0.634-12.909-0.42-25.507-2.987-40.905
		c-1.466-8.796-5.319-26.695-8.646-36.645c4.748,0.454,9.212,1.889,13.618,3.962c10.649,26.461,19.169,53.033,18.123,80.676
		c-0.131,3.47,1.95,5.077,2.505,1.49c4.56-29.439-4.538-51.445-16.001-79.444c0.853,0.49,1.661,0.988,2.502,1.628
		c0.84,0.64,1.672,1.266,2.528,2.148c8.113,19.586,16.547,43.156,18.57,62.926c1.238,12.097,0.507,17.449,0.469,27.683
		c-0.019,5.197-0.708,9.156-1.164,13.788s-1.322,10.467-1.338,14.207c-0.014,3.292,2.419,7.866,4.525,4.755
		c2.816-4.159,2.868-9.782,3.579-14.816s1.08-9.852,1.09-15.204c0.019-11.247,0.562-18.551-0.979-31.047
		c-2.15-17.435-10.268-37.824-17.479-54.722c5.96,7.172,12.573,17.945,15.924,26.096c4.408,10.722,6.733,19.35,7.874,29.971
		c2.824,26.28,2.387,51.896,2.91,78.362C363.466,583.647,363.663,603.257,362.477,621.852z"/>
</g>
<g id="Layer_1">
</g>
</svg>
