<?xml version="1.0" encoding="iso-8859-1"?>
<!-- Generator: Adobe Illustrator 24.0.1, SVG Export Plug-In . SVG Version: 6.00 Build 0)  -->
<svg version="1.1" xmlns="http://www.w3.org/2000/svg" xmlns:xlink="http://www.w3.org/1999/xlink" x="0px" y="0px"
	 viewBox="0 0 378.264 782.788" style="enable-background:new 0 0 378.264 782.788;" xml:space="preserve">
<g id="Glyph_x5F_EndQuote">
	<g>
		<path d="M223.335,216.719c-6.121,12.915-13.095,26.885-12.58,41.102c0.112,3.093,0.958,4.793,1.791,7.428
			c0.145,0.458,0.501,0.621,0.724,1c0.872,1.483,1.653,2.969,2.77,4.292c0.65,0.769,1.485,1.255,2.386,1.718
			c0.396,0.204,0.889,0.106,1.329,0.231c1.124,0.321,2.229,0.465,3.411,0.396c0.204-0.012,0.349-0.112,0.58-0.132
			c1.791-0.157,3.135-0.119,5.001-0.622c10.452-2.817,19.561-8.093,28.449-14.462c10.477-7.508,21.755-17.453,30.89-26.029
			c21.478-20.161,41.882-41.417,56.789-66.133c14.551-24.126,22.991-49.144,29.282-75.992c4.469-19.072,6.05-38.132,0.842-56.576
			c-2.554-9.046-7.887-14.999-14.953-19.664c-8.514-5.622-17.992-6.133-27.482-7.264c-9.015-1.074-17.746,0.233-26.476-1.345
			c-5.35-0.967-9.64-3.065-15.201-1.892c-4.702,0.992-8.744,3.164-12.356,7.162c-15.548,17.206-21.384,37.021-24.121,60.169
			c-2.946,24.916-2.789,43.659-5.767,71.083C246.184,163.849,233.889,194.453,223.335,216.719z M270.841,158.296
			c-2.495,3.642-4.199,7.747-6.574,11.776c-2.374,4.03-4.51,8.009-6.839,12.455c-4.586,8.756-9.633,17.563-14.78,26.341
			c-5.147,8.779-10.533,18.105-15.619,27.053c-0.508,0.894-1.009,1.833-1.486,2.741c0.898-2.88,1.839-5.703,2.905-8.538
			c1.066-2.835,2.363-5.593,3.008-8.588c0.671-1.505,1.557-3.262,2.225-4.734c7.596-16.748,15.851-34.249,23.536-50.558
			c3.892-8.26,6.62-15.247,9.359-23.409c1.398-4.165,2.404-7.83,3.577-11.859c1.173-4.029,1.537-7.949,1.193-12.063
			c-0.037-0.448-0.605-0.773-0.872-0.333c-2.309,3.805-3.521,8.079-5.059,12.219c-1.703,4.583-3.359,8.884-5.045,13.534
			c-1.686,4.65-3.906,9.318-5.908,13.944c2.749-12.065,4.465-22.747,5.509-35.355c1.788-21.594,1.45-44.07,5.588-65.716
			c1.959-10.25,5.366-19.461,10.231-28.83c1.599-3.08,3.831-6.356,6.222-9.044c0.483-0.543,1.263-0.844,1.797-1.314
			c-7.234,9.314-10.999,20.016-12.987,31.606c-1.432,8.348-2.22,16.9-3.147,25.34c-0.926,8.44-2.303,17.188-2.575,25.542
			c-0.068,2.087,2.087,3.976,3.349,1.803c5.081-8.751,5.675-19.015,6.939-28.886c1.264-9.87,2.288-19.767,4.789-29.274
			c2.138-8.126,5.315-14.744,10.339-21.247c2.216-2.869,4.615-4.867,7.38-7.053c-4.455,6.563-7.017,13.033-8.804,20.844
			c-2.013,8.797-3.29,18.13-4.092,27.248s-1.132,18.412-1.418,27.548c-0.077,2.467-0.135,4.94-0.142,7.329s0.252,4.686,0.334,6.997
			c0.155,4.353-0.12,8.81,0.886,13.006c0.693,2.893,4.356,2.919,5.153,0.138c1.417-4.947,1.166-10.207,1.722-15.322
			c0.302-2.774,0.517-5.496,0.585-8.342c0.058-2.446,0.05-5.039,0.142-7.544c0.394-10.66,0.809-21.626,1.99-32.168
			c1.113-9.929,3.065-19.32,6.407-28.571c1.494-4.135,3.22-7.119,6.314-10.082c0.839-0.803,1.858-1.173,2.813-1.775
			c3.109,0.122,6.098,0.037,9.223-0.2c1.501-0.114,3.065-0.342,4.591-0.092c0.063,0.757,0.063,1.476,0.066,2.24
			c0.006,1.674,0.189,3.193,0.188,4.903c-0.003,3.229-0.306,6.06-0.656,9.406c-0.819,7.813-1.682,15.727-2.76,23.674
			c-1.151,8.49-2.7,17.309-4.26,25.777c-0.799,4.333-1.813,8.754-2.693,12.965c-0.88,4.211-1.5,8.56-2.066,12.616
			c-0.344,2.464,2.313,3.979,3.49,1.769c2.204-4.143,3.914-8.595,5.222-13.047c1.309-4.452,2.369-8.876,3.385-13.374
			c2.081-9.21,3.488-18.856,4.877-28.085c1.269-8.434,2.128-16.729,2.794-24.991c0.38-4.72,0.092-8.439-1.064-12.897
			c3.298,0.543,6.66,0.729,9.978,1.212c7.009,13.311,7.799,26.999,5.672,41.648c-0.267,1.839,1.672,2.998,2.185,1.164
			c4.215-15.056,3.015-28.578-4.51-42.264c0.586,0.113,1.174,0.237,1.772,0.369c0.598,0.132,1.203,0.315,1.808,0.455
			c5.573,9.993,8.214,19.505,9.016,31.108c0.491,7.1-0.336,15.071-1.86,22.197c-0.774,3.619-2.017,7.185-3.263,10.6
			c-1.246,3.415-3.153,7.426-3.915,10.68c-0.671,2.864,1.213,5.451,3.604,3.493c3.196-2.617,4.791-6.971,6.317-10.689
			c1.526-3.719,2.776-7.752,3.559-11.602c1.645-8.09,2.541-16.708,1.772-24.703c-1.073-11.155-4.471-19.933-10.283-29.268
			c4.418,2.814,8.044,4.749,10.835,9.652c3.672,6.45,5.581,13.247,5.871,21.278c0.717,19.871-3.718,39.877-9.377,59.029
			c-3.935,13.317-8.681,25.775-14.636,38.226c1.472-3.692,2.762-7.391,3.987-11.183c2.191-6.781,4.567-14.008,5.337-20.978
			c0.484-4.377-3.787-5.018-5.394-1.482c-3.041,6.693-5.025,14.24-7.678,21.018c-2.653,6.778-5.246,12.778-8.965,18.928
			c-7.007,11.586-13.094,21.824-21.437,32.924c-7.887,10.493-17.31,20.626-27.215,30.194c-9.477,9.154-20.74,18.572-31.295,26.8
			c4.031-4.109,9.012-9.169,12.844-13.3c22.534-24.29,45.097-48.467,58.746-78.638c6.69-14.789,8.479-28.711,10.722-44.474
			c1.076-7.566,1.713-15.729,1.549-23.499c-0.176-8.279-0.103-16.993-0.519-25.138c-0.157-3.082-3.327-3.58-3.677-0.399
			c-0.962,8.757-1.49,18.482-2.378,27.167s-1.145,17.499-2.48,25.763c-2.434,15.072-5.3,27.939-12.003,41.709
			c-6.703,13.769-14.232,25.029-24.321,37.488c-10.089,12.459-22.774,26.066-34.078,38.129c-0.286,0.305-0.661,0.782-0.933,0.948
			c-0.272,0.166-0.248-0.271-0.488-0.214c4.547-5.218,9.213-10.595,13.52-15.937c2.6-3.225,5.292-6.474,7.565-9.717
			c2.273-3.243,4.202-6.457,5.903-9.826c1.228-2.431-1.275-3.875-3.272-2.008c-11.38,10.635-21.273,23.065-31.639,34.858
			c-5.308,6.039-10.735,12.249-15.978,18.346c-1.673,1.945-3.245,3.769-4.868,5.728c0.491-0.96,0.883-1.815,1.404-2.777
			c2.343-4.331,4.973-8.397,7.585-12.636c5.289-8.586,11.078-17.338,16.167-25.992c5.088-8.655,9.915-17.274,14.437-26.069
			c1.151-2.238,2.358-4.368,3.315-6.447c0.956-2.08,1.756-3.988,2.484-5.927c1.562-4.16,3.454-7.984,4.331-12.293
			C276.598,156.26,272.505,155.866,270.841,158.296z"/>
		<path d="M0.174,262.23c0.035,0.458,0.274,0.622,0.37,0.993c0.372,1.45,0.695,2.958,1.344,4.259
			c0.37,0.741,0.923,1.253,1.499,1.763c0.26,0.23,0.642,0.116,0.963,0.268c0.799,0.377,1.573,0.537,2.493,0.505
			c0.158-0.006,0.247-0.089,0.461-0.115c1.497-0.182,1.959,0.2,3.646-0.26c9.444-2.578,15.776-6.933,24.152-13.541
			c9.874-7.79,22.076-19.802,30.998-29.427c20.977-22.629,42.064-50.285,56.28-75.83c13.877-24.934,20.941-46.674,26.863-72.62
			c4.207-18.432,5.308-36.555,1.814-53.976c-1.714-8.544-5.396-13.565-11.069-17.83c-6.834-5.138-13.834-4.32-21.386-4.4
			c-7.174-0.076-13.725,1.638-20.675,0.107c-4.259-0.938-7.21-3.068-11.868-1.653c-3.938,1.196-7.159,3.118-10.123,7.263
			C63.181,25.572,58.539,43.771,55.173,66.16c-3.623,24.099-3.259,40.783-8.725,68.453c-4.517,22.863-17.449,56.79-29.915,79.639
			c-7.231,13.253-13.905,26.093-16.167,40.436C-0.136,257.87-0.04,259.393,0.174,262.23z M12.679,249.405
			c0.571-1.005,1.069-1.852,1.679-2.844c2.745-4.463,5.601-8.508,8.544-12.965c5.96-9.028,12.37-18.29,17.801-27.7
			c5.431-9.41,10.595-18.985,15.487-28.558c1.245-2.435,2.311-4.796,3.307-7.086s1.897-4.544,2.703-6.657
			c1.729-4.534,3.838-9.045,4.806-13.614c0.721-3.404-2.625-3.245-4.108-0.548c-2.223,4.042-4.255,8.631-6.462,13.163
			c-2.207,4.532-4.533,9.018-6.97,13.864c-4.799,9.545-10.172,19.285-15.743,28.68s-11.595,18.925-17.274,28.313
			c-0.568,0.938-1.114,1.812-1.653,2.755c1.217-2.928,2.415-5.722,3.778-8.616c1.363-2.894,2.956-5.791,3.951-8.887
			c0.824-1.57,1.746-3.427,2.558-4.97c9.236-17.548,18.215-36.371,25.881-54.259c3.883-9.059,6.673-16.914,9.837-25.607
			c1.615-4.436,2.57-8.416,3.587-12.613c1.016-4.198,1.771-7.557,1.865-11.707c0.01-0.452-0.429-0.659-0.691-0.206
			c-2.264,3.917-3.557,8.035-4.979,12.401c-1.574,4.833-3.225,9.586-5.078,14.445s-3.738,10.066-5.753,14.903
			c3.094-11.856,5.491-24.264,7.083-36.311c2.726-20.633,3.772-41.016,7.649-61.367c1.836-9.637,4.646-18.63,8.777-27.59
			c1.358-2.945,3.315-6.128,5.185-8.877c0.359-0.528,1.039-0.888,1.433-1.376c-5.875,9.535-8.994,19.6-11.013,30.529
			c-1.455,7.871-2.183,15.82-3.287,23.63S62.95,85.349,62.35,93.034c-0.15,1.92,1.536,3.417,2.593,1.378
			c4.257-8.212,5.493-17.49,6.812-26.569s2.452-18.167,4.62-26.946c1.853-7.503,4.411-14.281,8.603-20.565
			c1.849-2.773,3.689-4.603,6.084-6.728c-3.913,6.315-5.904,12.865-7.482,20.116c-1.776,8.165-3.049,16.831-3.92,25.134
			c-0.871,8.303-1.514,16.413-2.098,24.658c-0.158,2.226-0.358,4.442-0.468,6.593c-0.111,2.151-0.043,4.211-0.063,6.289
			c-0.039,3.912-0.749,7.822-0.105,11.675c0.444,2.656,3.401,2.059,4.172-0.345c1.372-4.276,1.704-9.149,2.254-13.731
			c0.299-2.485,0.649-5.011,0.85-7.556c0.172-2.187,0.318-4.353,0.46-6.607c0.605-9.595,1.342-19.226,2.57-28.81
			c1.157-9.027,2.783-18.209,5.564-26.794c1.243-3.837,2.911-6.554,5.367-9.536c0.666-0.808,1.478-1.19,2.265-1.822
			c2.418,0.146,4.788-0.056,7.224-0.153c1.17-0.047,2.457-0.159,3.645-0.249c0.048,0.751,0.055,1.582,0.058,2.318
			c0.006,1.615,0.098,3.118,0.05,4.729c-0.089,3.042-0.374,6.006-0.749,9.059c-0.876,7.129-1.684,14.3-2.725,21.44
			c-1.112,7.627-2.531,15.357-4.045,22.895c-0.775,3.857-1.749,7.746-2.58,11.48c-0.831,3.734-1.557,7.581-2.154,11.15
			c-0.363,2.168,1.698,3.485,2.726,1.497c1.928-3.725,3.504-7.691,4.671-11.679c1.167-3.987,2.193-7.797,3.139-11.837
			c1.937-8.273,3.312-16.736,4.549-25.149c1.13-7.688,2.323-15.28,2.739-23.047c0.237-4.437-0.01-8.815-0.784-13.201
			c2.644-0.069,5.285-0.034,7.934,0.067c5.137,12.865,5.433,26.077,3.593,39.593c-0.231,1.697,1.28,2.552,1.698,0.861
			c3.425-13.886,2.882-27.034-2.676-40.256c0.456,0.05,0.913,0.113,1.379,0.182c0.466,0.069,0.936,0.189,1.409,0.266
			c4.095,9.648,5.913,18.903,6.356,29.554c0.271,6.517-0.572,14.041-1.859,20.62c-0.654,3.341-1.717,6.802-2.766,9.931
			c-1.049,3.129-2.703,6.949-3.363,9.762c-0.581,2.476,0.691,4.997,2.719,3.076c2.711-2.567,3.964-6.599,5.268-10.051
			c1.304-3.452,2.316-7.281,3.028-10.855c1.495-7.512,2.224-15.899,1.801-23.242c-0.591-10.244-3.037-18.465-7.383-27.51
			c3.662,2.635,6.146,3.935,8.216,8.538c2.723,6.055,4.072,12.348,4.165,19.804c0.23,18.449-3.475,37.6-8.683,55.464
			c-3.622,12.422-7.951,23.954-13.264,35.603c1.305-3.481,2.692-7.11,3.74-10.63c1.876-6.295,4.311-12.92,5.133-19.243
			c0.516-3.971-2.733-4.501-4.177-1.184c-2.732,6.278-4.566,12.707-7.014,19.263c-2.448,6.557-4.625,12.321-8.311,18.747
			c-6.945,12.108-12.749,23.631-20.926,35.958c-7.73,11.653-17.356,24.326-27.112,35.388c-9.334,10.583-20.137,21.138-30.89,30.415
			c4.232-4.436,9.24-10.137,13.225-14.664c23.436-26.625,45.087-56.8,58.752-88.613c6.698-15.594,8.642-26.64,11.161-42.071
			c1.209-7.407,1.838-13.939,1.999-21.129c0.172-7.661,0.327-15.071,0.162-22.514c-0.063-2.816-2.522-2.938-2.843-0.085
			c-0.882,7.854-1.489,16.365-2.56,24.278c-1.071,7.912-1.381,15.082-2.903,23.001c-2.776,14.443-5.803,25.844-12.108,40.031
			c-6.305,14.188-14.147,27.851-23.729,41.929c-9.581,14.078-22.683,30.234-34.327,43.624c-0.294,0.338-0.71,0.878-0.961,1.08
			c-0.117,0.094-0.179-0.298-0.314-0.258c4.755-5.801,9.549-11.732,13.97-17.724c2.668-3.617,5.464-7.346,7.841-10.95
			c2.377-3.604,4.675-7.612,6.392-11.164c1.239-2.563-0.44-4.142-2.341-1.936c-10.833,12.568-20.997,26.347-31.584,39.196
			c-5.422,6.58-10.893,12.938-16.406,19.303C15.875,245.607,14.377,247.382,12.679,249.405z"/>
	</g>
	<rect x="175.053" y="751.403" width="88.942" height="31.385"/>
</g>
<g id="Layer_1">
</g>
</svg>
