<?xml version="1.0" encoding="iso-8859-1"?>
<!-- Generator: Adobe Illustrator 24.0.1, SVG Export Plug-In . SVG Version: 6.00 Build 0)  -->
<svg version="1.1" xmlns="http://www.w3.org/2000/svg" xmlns:xlink="http://www.w3.org/1999/xlink" x="0px" y="0px"
	 viewBox="0 0 153.14 782.788" style="enable-background:new 0 0 153.14 782.788;" xml:space="preserve">
<g id="Glyph_x5F_ClosePostrophe">
	<path d="M0.174,262.23c0.035,0.458,0.274,0.622,0.37,0.993c0.372,1.45,0.695,2.958,1.344,4.259c0.37,0.741,0.923,1.253,1.499,1.763
		c0.26,0.23,0.642,0.116,0.963,0.268c0.799,0.377,1.573,0.537,2.493,0.505c0.158-0.006,0.247-0.089,0.461-0.115
		c1.497-0.182,1.959,0.2,3.646-0.26c9.444-2.578,15.776-6.933,24.152-13.541c9.874-7.79,22.076-19.802,30.998-29.427
		c20.977-22.629,42.064-50.285,56.28-75.83c13.877-24.934,20.941-46.674,26.863-72.62c4.207-18.432,5.308-36.555,1.814-53.976
		c-1.714-8.544-5.396-13.565-11.069-17.83c-6.834-5.138-13.834-4.32-21.386-4.4c-7.174-0.076-13.725,1.638-20.675,0.107
		c-4.259-0.938-7.21-3.068-11.868-1.653c-3.938,1.196-7.159,3.118-10.123,7.263C63.181,25.572,58.539,43.771,55.173,66.16
		c-3.623,24.099-3.259,40.783-8.725,68.453c-4.517,22.863-17.449,56.79-29.915,79.639c-7.231,13.253-13.905,26.093-16.167,40.436
		C-0.136,257.87-0.04,259.393,0.174,262.23z M12.679,249.405c0.571-1.005,1.069-1.852,1.679-2.844
		c2.745-4.463,5.601-8.508,8.544-12.965c5.96-9.028,12.37-18.29,17.801-27.7c5.431-9.41,10.595-18.985,15.487-28.558
		c1.245-2.435,2.311-4.796,3.307-7.086s1.897-4.544,2.703-6.657c1.729-4.534,3.838-9.045,4.806-13.614
		c0.721-3.404-2.625-3.245-4.108-0.548c-2.223,4.042-4.255,8.631-6.462,13.163c-2.207,4.532-4.533,9.018-6.97,13.864
		c-4.799,9.545-10.172,19.285-15.743,28.68s-11.595,18.925-17.274,28.313c-0.568,0.938-1.114,1.812-1.653,2.755
		c1.217-2.928,2.415-5.722,3.778-8.616c1.363-2.894,2.956-5.791,3.951-8.887c0.824-1.57,1.746-3.427,2.558-4.97
		c9.236-17.548,18.215-36.371,25.881-54.259c3.883-9.059,6.673-16.914,9.837-25.607c1.615-4.436,2.57-8.416,3.587-12.613
		c1.016-4.198,1.771-7.557,1.865-11.707c0.01-0.452-0.429-0.659-0.691-0.206c-2.264,3.917-3.557,8.035-4.979,12.401
		c-1.574,4.833-3.225,9.586-5.078,14.445s-3.738,10.066-5.753,14.903c3.094-11.856,5.491-24.264,7.083-36.311
		c2.726-20.633,3.772-41.016,7.649-61.367c1.836-9.637,4.646-18.63,8.777-27.59c1.358-2.945,3.315-6.128,5.185-8.877
		c0.359-0.528,1.039-0.888,1.433-1.376c-5.875,9.535-8.994,19.6-11.013,30.529c-1.455,7.871-2.183,15.82-3.287,23.63
		S62.95,85.349,62.35,93.034c-0.15,1.92,1.536,3.417,2.593,1.378c4.257-8.212,5.493-17.49,6.812-26.569s2.452-18.167,4.62-26.946
		c1.853-7.503,4.411-14.281,8.603-20.565c1.849-2.773,3.689-4.603,6.084-6.728c-3.913,6.315-5.904,12.865-7.482,20.116
		c-1.776,8.165-3.049,16.831-3.92,25.134c-0.871,8.303-1.514,16.413-2.098,24.658c-0.158,2.226-0.358,4.442-0.468,6.593
		c-0.111,2.151-0.043,4.211-0.063,6.289c-0.039,3.912-0.749,7.822-0.105,11.675c0.444,2.656,3.401,2.059,4.172-0.345
		c1.372-4.276,1.704-9.149,2.254-13.731c0.299-2.485,0.649-5.011,0.85-7.556c0.172-2.187,0.318-4.353,0.46-6.607
		c0.605-9.595,1.342-19.226,2.57-28.81c1.157-9.027,2.783-18.209,5.564-26.794c1.243-3.837,2.911-6.554,5.367-9.536
		c0.666-0.808,1.478-1.19,2.265-1.822c2.418,0.146,4.788-0.056,7.224-0.153c1.17-0.047,2.457-0.159,3.645-0.249
		c0.048,0.751,0.055,1.582,0.058,2.318c0.006,1.615,0.098,3.118,0.05,4.729c-0.089,3.042-0.374,6.006-0.749,9.059
		c-0.876,7.129-1.684,14.3-2.725,21.44c-1.112,7.627-2.531,15.357-4.045,22.895c-0.775,3.857-1.749,7.746-2.58,11.48
		c-0.831,3.734-1.557,7.581-2.154,11.15c-0.363,2.168,1.698,3.485,2.726,1.497c1.928-3.725,3.504-7.691,4.671-11.679
		c1.167-3.987,2.193-7.797,3.139-11.837c1.937-8.273,3.312-16.736,4.549-25.149c1.13-7.688,2.323-15.28,2.739-23.047
		c0.237-4.437-0.01-8.815-0.784-13.201c2.644-0.069,5.285-0.034,7.934,0.067c5.137,12.865,5.433,26.077,3.593,39.593
		c-0.231,1.697,1.28,2.552,1.698,0.861c3.425-13.886,2.882-27.034-2.676-40.256c0.456,0.05,0.913,0.113,1.379,0.182
		c0.466,0.069,0.936,0.189,1.409,0.266c4.095,9.648,5.913,18.903,6.356,29.554c0.271,6.517-0.572,14.041-1.859,20.62
		c-0.654,3.341-1.717,6.802-2.766,9.931c-1.049,3.129-2.703,6.949-3.363,9.762c-0.581,2.476,0.691,4.997,2.719,3.076
		c2.711-2.567,3.964-6.599,5.268-10.051c1.304-3.452,2.316-7.281,3.028-10.855c1.495-7.512,2.224-15.899,1.801-23.242
		c-0.591-10.244-3.037-18.465-7.383-27.51c3.662,2.635,6.146,3.935,8.216,8.538c2.723,6.055,4.072,12.348,4.165,19.804
		c0.23,18.449-3.475,37.6-8.683,55.464c-3.622,12.422-7.951,23.954-13.264,35.603c1.305-3.481,2.692-7.11,3.74-10.63
		c1.876-6.295,4.311-12.92,5.133-19.243c0.516-3.971-2.733-4.501-4.177-1.184c-2.732,6.278-4.566,12.707-7.014,19.263
		c-2.448,6.557-4.625,12.321-8.311,18.747c-6.945,12.108-12.749,23.631-20.926,35.958c-7.73,11.653-17.356,24.326-27.112,35.388
		c-9.334,10.583-20.137,21.138-30.89,30.415c4.232-4.436,9.24-10.137,13.225-14.664c23.436-26.625,45.087-56.8,58.752-88.613
		c6.698-15.594,8.642-26.64,11.161-42.071c1.209-7.407,1.838-13.939,1.999-21.129c0.172-7.661,0.327-15.071,0.162-22.514
		c-0.063-2.816-2.522-2.938-2.843-0.085c-0.882,7.854-1.489,16.365-2.56,24.278c-1.071,7.912-1.381,15.082-2.903,23.001
		c-2.776,14.443-5.803,25.844-12.108,40.031c-6.305,14.188-14.147,27.851-23.729,41.929c-9.581,14.078-22.683,30.234-34.327,43.624
		c-0.294,0.338-0.71,0.878-0.961,1.08c-0.117,0.094-0.179-0.298-0.314-0.258c4.755-5.801,9.549-11.732,13.97-17.724
		c2.668-3.617,5.464-7.346,7.841-10.95c2.377-3.604,4.675-7.612,6.392-11.164c1.239-2.563-0.44-4.142-2.341-1.936
		c-10.833,12.568-20.997,26.347-31.584,39.196c-5.422,6.58-10.893,12.938-16.406,19.303
		C15.875,245.607,14.377,247.382,12.679,249.405z"/>
	<rect x="42.864" y="751.403" width="88.942" height="31.385"/>
</g>
<g id="Layer_1">
</g>
</svg>
