<?xml version="1.0" encoding="iso-8859-1"?>
<!-- Generator: Adobe Illustrator 24.0.1, SVG Export Plug-In . SVG Version: 6.00 Build 0)  -->
<svg version="1.1" xmlns="http://www.w3.org/2000/svg" xmlns:xlink="http://www.w3.org/1999/xlink" x="0px" y="0px"
	 viewBox="0 0 514.317 802.231" style="enable-background:new 0 0 514.317 802.231;" xml:space="preserve">
<g id="Num08_x5F_8">
	<path d="M484.799,506.925c-23.936-37.525-55.719-53.682-96.199-68.127c-4.451-1.589-8.863-2.888-13.244-3.977
		c7.276-1.677,14.559-3.95,21.869-7.198c39.857-17.708,72.664-43.228,91.218-84.424c18.11-40.211,21.383-84.336,14.057-126.528
		c-5.204-29.973-13.777-55.457-30.983-77.389c-8.438-10.756-14.392-11.417-24.288-13.033c-11.567-1.889-16.941,4.624-25.083,9.655
		c-0.898-13.218-3.825-23.966-9.867-36.455c-7.192-14.867-16.561-29.368-28.668-42.087C355.149,27.46,318.406,6.76,276.434,1.415
		c-40.969-5.218-85.132,4.546-122.257,20.206c-26.373,11.125-48.585,25.837-65.188,45.991c-8.143,9.885-10.393,18.843-10.492,28.579
		c-0.119,11.703,5.834,17.961,12.505,25.016c-5.3,0.33-10.311,1.635-16.254,4.802c-11.241,5.99-21.772,13.318-29.651,25.19
		c-18.523,27.91-30.809,55.175-27.532,93.269c3.199,37.183,14.323,64.896,44.661,93.088c20.304,18.868,43.197,32.814,68.06,38.986
		c-13.567,4.687-26.728,10.817-39.242,18.534C52.587,418.793,31.515,454.62,19.1,496.43c-5.281,17.784-5.402,34.751-4.919,51.738
		c0.41,14.41,3.637,24.056,8.687,36.453c0.902,2.213,2.049,2.239,3.075,4.024c0.152,0.265,0.187,0.377,0.322,0.54
		c0.434,0.525,0.899,0.966,1.402,1.354c-1.427,0.751-2.867,1.579-4.328,2.533c-8.807,5.756-17.067,8.399-20.003,21.517
		c-2.437,10.887-6.169,17.12,0.15,31.598c12.885,29.52,26.763,51.486,53.406,76.185c37.505,34.767,85.533,62.363,138.547,74.62
		c54.312,12.556,115.29,1.768,164.844-24.035c21.078-10.975,40.384-24.186,56.875-39.516c12.783-11.882,21.018-22.069,28.771-35.788
		c7.726,4.346,14.411,9.317,24.661,7.354c9.185-1.759,15.342-3.732,22.762-14.276c15.13-21.498,19.22-44.217,20.659-73.515
		C516.038,575.974,508.163,543.553,484.799,506.925z M463.516,252.503c-0.782-6.085-1.354-12.342-2.725-18.506
		c-2.808-12.623-6.756-25.763-10.994-37.888c-3.873-11.079-8.377-21.552-13.366-31.824c-2.85-5.868-6.384-10.066-10.312-15.039
		c2.693-1.84,5.419-3.711,8.223-5.412c15.497,13.004,24.213,28.729,31.372,47.227c0.899,2.322,2.906,2.534,2.204,0.081
		c-5.764-20.138-14.284-35.577-30.672-48.901c0.512-0.271,1.022-0.532,1.544-0.813s1.107-0.444,1.614-0.805
		c11.803,9.551,19.96,18.327,27.501,32.176c4.614,8.474,8.401,20.248,11.137,30.146c1.389,5.026,2.64,11.126,3.098,16.231
		c0.457,5.105,0.919,12.166,1.484,16.337c0.498,3.672,2.935,7.359,4.255,3.147c1.764-5.63,0.836-12.529,0.474-18.406
		s-1.857-12.39-3.243-17.854c-2.913-11.484-7.417-24.522-12.823-34.075c-7.543-13.327-15.402-20.34-27.081-29.185
		c6.266,1.54,9.299-0.428,15,4.519c7.5,6.508,12.421,11.489,17.77,22.197c13.235,26.496,20.858,57.526,21.708,88.139
		c0.592,21.286-1.978,42.877-7.365,63.601c1.39-5.943,2.885-12.152,3.478-18.283c1.06-10.965,2.507-22.786,1.148-33.435
		c-0.853-6.687-4.215-4.481-4.61,1.09c-0.748,10.546-1.154,22.306-3.082,33.236c-1.826,10.356-3.731,21.756-8.421,31.229
		c-8.835,17.847-17.814,34.656-31.722,48.91c-13.148,13.475-28.805,23.664-45.575,31.84c-16.045,7.822-32.735,10.586-50.11,13.429
		c7.516-2.025,15.146-3.632,22.579-6.084c43.711-14.42,81.762-44.819,97.638-89.071c7.782-21.691,7.102-44.064,5.52-66.898
		c-0.759-10.96-4.409-21.901-7.676-32.283c-3.482-11.062-8.354-21.93-13.236-32.171c-1.847-3.875-4.091-1.9-2.746,2.181
		c3.704,11.234,8.99,23.88,11.709,35.921c2.606,11.538,6.541,23.253,6.931,35.068c0.711,21.548-0.073,42.152-8.355,62.12
		c-8.282,19.968-20.627,36.191-37.283,49.915c-17.033,14.034-37.33,22.983-58.219,29.841c-0.528,0.173-1.216,0.305-1.599,0.372
		c-0.383,0.066,0.001-0.366-0.251-0.403c8.515-2.65,16.899-5.635,24.661-9.866c4.686-2.554,9.486-5.145,13.916-7.534
		c4.43-2.389,8.185-5.924,11.384-9.057c2.309-2.261,1.68-4.601-1.285-2.863c-16.894,9.904-34.959,17.636-53.759,23.43
		c-9.627,2.967-19.435,5.371-29.293,7.354c-3.146,0.633-6.084,1.174-9.215,1.723c1.257-0.474,2.359-0.804,3.641-1.281
		c5.768-2.145,11.749-3.751,17.518-6.044c11.683-4.643,23.825-9.077,34.88-15.01c11.055-5.933,20.656-12.808,29.796-21.114
		c2.325-2.113,4.289-4.022,6.186-6.146c1.897-2.124,3.523-4.132,5.19-6.196c3.578-4.431,7.064-8.883,8.899-14.175
		c1.367-3.942-1.641-3.5-3.66-0.743c-3.025,4.131-6.258,8.14-10.465,11.874c-4.206,3.734-7.872,8.043-12.393,12.187
		c-8.905,8.162-19.286,14.565-30.356,20.148s-23.381,9.937-34.975,14.602c-1.159,0.466-2.389,0.96-3.554,1.404
		c3.132-1.725,6.16-3.836,9.351-5.412c3.191-1.576,6.194-3.135,9.243-4.952c1.654-0.985,3.781-1.637,5.517-2.521
		c19.754-10.061,37.968-24.029,53.152-39.577c7.69-7.874,10.924-15.753,15.725-24.833c2.45-4.634,2.707-9.092,3.623-14.017
		c0.916-4.925,0.895-9.377-0.14-14.235c-0.113-0.529-0.564-0.599-0.658-0.021c-0.813,5.006-1.571,10.05-2.742,15.004
		c-1.297,5.484-2.972,10.516-5.474,15.653c-2.502,5.137-5.313,10.045-8.821,14.702c6.671-12.675,10.399-23,9.523-38.031
		c-1.5-25.744-10.775-49.72-21.082-73.96c-4.881-11.479-9.173-25.516-11.75-38.332c-0.847-4.213-1.464-9.532-1.657-13.986
		c-0.037-0.841,0.316-1.829,0.4-2.64c1.859,15.168,6.651,29.689,12.2,43.762c3.997,10.136,9.236,20.121,12.629,30.036
		c3.393,9.916,6.313,19.259,8.888,28.849c0.643,2.396,2.438,3.856,2.744,0.795c1.234-12.33-2.816-23.162-6.738-35.005
		c-3.922-11.844-9.502-24.173-13.68-35.975c-3.571-10.087-6.114-20.072-6.791-30.513c-0.299-4.606,0.43-8.098,1.091-12.483
		c1.261,10.391,4.054,19.743,7.703,29.608c4.109,11.108,9.485,22.605,14.011,33.533c4.526,10.928,8.27,21.752,12.416,32.653
		c1.12,2.943,1.567,6.174,2.445,8.974c0.878,2.8,1.523,5.441,2.229,8.036c1.329,4.886,1.971,9.751,3.638,14.431
		c1.149,3.226,3.702,1.763,3.878-1.578c0.315-5.945-0.956-12.416-2.41-18.546c-0.789-3.326-1.493-6.974-2.437-10.437
		c-0.812-2.976-1.36-5.982-2.352-9.091c-4.225-13.232-9.654-26.474-15.137-39.256c-5.165-12.039-9.982-24.45-13.572-36.808
		c-1.605-5.524-1.926-9.947-1.848-15.415c0.021-1.482,0.677-2.485,0.976-3.871c2.77-1.597,5.331-3.396,7.867-5.351
		c1.218-0.939,2.432-1.972,3.652-2.925c0.589,0.873,1.191,1.794,1.73,2.683c1.181,1.949,2.371,3.569,3.498,5.585
		c2.128,3.808,3.971,7.195,5.729,11.403c4.104,9.827,8.88,19.632,12.302,29.938c3.656,11.01,7.076,22.58,10.276,33.746
		c1.637,5.714,2.049,11.887,3.117,17.526c1.068,5.639,2.136,11.882,2.912,17.046c0.471,3.138,2.778,4.424,3.189,1.015
		C464.686,265.632,464.36,259.066,463.516,252.503z M94.411,78.593c4.616-8.546,9.083-15.026,18.205-22.016
		c22.569-17.293,49.611-31.2,77.704-39.622c19.534-5.856,41.601-9.33,61.834-10.227c-6.145,0.223-12.269,1.409-18.224,2.69
		c-10.651,2.291-22.136,4.4-32.204,7.436c-6.322,1.906-4.181,5.169,1.43,4.455c10.62-1.352,22.794-3.732,33.447-5.789
		c10.652-2.058,21.062-2.471,31.28-1.572c19.252,1.693,37.187,5.281,54.571,12.725c16.434,7.037,32.024,18.029,44.687,30.349
		c12.115,11.786,21.816,26.658,30.255,41.155c-4.104-6.46-9.609-12.367-14.542-18.172c-29.006-34.135-68.27-59.506-114.38-59.45
		c-22.602,0.027-44.488,6.332-65.463,14.508c-10.068,3.924-19.997,10.923-29.544,16.269c-10.172,5.696-19.806,12.812-28.66,19.976
		c-3.35,2.711-1.409,5.213,2.238,2.692c10.04-6.94,21.768-14.1,32.731-19.564s20.72-13.069,32.117-16.488
		c20.788-6.236,40.815-13.031,62.363-11.167s39.583,6.655,58.726,18.492c19.143,11.837,32.076,24.67,47.469,42.381
		c0.389,0.447,0.898,0.988,1.096,1.316c0.117,0.193-0.337,0.201-0.282,0.396c-5.889-6.497-11.863-13.031-17.829-19.413
		c-3.601-3.853-7.923-7.409-12.252-9.966s-8.929-4.779-12.967-6.713c-2.914-1.396-5.088,0.23-2.326,2.462
		c15.74,12.718,27.996,25.002,41.621,39.835c6.977,7.596,11.477,16.003,17.057,24.387c1.78,2.675,3.481,5.289,5.287,7.955
		c-0.944-1.005-1.838-1.938-2.772-2.963c-4.201-4.616-8.103-9.407-12.169-14.191c-8.234-9.689-17.735-17.898-27.42-26.031
		s-18.789-13.652-30.036-19.043c-2.862-1.372-5.481-2.691-8.137-3.902c-2.655-1.211-5.475-2.468-7.91-3.453
		c-5.225-2.113-11.435-2.304-16.647-2.237c-3.882,0.05-3.87,3.374-0.484,4.297c5.073,1.383,10.485,1.093,15.57,3.72
		c5.084,2.627,10.26,5.337,15.869,8.01c11.046,5.264,19.849,12.04,29.46,20.178c9.611,8.138,19.335,17.058,27.875,26.588
		c0.854,0.952,1.777,1.88,2.646,2.803c-2.906-2.231-5.684-4.594-8.547-6.887s-5.635-4.674-8.775-6.612
		c-1.571-1.239-3.164-2.968-4.762-4.16c-18.178-13.564-36.679-25.998-57.413-34.054c-10.501-4.08-20.376-3.212-30.744-4.688
		c-5.292-0.754-9.438,0.992-14.455,2.099c-5.017,1.106-10.065,2.767-14.829,4.689c-0.519,0.209-0.627,0.721-0.005,0.698
		c5.376-0.2,10.838-1.306,16.06-2.264c5.781-1.061,10.718-1.443,16.592-0.896c5.874,0.547,11.965,2.023,17.909,2.674
		c-15.261-0.254-27.102,0.039-41.7,5.304c-25.003,9.018-46.485,26.068-68.725,40.811c-10.531,6.981-22.017,14.065-33.944,19.17
		c-3.921,1.678-8.343,3.277-12.557,4.156c-0.852,0.178-1.666-0.061-2.51,0.04c14.24-3.634,26.203-11.317,38.095-19.9
		c8.565-6.182,17.796-12.976,26.606-18.822c8.81-5.846,18.495-11.193,27.192-16.135c2.173-1.235,3.367-3.956,0.362-3.464
		c-12.101,1.984-23.191,9.282-33.617,15.945c-10.426,6.663-21.199,14.575-31.422,21.146c-8.738,5.616-17.061,9.722-26.713,12.237
		c-4.258,1.11-7.669,1.41-11.89,1.376c9.681-2.972,17.703-7.325,26.234-13.055c9.607-6.453,19.966-13.639,29.419-20.646
		s19.416-13.061,29.275-19.411c2.662-1.714,5.602-3.616,8.1-5.35c2.497-1.733,4.831-3.471,7.196-5.027
		c4.453-2.93,9.26-4.483,13.733-6.973c3.084-1.716,1.268-3.995-2.177-3.418c-6.128,1.027-11.834,3.194-17.424,6.73
		c-3.032,1.918-6.321,3.859-9.418,5.889c-2.662,1.744-5.384,3.595-8.171,5.334c-11.86,7.4-23.854,15.396-35.137,23.399
		c-10.628,7.538-21.253,14.584-32.427,20.493c-4.995,2.641-9.003,4.323-14.309,4.917c-1.438,0.161-2.286-0.247-3.633-0.358
		c-1.959-2.311-4.013-4.36-6.508-6.119c-1.198-0.845-2.508-1.688-3.755-2.492c0.7-0.704,1.286-1.241,2.047-1.929
		c1.667-1.509,3.105-2.996,4.872-4.542c3.337-2.919,6.654-5.523,10.34-8.266c8.607-6.405,17.159-12.736,26.348-18.586
		c9.817-6.249,19.877-12.632,30.358-17.76c5.363-2.624,11.267-5.387,16.42-7.861s10.387-5.443,15.225-6.915
		c2.939-0.894,4.057-3.639,0.68-3.376c-6.328,0.493-12.364,2.501-18.262,4.992c-5.898,2.49-11.484,5.039-17.312,7.688
		c-11.934,5.423-23.361,12.372-34.263,19.366c-9.963,6.392-18.95,12.574-27.861,20.031c-5.09,4.26-9.61,8.704-13.633,13.954
		c-2.805-1.946-4.462-4.266-6.098-7.235c9.911-17.925,23.642-31.534,40.87-42.209c2.163-1.34,2.164-3.528-0.172-2.325
		c-19.169,9.872-32.068,22.513-42.237,41.463c-0.252-0.561-0.484-1.119-0.726-1.704s-0.408-1.223-0.67-1.819
		c7.245-13.276,14.433-24.485,26.505-34.492c7.387-6.124,17.506-12.266,26.228-17.368c4.429-2.591,10.181-4.474,14.963-6.053
		c4.782-1.58,11.609-3.659,15.43-5.214c3.364-1.369,6.357-4.961,2.123-5.226c-5.66-0.354-11.942,2.075-17.32,3.83
		c-5.379,1.754-11.696,3.83-16.515,6.377c-10.127,5.352-21.012,12.415-29.173,19.471c-11.386,9.845-17.27,20.245-23.618,33.32
		C91.765,89.114,90.902,85.09,94.411,78.593z M46.259,306.527c-11.334-16.213-17.094-29.367-20.756-47.989
		c1.222,4.975,1.998,9.136,4.154,13.776c3.855,8.298,7.007,16.978,13.187,23.934c3.881,4.368,5.507,1.423,3.833-3.044
		c-3.168-8.456-7.107-17.518-10.609-25.588c-3.502-8.07-5.103-15.174-4.928-23.201c0.33-15.124-0.561-28.385,2.578-42.718
		c2.967-13.55,7.821-25.702,15.609-37.082c7.451-10.888,17.481-16.934,27.984-24.495c-4.137,4.263-8.696,6.255-12.778,11.018
		c-24.001,28.011-30.868,53.895-26.074,90.638c2.35,18.01,10.986,31.392,22.21,46.705c5.387,7.351,15.576,15.91,24.302,21.874
		c9.298,6.355,21.289,13.004,31.525,18.06c3.873,1.913,6.109-0.378,2.266-2.656c-10.578-6.27-22.873-14.208-31.832-21.766
		s-18.975-16.153-24.878-24.245c-10.766-14.759-14.961-28.018-17.79-44.262c-2.829-16.244-0.43-29.229,3.448-44.419
		s13.463-25.812,23.769-37.055c0.26-0.284,0.701-0.56,0.94-0.716c0.142-0.092,0.237,0.33,0.385,0.296
		c-4.113,4.109-8.511,8.63-11.492,13.571c-1.799,2.983-3.992,5.879-5.328,8.933s-2.072,6.514-2.848,9.481
		c-0.56,2.141,1.571,3.328,2.771,1.429c6.839-10.823,13.894-20.676,23.486-29.439c4.912-4.487,11.341-8.05,16.648-11.95
		c1.693-1.244,2.754-2.04,4.255-3.345c-0.489,0.719-0.75,1.344-1.275,2.048c-2.363,3.169-5.355,6.005-8.1,8.921
		c-5.56,5.906-11.351,12.241-15.636,18.812s-6.309,13.005-7.9,20.279c-0.405,1.851-0.501,3.446-0.471,5.193
		c0.03,1.747,0.238,3.006,0.327,4.699c0.19,3.634,0.092,7.403,1.581,10.76c1.109,2.501,4.184,1.371,4.186-0.878
		c0.003-3.371-0.271-6.025,0.208-9.353c0.479-3.328-0.212-6.63,0.823-10c2.039-6.638,4.369-11.878,8.241-18.074
		c3.872-6.196,9.965-12.634,14.955-18.333c0.499-0.57,1.113-1.307,1.592-1.896c-1.12,2.213-2.373,4.495-3.608,6.623
		c-1.235,2.128-2.563,3.986-3.318,6.328c-0.648,0.971-1.457,2.131-2.08,3.082c-7.085,10.816-10.36,20.631-10.305,33.401
		c0.028,6.468,1.854,12.149,4.126,18.327c1.16,3.153,3.691,6.704,5.459,9.836c1.768,3.132,3.763,6.25,6.518,8.651
		c0.3,0.261,0.837,0.18,0.733-0.253c-0.898-3.744-2.458-7.501-4.083-10.801c-1.798-3.654-4.135-6.934-5.309-10.606
		c-1.174-3.673-1.877-7.032-2.759-10.773c4.82,9.526,8.691,15.23,15.961,23.758c12.452,14.605,29.503,26.138,45.889,37.214
		c7.759,5.245,15.457,11.121,22.837,17.618c2.426,2.136,5.913,5.416,8.176,8.098c0.457,0.542,0.755,1.431,1.14,2.005
		c-7.868-8.159-17.224-15.128-27.127-20.552c-7.133-3.907-14.566-8.021-20.915-12.807s-12-10.125-18.014-14.802
		c-1.503-1.169-4.292-1.116-3.257,1.092c4.169,8.892,11.438,15.114,19.44,20.739c8.002,5.625,16.61,10.181,24.746,15.61
		c6.953,4.64,13.542,9.522,19.132,15.819c2.466,2.778,4.195,5.67,5.705,9.086c-5.381-6.338-11.801-10.062-19.173-14.058
		c-8.302-4.5-17.281-8.998-25.519-13.963s-16.245-10.241-23.946-16.008c-2.079-1.557-3.975-3.498-5.962-5.034
		s-4.093-3.065-5.797-4.693c-3.209-3.066-6.306-6.496-9.839-8.81c-2.436-1.595-4.874-0.041-3.556,2.698
		c2.345,4.872,6.845,8.657,10.403,12.843c1.93,2.271,4.359,4.334,6.792,6.304c2.091,1.693,4.224,3.845,6.498,5.485
		c9.677,6.979,20.064,13.325,30.413,19.109c9.748,5.448,20.583,10.015,29.439,16.143c3.959,2.739,5.442,5.11,7.936,8.724
		c0.676,0.979,1.051,2.19,1.684,3.232c0.268,3.233,1.052,6.352,0.427,9.563c-0.301,1.543-0.574,3.117-0.833,4.674
		c-0.835-0.167-1.353-0.283-2.228-0.499c-1.92-0.475-3.527-0.661-5.591-1.263c-3.898-1.138-7.245-1.973-11.348-3.664
		c-9.581-3.95-19.771-8.114-28.937-13.531c-9.793-5.787-19.481-12.385-27.935-19.856c-4.326-3.823-8.116-7.62-11.611-11.759
		s-7.585-8.261-10.61-12.029c-1.838-2.289-5.438-2.117-4.346,0.74c2.047,5.355,5.644,9.928,9.12,14.686s7.576,9.06,12.086,13.318
		c9.237,8.719,20.524,16.451,31.644,22.628c10.161,5.645,20.913,10.41,31.422,14.296c6.004,2.22,10.525,2.648,16.558,2.995
		c-1.4,3.235-3.308,6.097-5.386,8.968c-20.499,3.508-39.428-4.672-56.755-14.586c-2.175-1.244-4.623-0.512-2.557,0.993
		c16.954,12.351,36.134,20.179,57.199,16.606c-0.385,0.52-0.783,1.044-1.189,1.579s-0.901,1.053-1.284,1.607
		c-15.694,2.15-29.652-0.628-44.775-6.538c-9.253-3.616-19.857-10.139-28.126-16.524c-4.199-3.242-8.477-7.572-11.983-11.209
		c-3.506-3.638-7.742-9.182-10.467-12.152c-2.399-2.614-6.911-4.323-5.801-0.34c1.484,5.324,5.991,10.146,9.537,14.558
		c3.547,4.412,8.583,8.89,12.963,12.454c9.204,7.489,21.013,14.807,31.574,18.589c14.734,5.277,27.773,7.619,42.88,5.102
		c-6.092,3.336-9.587,5.629-17.224,5.725c-10.046,0.126-19.387-1.462-29.912-6.169C87.759,350.435,62.559,329.844,46.259,306.527z
		 M182.549,348.011c2.107-9.298,2.067-17.575,4.366-26.285c1.409-5.338,2.817-9.263,2.67-14.808
		c-0.124-4.688-1.76-9.349-4.325-13.316c-11.042-17.074-29.563-27.093-45.281-38.319c-16.918-12.083-30.433-21.498-43.188-38.577
		c-10.539-14.112-9.001-28.595,1.629-43.553c5.931-8.345,13.635-17.885,14.728-29.038c1.285,2.052,2.812,3.868,5.588,5.427
		c4.39,2.466,8.652,2.922,14.875,2.021c26.784-3.878,48.437-21.449,71.257-36.146c24.563-15.82,40.536-31.835,73.843-36.19
		c27.521-3.598,61.387,15.036,82.95,35.218c12.508,11.706,25.517,25.374,40.748,32.211c1.135,0.509,2.09,0.87,2.987,1.158
		c-2.012,1.306-4.131,2.497-6.475,3.476c-5.314,2.219-9.834,2.364-14.018,7.267c-3.538,4.146-4.642,8.786-5.114,15.289
		c-2.032,27.986,12.217,53.43,21.441,79.74c9.929,28.319,23.471,46.656,11.376,78.487c-9.994,26.301-36.462,45.197-62.371,56.476
		c-12.879,5.607-26.995,11.182-38.637,19.749c-0.034-0.119-0.063-0.236-0.099-0.356c-2.88-9.605-4.304-15.423-16.059-22.402
		c-23.969-14.231-50.347-19.442-80.741-20.734c-14.19-0.603-28.439-0.015-42.518,1.875
		C177.769,361.556,180.963,355.008,182.549,348.011z M26.747,539.606c0.576-17.596,1.163-34.504,6.848-51.424
		c5.943-17.686,14.025-34.527,25.691-49.304c12.34-15.632,27.849-26.705,44.406-37.77c8.788-5.873,19.847-9.234,29.881-12.381
		c10.59-3.322,22.199-5.243,32.56-7.346c5.474-1.111,7.227-4.729,0.486-4.712c-10.735,0.027-22.27,2.988-33.007,5.454
		c-6.004,1.379-11.967,3.663-17.681,5.808c9.331-3.768,18.935-6.934,28.691-9.466c4.474-0.191,8.295-1.259,11.983-2.769
		c7.108-1.441,14.269-2.546,21.445-3.278c30.467-3.108,62.221,0.446,90.203,10.15c11.309,3.922,16.884,8.159,24.305,14.757
		c5.642,5.015,4.081,8.277,6.418,14.291c-10.279-10.439-18.247-17.328-32.436-23.087c-10.17-4.128-23.682-6.912-35.445-8.318
		c-5.597-0.669-12.248-1.311-18.123-0.911c-5.875,0.4-12.836,0.37-18.191,2.846c-4.006,1.852-0.035,3.793,3.67,3.813
		c4.209,0.022,11.27-0.432,16.392-0.637c5.122-0.206,11.332,0.248,16.495,0.977c10.168,1.435,22.333,3.67,31.331,7.152
		c14.706,5.69,24.462,12.646,35.456,23.118c-0.292,0.549-0.378,1.151-0.59,1.704c-0.211,0.554-0.405,1.094-0.607,1.636
		c-15.328-14.532-31.738-20.987-52.451-24.103c-2.524-0.38-2.054,1.583,0.364,2.175c19.267,4.712,35.986,11.325,50.881,25.014
		c-1.324,3-2.828,5.945-4.305,8.853c-5.439-3.253-10.058-6.216-16.245-8.285c-10.83-3.621-21.797-6.736-33.283-9.146
		c-12.57-2.638-26.109-4.856-38.99-6.012c-6.29-0.564-12.568-0.324-18.703-0.314c-6.617,0.011-13.17,0.535-19.408,2.123
		c-3.328,0.848-1.754,2.969,1.418,3.031c5.221,0.102,11.55,0.357,17.28,0.687s11.904-0.058,17.782,0.828
		c11.486,1.732,23.4,3.63,34.79,5.834c10.661,2.063,21.001,5.533,31.276,8.334c4.4,1.2,7.997,2.59,12.047,4.209
		c2.145,0.857,3.905,1.828,5.99,2.748c0.951,0.42,1.942,0.898,2.884,1.37c-0.788,1.333-1.655,2.67-2.429,3.999
		c-1.611,2.767-3.065,5.539-4.291,8.492c-1.336,0.475-2.246,1.255-3.713,1.468c-5.412,0.783-9.84,1.035-15.525,0.157
		c-12.718-1.965-25.647-5.14-38.252-8.708c-13.383-3.788-27.215-7.462-40.882-9.943c-3.211-0.583-6.262-0.739-9.318-1.159
		c-3.556-0.49-7.264-0.717-10.664-1.07c-6.267-0.651-12.848-1.075-18.702,0.004c-3.291,0.607-4.412,3.326-1.064,4.05
		c4.855,1.049,9.763,1.057,14.779,1.745c2.664,0.365,5.366,0.663,8.256,1.173c2.89,0.51,6.152,0.536,9.215,1.266
		c11.345,2.705,22.561,5.02,33.982,8.098c11.421,3.078,23.515,6.925,35.061,9.566c10.253,2.345,19.888,3.907,30.354,3.817
		c-4.263,1.222-7.631,2.395-12.238,2.693c-10.441,0.676-20.67-0.556-31.134-2.796c-12.242-2.62-25.189-6.562-37.44-8.922
		s-23.515-4.978-35.582-2.163c-2.996,0.699-1.317,2.29,1.143,2.618c9.842,1.315,19.484,3.005,29.755,5.089
		s20.848,5.991,31.415,8.646c14.672,3.687,29.689,6.564,44.971,6.45c-0.794,0.188-1.728,0.665-2.566,0.737
		c-4.442,0.383-9.796,0.458-14.083,0.162c-13.042-0.901-27.515-3.345-39.528-6.703c-25.367-7.092-50.341-13.195-76.063-11.359
		c-15.018,1.072-24.776,6.102-36.483,14.353c4.164-4.08,8.669-7.5,13.44-10.645c4.771-3.144,9.544-5.454,14.816-7.448
		c4.762-1.801,9.665-3.204,14.525-4.656c0.562-0.168,0.434-0.607-0.105-0.65c-4.951-0.399-9.368,0.155-14.134,1.699
		c-4.766,1.544-9.154,2.374-13.432,5.402c-8.383,5.932-15.78,10.157-22.595,18.799c-13.458,17.064-24.957,36.928-32.385,57.816
		c-0.653,1.836-1.024,4.029-1.788,5.796c-1.408,3.258-2.567,6.438-3.718,9.805c-1.151,3.368-2.854,6.643-4.16,9.971
		c0.29-1.213,0.621-2.496,0.934-3.706c3.13-12.099,5.857-24.868,9.965-36.567c4.108-11.699,9.117-22.819,16.061-32.703
		c3.526-5.019,7.326-9.209,10.486-13.862c3.159-4.653,6.718-8.376,10.424-11.91c2.473-2.358,2.524-5.397-1.209-3.533
		c-5.011,2.503-8.976,6.534-12.908,10.655c-1.832,1.92-3.613,3.791-5.474,5.947c-1.861,2.155-3.5,4.349-5.296,6.928
		c-7.057,10.135-12.635,20.543-17.091,32.272c-4.456,11.728-7.286,24.341-10.382,36.526c-1.529,6.016-2.35,12.154-3.732,18.151
		c-0.307,1.332-0.492,2.468-0.8,3.776c0.14-3.176,0.297-6.159,0.519-9.36c0.694-10.032,1.811-20.068,3.511-29.998
		c3.319-19.391,8.655-38.303,16.295-56.334c1.341-3.164-1.06-3.486-3.005-0.905c-2.694,3.577-5.715,7.757-7.512,12.458
		c-1.797,4.701-3.747,9.795-5.675,14.772c-3.194,8.244-5.071,16.943-6.6,25.729c-0.069-0.245-0.448,0.191-0.432-0.196
		s0.058-1.088,0.162-1.633c4.104-21.6,10.359-42.882,22.077-61.583c11.459-18.289,25.953-32.624,44.685-43.414
		c18.732-10.79,39.063-14.227,60.522-16.304c11.766-1.139,23.891,1.252,35.669,2.346c12.292,1.143,25.514,4.752,37.132,6.975
		c4.221,0.807,5.889-1.673,1.808-3.005c-10.785-3.519-22.191-6.947-33.61-8.972c-10.717-1.9-22.037-4.107-33.003-3.445
		c-22.847,1.378-45.121,3.592-65.625,14.109c-41.832,21.455-67.065,63.112-75.723,108.318
		C28.394,524.118,27.785,531.891,26.747,539.606z M406.912,708.949c-10.943,8.368-20.656,17.743-32.876,24.517
		c-23.864,13.228-48.441,25.639-74.613,33.528c-4.593,1.384-1.704,2.9,2.46,2.213c5.771-0.952,14.064-1.919,20.785-3.464
		c0.405-0.093,0.812-0.215,1.217-0.323c-11.167,4.089-22.593,7.431-34.354,9.677c-29.501,5.634-57.989,5.809-86.943-1.079
		c-28.954-6.888-52.882-21.985-75.644-40.056c-12.48-9.908-23.176-20.629-34.217-31.471c-11.04-10.842-19.407-24.607-28.481-36.177
		c-3.296-4.203-5.737-2.851-2.813,1.529c7.725,11.575,13.65,23.8,23.731,34.749c9.462,10.276,18.803,20.758,30.583,29.896
		c24.541,19.038,45.678,34.966,77.099,44.553c64.102,19.558,121.061,5.508,179.11-26.001c9.872-5.359,17.758-11.477,26.757-17.762
		c-18.185,15.377-36.977,28.065-58.841,38.02c-22.854,10.405-47.404,17.018-72.746,18.896c-26.808,1.987-53.514-0.803-79.55-7.223
		c-13.819-3.408-26.023-10.149-38.93-15.745c-12.907-5.597-25.791-13.442-37.139-20.99c-5.996-3.988-8.527-1.658-2.644,3.767
		c9.37,8.638,22.668,16.076,34.663,22.133c6.707,3.387,14.278,6.683,20.969,9.78c-23.706-9.433-48.328-22.909-68.542-37.676
		c-29.071-21.238-54.494-46-72.188-75.78c-7.151-12.036-9.388-19.921-11.72-31.273c-1.773-8.63,1.958-10.292,3.189-17.754
		c2.135,16.563,4.708,28.721,12.759,44.015c5.771,10.961,14.493,22.822,23.409,32.847c4.243,4.77,10.059,10.238,15.529,14.5
		c5.469,4.262,12.635,9.767,19.369,11.487c5.038,1.287,1.468-3.57-1.817-6.088c-3.731-2.86-11.52-8.081-16.123-11.882
		s-9.584-9.003-13.496-13.515c-7.705-8.884-16.249-20.248-21.499-29.857c-8.581-15.704-12.04-28.809-14.706-45.788
		c0.55-0.325,0.935-0.865,1.406-1.266c0.471-0.401,0.918-0.807,1.382-1.184c3.283,23.592,13.262,41.943,29.192,59.476
		c1.941,2.136,2.458-0.162,0.722-2.449c-13.827-18.219-23.848-36.263-27.402-59.4c2.379-2.38,5.02-4.422,7.541-6.633
		c2.561,6.94,4.404,12.227,8.295,18.914c6.811,11.706,13.651,23.481,22.205,34.82c9.362,12.409,20.08,25.031,30.843,36.83
		c5.256,5.762,11.56,10.992,18.03,15.761s13.785,10.07,20.696,14.169c3.688,2.187,3.219-0.661,0.186-3.225
		c-4.993-4.221-11.705-9.71-17.401-14.347c-5.696-4.637-10.78-11.038-15.672-16.623c-9.56-10.914-20.262-21.945-28.347-33.662
		c-7.568-10.968-13.766-21.538-20.751-32.467c-2.991-4.68-5.66-9.432-8.222-14.105c-1.357-2.475-2.192-4.522-3.371-6.813
		c-0.538-1.045-0.771-1.587-1.226-2.585c1.47-0.502,2.901-1.291,4.365-1.758c3.046-0.972,6.116-1.653,9.126-2.69
		c1.459,0.836,2.738,0.981,4.11,2.082c5.063,4.063,8.837,7.385,13.168,12.749c9.689,12,18.444,24.465,27.469,37.723
		c9.583,14.076,20.343,29.108,31.027,42.82c2.51,3.222,4.991,6.901,7.818,9.884c3.29,3.471,7.251,6.857,10.616,10.11
		c6.202,5.996,13.915,12.294,20.803,16.283c3.872,2.243,7.098,1.275,3.747-2.095c-4.859-4.888-10.565-9.414-15.467-14.544
		c-2.603-2.724-5.342-5.606-8.099-8.454c-2.757-2.847-6.016-6.044-8.497-9.233c-9.189-11.808-19.044-23.897-27.194-36.217
		c-8.149-12.32-16.391-25.071-24.664-36.608c-7.346-10.245-13.939-18.135-22.732-26.762c4.395,2.736,7.628,3.93,11.758,7.49
		c9.361,8.069,17.271,16.469,25.054,26.968c9.106,12.284,17.541,26.583,27.654,38.814c10.112,12.231,20.612,25.016,34.512,33.018
		c3.451,1.987,2.276-1.344-0.057-3.517c-9.338-8.695-18.426-19.612-26.669-30.105c-8.243-10.493-15.445-22.314-22.835-33.423
		c-10.26-15.425-21.552-29.07-35.083-41.679c0.878,0.591,1.75,0.721,2.61,1.429c4.254,3.504,8.608,7.433,12.398,11.386
		c11.529,12.023,20.331,24.633,30.23,38.13c20.904,28.502,42.073,56.697,71.86,76.82c17.391,11.749,37.781,16.079,57.823,21.153
		c-8.634-1.26-17.618-2.351-26.227-3.686s-16.252-4.128-24.222-7.435c-7.2-2.987-14.508-6.025-21.623-9.139
		c-0.822-0.36-0.862,0.232-0.211,0.7c5.978,4.297,11.524,8.039,18.467,11.185c6.943,3.145,13.827,5.935,21.604,7.931
		c15.239,3.912,28.972,6.29,45.42,5.733c32.477-1.099,64.869-9.216,94.389-23.613c2.595-1.266,5.588-2.406,8.203-3.631
		c5.006-1.507,9.847-3.533,14.682-5.423c4.835-1.89,9.451-4.024,14.151-6.183c-1.565,0.843-3.022,1.886-4.574,2.744
		c-15.529,8.589-31.142,16.987-47.26,24.476c-16.117,7.489-33.76,11.866-50.815,15.733c-8.66,1.964-16.825,0.979-25.171,1.868
		c-8.346,0.889-17.471,1.46-25.205,1.061c-5.161-0.266-6.786,1.826-1.261,3.728c7.417,2.554,16.976,1.178,25.273,0.959
		c3.866-0.102,7.98,0.003,12.174-0.186c4.194-0.189,8.692-0.193,13.192-0.655c17.685-1.813,34.376-7.057,50.772-14.015
		c16.396-6.958,32.19-14.937,47.183-24.409c7.403-4.677,14.31-9.476,21.745-13.948c1.652-0.993,3.193-1.918,4.854-2.888
		C413.665,703.677,410.404,706.279,406.912,708.949z M374.819,741.74c-0.448,0.326-1.293,0.751-1.96,1.109
		c-11.756,6.308-23.713,12.269-35.964,17.445c1.927-0.929,3.836-1.881,5.711-2.804c10.649-5.238,21.512-10.717,32.101-16.23
		C374.475,741.56,375.267,741.415,374.819,741.74z M361.064,711.258c-37.555,21.698-91.364,26.566-130.561,15.858
		c-47.439-12.96-61.477-39.71-87.693-70.918c-24.356-28.994-36.834-55.305-65.541-76.382c-6.67-4.897-9.618-4.977-15.754-5.298
		c-6.935-0.362-8.721,3.156-13.249,6.162c7.679-13.047,11.558-28.544,15.646-42.697c7.841-27.148,23.162-55.834,47.953-69.139
		c30.004-16.103,49.935-5.041,79.299,1.15c27.28,5.751,54.351,16.596,81.84,10.969c6.387-1.307,10.847-3.001,14.501-7.045
		c4.322-4.783,3.882-9.283,5.397-14.839c0.637-2.339,1.491-4.501,2.468-6.575c0.453,0.675,0.941,1.349,1.468,2.043
		c10.439,11.75,28.197,19.259,43.114,24.737c25.718,9.446,55.098,26.304,68.161,45.122c15.81,22.774,5.111,42.506,0.127,64.796
		c-4.63,20.709-15.88,50.615-9.8,74.333c1.413,5.511,2.898,11.036,6.968,14.449c4.813,4.037,9.262,4.224,14.812,5.689
		c0.2,0.053,0.393,0.117,0.591,0.174C400.799,691.795,380.293,700.148,361.064,711.258z M496.628,664.851
		c-3.92,9.915-8.156,16.111-14.847,22.139c-5.087,4.583-8.36,4.02-14.192,5.007c10.748-8.323,17.468-16.229,23.181-29.241
		c4.095-9.327,6.817-21.463,8.011-32.375c0.569-5.192,1.127-10.82,0.658-16.162c-0.469-5.342-0.719-11.571-2.997-16.387
		c-1.705-3.602-3.848-0.74-3.929,2.779c-0.092,3.998,0.604,10.164,0.911,14.854c0.308,4.691-0.091,9.945-0.735,14.722
		c-1.268,9.405-3.383,20.294-6.815,28.589c-5.609,13.556-12.462,23.083-23.266,32.236c-0.563-0.248-1.154-0.392-1.707-0.617
		c-0.553-0.226-1.094-0.453-1.635-0.664c15.102-12.729,21.729-28.701,24.161-48.13c0.296-2.367-1.685-2.189-2.216,0.107
		c-4.234,18.29-10.714,34.072-25.02,46.714c-2.154-1.02-4.255-2.157-6.317-3.334c-0.044-0.632-0.172-1.248-0.387-1.89
		c-0.161-0.482,0.025-1.026-0.286-1.383c-0.087-0.1-0.165-0.189-0.246-0.284c2.756-4.052,5.152-8.13,6.921-12.887
		c3.645-9.804,6.641-20.094,8.846-30.418c2.413-11.298,4.503-23.273,5.332-34.703c0.405-5.582,0.018-10.922,0.002-16.317
		c-0.016-5.818-0.826-11.52-2.316-16.898c-0.795-2.87-3.144-1.849-3.134,0.963c0.018,4.628-0.219,9.92-0.472,14.937
		c-0.253,5.018,0.258,10.323-0.509,15.517c-1.499,10.15-3.234,20.553-5.162,30.746c-1.805,9.541-5.238,19.063-7.917,28.344
		c-1.147,3.975-2.577,7.51-4.209,11.2c-0.864,1.954-1.842,3.639-2.773,5.556c-0.233,0.479-0.485,0.982-0.745,1.484
		c-0.534-0.053-1.075-0.096-1.629-0.133c-0.522-0.034-0.628-0.456-1.39-0.295c-0.035,0.007-0.067,0.013-0.102,0.02
		c-0.497-0.323-0.994-0.648-1.491-0.952c-2.763-1.689-5.497-3.27-8.454-4.59c-0.524-1.228-1.213-2.255-1.475-3.606
		c-0.964-4.984-0.971-9.507-0.217-14.653c1.686-11.513,4.727-23.531,8.07-34.622c3.549-11.775,6.794-23.512,9.102-35.384
		c0.542-2.789,0.632-5.299,1.034-7.936c0.468-3.068,0.612-6.148,0.934-9.116c0.593-5.47,1.033-10.736-0.207-15.835
		c-0.697-2.866-3.623-3.848-4.217-0.985c-0.862,4.152-1.052,8.049-1.568,12.295c-0.274,2.255-0.552,4.433-1.032,6.885
		c-0.48,2.452-0.399,5.222-1.133,7.847c-2.72,9.722-4.452,19.052-7.351,29.027s-6.44,20.725-8.869,31.134
		c-2.157,9.243-3.949,18.575-3.496,28.159c-1.338-3.903-2.328-7.363-2.804-11.592c-1.078-9.584,0.34-19.34,2.349-28.711
		c2.35-10.965,6.109-22.096,8.091-32.742c1.982-10.646,4.981-20.408,1.47-30.46c-0.872-2.496-2.417-1.372-2.689,0.745
		c-1.086,8.472-2.64,16.172-4.38,25.12s-5.507,17.642-7.942,27.188c-3.38,13.253-6.521,27.187-5.772,41.249
		c-0.175-0.696-0.686-1.714-0.77-2.47c-0.448-4.004-0.485-9.545-0.288-13.292c0.598-11.397,2.924-25.854,5.992-35.791
		c6.478-20.984,12.242-42.56,9.71-63.695c-1.478-12.34-6.261-21.203-14.361-30.068c4.166,3.34,7.315,7.331,10.63,11.361
		c3.315,4.03,5.299,7.803,7.418,12.397c1.914,4.151,3.526,7.8,4.892,12.033c0.158,0.489,0.602,0.425,0.683-0.057
		c0.737-4.421-0.165-7.51-1.826-11.665s-2.192-7.502-5.313-11.204c-6.116-7.254-9.532-13.49-18.317-19.412
		c-17.346-11.694-36.689-22.704-56.365-31.573c-1.73-0.78-3.825-1.488-5.562-2.236c-2.923-1.899-6.079-3.013-9.191-4.576
		c-3.112-1.563-6.137-3.573-9.118-5.405c1.12,0.481,2.314,1.004,3.454,1.466c11.41,4.619,23.935,8.53,35.213,12.971
		s22.234,9.211,31.703,16.063c4.807,3.479,8.969,6.53,13.665,9.233c4.696,2.703,8.394,5.7,11.699,9.128
		c2.205,2.287,5.645,2.325,3.771-1.101c-2.516-4.599-5.988-7.957-10.251-11.334c-1.986-1.573-3.701-3.096-5.852-4.719
		s-4.195-3.116-6.632-4.856c-9.578-6.837-19.732-12.397-30.963-16.943s-23.636-8.789-35.2-13.008
		c-5.71-2.083-11.492-4.06-17.097-6.284c-1.245-0.494-2.297-0.861-3.513-1.353c3.064,0.596,5.932,1.214,9.005,1.912
		c9.631,2.189,19.638,4.313,29.149,6.899c18.574,5.051,37.618,10.458,55.06,18.065c3.061,1.335,3.969-0.858,1.404-2.761
		c-3.555-2.638-7.447-5.327-11.991-7.213c-4.544-1.887-9.452-3.899-14.219-6.011c-7.895-3.499-16.53-5.739-24.941-8.003
		c0.162-0.028,0.052-0.455,0.227-0.429c0.41,0.061,1.098,0.201,1.612,0.339c20.365,5.45,42.024,12.295,59.841,23.128
		c17.423,10.594,30.983,23.533,41.537,40.057c10.554,16.525,13.49,33.731,15.527,52.685c1.117,10.392-1.214,20.499-2.107,30.953
		c-0.932,10.911-4.326,22.412-6.433,32.935c-0.766,3.823,1.947,5.408,3.17,1.717c3.232-9.754,6.521-19.401,8.385-29.596
		c1.75-9.568,3.739-18.796,3.161-28.736c-1.203-20.709-2.765-38.122-13.365-57.292c-21.626-39.109-61.624-59.539-103.723-71.364
		c-7.159-2.011-15.236-3.673-22.515-5.144c17.03,1.449,34.11,4.565,50.294,10.34c16.916,6.036,33.374,14.447,47.338,24.88
		c14.771,11.036,25.328,25.304,35.746,39.846c5.53,7.719,9.026,17.467,11.919,26.353c3.053,9.379,5.053,19.441,7.013,28.73
		c1.035,4.908,4.961,6.757,4.912,0.599c-0.078-9.806-2.93-19.451-5.279-29.108c-1.314-5.4-3.346-10.437-5.546-15.53
		c8.393,17.064,12.751,36.043,15.077,54.79C509.459,610.73,506.326,640.318,496.628,664.851z"/>
</g>
<g id="Layer_1">
</g>
</svg>
